{
  "traces": [
    "DarkComet40",
    "ctOs1300",
    "NanoCore1220"
  ],
  "sig": [
    "SystemCall @ SystemCall:NtAllocateVirtualMemory",
    "SystemCall @ SystemCall:NtProtectVirtualMemory"
  ],
  "windowsize": 8
}{
  "traces": [
    "DarkComet40",
    "ctOs1300",
    "NanoCore1220"
  ],
  "sig": [
    "SystemCall @ SystemCall:NtAllocateVirtualMemory",
    "SystemCall @ SystemCall:NtProtectVirtualMemory"
  ],
  "windowsize": 10
}{
  "traces": [
    "DarkComet40",
    "ctOs1300",
    "NanoCore1220"
  ],
  "sig": [
    "SystemCall @ SystemCall:NtAllocateVirtualMemory",
    "SystemCall @ SystemCall:NtProtectVirtualMemory"
  ],
  "windowsize": 10
}{
  "traces": [
    "DarkComet51",
    "ctOs1300",
    "NanoCore1220"
  ],
  "sig": [
    "SystemCall @ SystemCall:NtAllocateVirtualMemory",
    "SystemCall @ SystemCall:NtProtectVirtualMemory"
  ],
  "windowsize": 8
}{
  "traces": [
    "DarkComet51",
    "ctOs1300",
    "NanoCore1220"
  ],
  "sig": [
    "SystemCall @ SystemCall:NtAllocateVirtualMemory",
    "SystemCall @ SystemCall:NtProtectVirtualMemory"
  ],
  "windowsize": 10
}{
  "traces": [
    "DarkComet51",
    "ctOs1300",
    "NanoCore1220"
  ],
  "sig": [
    "SystemCall @ SystemCall:NtAllocateVirtualMemory",
    "SystemCall @ SystemCall:NtProtectVirtualMemory"
  ],
  "windowsize": 10
}{
  "traces": [
    "ctOs1300",
    "NanoCore1220",
    "imminentMonitor20"
  ],
  "sig": [
    "SystemCall @ SystemCall:NtCreateThreadEx",
    "SystemCall @ SystemCall:NtAllocateVirtualMemory",
    "SystemCall @ SystemCall:NtProtectVirtualMemory",
    "SystemCall @ SystemCall:NtResumeThread"
  ],
  "windowsize": 8
}{
  "traces": [
    "ctOs1300",
    "NanoCore1220",
    "imminentMonitor20"
  ],
  "sig": [
    "SystemCall @ SystemCall:NtCreateThreadEx",
    "SystemCall @ SystemCall:NtAllocateVirtualMemory",
    "SystemCall @ SystemCall:NtProtectVirtualMemory",
    "SystemCall @ SystemCall:NtResumeThread"
  ],
  "windowsize": 8
}{
  "traces": [
    "ctOs1300",
    "NanoCore1220",
    "sub-7-ThreadId2300"
  ],
  "sig": [
    "SystemCall @ SystemCall:NtAllocateVirtualMemory",
    "SystemCall @ SystemCall:NtProtectVirtualMemory"
  ],
  "windowsize": 8
}{
  "traces": [
    "ctOs1300",
    "NanoCore1220",
    "turkojan4.0-ThreadId2324"
  ],
  "sig": [
    "SystemCall @ SystemCall:NtAllocateVirtualMemory",
    "SystemCall @ SystemCall:NtProtectVirtualMemory"
  ],
  "windowsize": 8
}{
  "traces": [
    "xena2.0-ThreadId2068",
    "ctOs1300",
    "NanoCore1220"
  ],
  "sig": [
    "SystemCall @ SystemCall:NtAllocateVirtualMemory",
    "SystemCall @ SystemCall:NtProtectVirtualMemory"
  ],
  "windowsize": 8
}{
  "traces": [
    "DarkComet40",
    "ctOs1300",
    "NanoCore1220"
  ],
  "sig": [
    "SystemCall @ SystemCall:NtCreateThreadEx",
    "SystemCall @ SystemCall:NtAllocateVirtualMemory",
    "SystemCall @ SystemCall:NtProtectVirtualMemory",
    "SystemCall @ SystemCall:NtResumeThread"
  ],
  "windowsize": 8
}{
  "traces": [
    "DarkComet51",
    "ctOs1300",
    "NanoCore1220"
  ],
  "sig": [
    "SystemCall @ SystemCall:NtCreateThreadEx",
    "SystemCall @ SystemCall:NtAllocateVirtualMemory",
    "SystemCall @ SystemCall:NtProtectVirtualMemory",
    "SystemCall @ SystemCall:NtResumeThread"
  ],
  "windowsize": 8
}{
  "traces": [
    "ctOs1300",
    "NanoCore1220",
    "imminentMonitor20"
  ],
  "sig": [
    "SystemCall @ SystemCall:NtCreateThreadEx",
    "SystemCall @ SystemCall:NtAllocateVirtualMemory",
    "SystemCall @ SystemCall:NtProtectVirtualMemory",
    "SystemCall @ SystemCall:NtResumeThread"
  ],
  "windowsize": 8
}{
  "traces": [
    "ctOs1300",
    "NanoCore1220",
    "sub-7-ThreadId2300"
  ],
  "sig": [
    "SystemCall @ SystemCall:NtCreateThreadEx",
    "SystemCall @ SystemCall:NtAllocateVirtualMemory",
    "SystemCall @ SystemCall:NtProtectVirtualMemory",
    "SystemCall @ SystemCall:NtResumeThread"
  ],
  "windowsize": 8
}{
  "traces": [
    "ctOs1300",
    "NanoCore1220",
    "turkojan4.0-ThreadId2324"
  ],
  "sig": [
    "SystemCall @ SystemCall:NtCreateThreadEx",
    "SystemCall @ SystemCall:NtAllocateVirtualMemory",
    "SystemCall @ SystemCall:NtProtectVirtualMemory",
    "SystemCall @ SystemCall:NtResumeThread"
  ],
  "windowsize": 8
}{
  "traces": [
    "xena2.0-ThreadId2068",
    "ctOs1300",
    "NanoCore1220"
  ],
  "sig": [
    "SystemCall @ SystemCall:NtCreateThreadEx",
    "SystemCall @ SystemCall:NtAllocateVirtualMemory",
    "SystemCall @ SystemCall:NtProtectVirtualMemory",
    "SystemCall @ SystemCall:NtResumeThread"
  ],
  "windowsize": 8
}{
  "traces": [
    "ctOs1300",
    "NanoCore1220",
    "sub-7-ThreadId2300"
  ],
  "sig": [
    "SystemCall @ SystemCall:NtAllocateVirtualMemory",
    "SystemCall @ SystemCall:NtProtectVirtualMemory"
  ],
  "windowsize": 10
}{
  "traces": [
    "ctOs1300",
    "NanoCore1220",
    "turkojan4.0-ThreadId2324"
  ],
  "sig": [
    "SystemCall @ SystemCall:NtAllocateVirtualMemory",
    "SystemCall @ SystemCall:NtProtectVirtualMemory"
  ],
  "windowsize": 10
}{
  "traces": [
    "ctOs1300",
    "NanoCore1220",
    "turkojan4.0-ThreadId2324"
  ],
  "sig": [
    "SystemCall @ SystemCall:NtAllocateVirtualMemory",
    "SystemCall @ SystemCall:NtProtectVirtualMemory"
  ],
  "windowsize": 10
}{
  "traces": [
    "xena2.0-ThreadId2068",
    "ctOs1300",
    "NanoCore1220"
  ],
  "sig": [
    "SystemCall @ SystemCall:NtAllocateVirtualMemory",
    "SystemCall @ SystemCall:NtProtectVirtualMemory"
  ],
  "windowsize": 10
}{
  "traces": [
    "xena2.0-ThreadId2068",
    "ctOs1300",
    "NanoCore1220"
  ],
  "sig": [
    "SystemCall @ SystemCall:NtAllocateVirtualMemory",
    "SystemCall @ SystemCall:NtProtectVirtualMemory"
  ],
  "windowsize": 10
}{
  "traces": [
    "DarkComet40",
    "DarkComet51",
    "NanoCore1220"
  ],
  "sig": [
    "SystemCall @ SystemCall:NtCreateThreadEx",
    "SystemCall @ SystemCall:NtAllocateVirtualMemory",
    "SystemCall @ SystemCall:NtProtectVirtualMemory",
    "SystemCall @ SystemCall:NtResumeThread",
    "SystemCall @ SystemCall:NtWaitForMultipleObjects32"
  ],
  "windowsize": 10
}{
  "traces": [
    "DarkComet40",
    "DarkComet51",
    "NanoCore1220"
  ],
  "sig": [
    "SystemCall @ SystemCall:NtCreateThreadEx",
    "SystemCall @ SystemCall:NtAllocateVirtualMemory",
    "SystemCall @ SystemCall:NtProtectVirtualMemory",
    "SystemCall @ SystemCall:NtResumeThread",
    "SystemCall @ SystemCall:NtWaitForMultipleObjects32"
  ],
  "windowsize": 10
}{
  "traces": [
    "DarkComet40",
    "NanoCore1220",
    "imminentMonitor20"
  ],
  "sig": [
    "SystemCall @ SystemCall:NtAllocateVirtualMemory",
    "SystemCall @ SystemCall:NtProtectVirtualMemory"
  ],
  "windowsize": 10
}{
  "traces": [
    "DarkComet40",
    "NanoCore1220",
    "imminentMonitor20"
  ],
  "sig": [
    "SystemCall @ SystemCall:NtAllocateVirtualMemory",
    "SystemCall @ SystemCall:NtProtectVirtualMemory"
  ],
  "windowsize": 8
}{
  "traces": [
    "DarkComet40",
    "NanoCore1220",
    "sub-7-ThreadId2300"
  ],
  "sig": [
    "SystemCall @ SystemCall:NtCreateThreadEx",
    "SystemCall @ SystemCall:NtAllocateVirtualMemory",
    "SystemCall @ SystemCall:NtProtectVirtualMemory",
    "SystemCall @ SystemCall:NtResumeThread",
    "SystemCall @ SystemCall:NtWaitForMultipleObjects32"
  ],
  "windowsize": 10
}{
  "traces": [
    "DarkComet40",
    "NanoCore1220",
    "turkojan4.0-ThreadId2324"
  ],
  "sig": [
    "SystemCall @ SystemCall:NtCreateThreadEx",
    "SystemCall @ SystemCall:NtAllocateVirtualMemory",
    "SystemCall @ SystemCall:NtProtectVirtualMemory",
    "SystemCall @ SystemCall:NtResumeThread",
    "SystemCall @ SystemCall:NtWaitForMultipleObjects32"
  ],
  "windowsize": 10
}{
  "traces": [
    "xena2.0-ThreadId2068",
    "DarkComet40",
    "NanoCore1220"
  ],
  "sig": [
    "SystemCall @ SystemCall:NtCreateThreadEx",
    "SystemCall @ SystemCall:NtAllocateVirtualMemory",
    "SystemCall @ SystemCall:NtProtectVirtualMemory",
    "SystemCall @ SystemCall:NtResumeThread",
    "SystemCall @ SystemCall:NtWaitForMultipleObjects32"
  ],
  "windowsize": 10
}{
  "traces": [
    "DarkComet40",
    "DarkComet51",
    "NanoCore1220"
  ],
  "sig": [
    "SystemCall @ SystemCall:NtCreateThreadEx",
    "SystemCall @ SystemCall:NtAllocateVirtualMemory",
    "SystemCall @ SystemCall:NtProtectVirtualMemory",
    "SystemCall @ SystemCall:NtResumeThread",
    "SystemCall @ SystemCall:NtWaitForMultipleObjects32"
  ],
  "windowsize": 10
}{
  "traces": [
    "DarkComet40",
    "NanoCore1220",
    "imminentMonitor20"
  ],
  "sig": [
    "SystemCall @ SystemCall:NtCreateThreadEx",
    "SystemCall @ SystemCall:NtAllocateVirtualMemory",
    "SystemCall @ SystemCall:NtProtectVirtualMemory",
    "SystemCall @ SystemCall:NtResumeThread"
  ],
  "windowsize": 8
}{
  "traces": [
    "DarkComet40",
    "NanoCore1220",
    "sub-7-ThreadId2300"
  ],
  "sig": [
    "SystemCall @ SystemCall:NtCreateThreadEx",
    "SystemCall @ SystemCall:NtAllocateVirtualMemory",
    "SystemCall @ SystemCall:NtProtectVirtualMemory",
    "SystemCall @ SystemCall:NtResumeThread",
    "SystemCall @ SystemCall:NtWaitForMultipleObjects32"
  ],
  "windowsize": 10
}{
  "traces": [
    "DarkComet40",
    "NanoCore1220",
    "turkojan4.0-ThreadId2324"
  ],
  "sig": [
    "SystemCall @ SystemCall:NtCreateThreadEx",
    "SystemCall @ SystemCall:NtAllocateVirtualMemory",
    "SystemCall @ SystemCall:NtProtectVirtualMemory",
    "SystemCall @ SystemCall:NtResumeThread",
    "SystemCall @ SystemCall:NtWaitForMultipleObjects32"
  ],
  "windowsize": 10
}{
  "traces": [
    "xena2.0-ThreadId2068",
    "DarkComet40",
    "NanoCore1220"
  ],
  "sig": [
    "SystemCall @ SystemCall:NtCreateThreadEx",
    "SystemCall @ SystemCall:NtAllocateVirtualMemory",
    "SystemCall @ SystemCall:NtProtectVirtualMemory",
    "SystemCall @ SystemCall:NtResumeThread",
    "SystemCall @ SystemCall:NtWaitForMultipleObjects32"
  ],
  "windowsize": 10
}{
  "traces": [
    "DarkComet40",
    "NanoCore1220",
    "sub-7-ThreadId2300"
  ],
  "sig": [
    "SystemCall @ SystemCall:NtCreateThreadEx",
    "SystemCall @ SystemCall:NtAllocateVirtualMemory",
    "SystemCall @ SystemCall:NtProtectVirtualMemory",
    "SystemCall @ SystemCall:NtResumeThread",
    "SystemCall @ SystemCall:NtWaitForMultipleObjects32"
  ],
  "windowsize": 10
}{
  "traces": [
    "DarkComet40",
    "NanoCore1220",
    "turkojan4.0-ThreadId2324"
  ],
  "sig": [
    "SystemCall @ SystemCall:NtCreateThreadEx",
    "SystemCall @ SystemCall:NtAllocateVirtualMemory",
    "SystemCall @ SystemCall:NtProtectVirtualMemory",
    "SystemCall @ SystemCall:NtResumeThread",
    "SystemCall @ SystemCall:NtWaitForMultipleObjects32"
  ],
  "windowsize": 10
}{
  "traces": [
    "xena2.0-ThreadId2068",
    "DarkComet40",
    "NanoCore1220"
  ],
  "sig": [
    "SystemCall @ SystemCall:NtCreateThreadEx",
    "SystemCall @ SystemCall:NtAllocateVirtualMemory",
    "SystemCall @ SystemCall:NtProtectVirtualMemory",
    "SystemCall @ SystemCall:NtResumeThread",
    "SystemCall @ SystemCall:NtWaitForMultipleObjects32"
  ],
  "windowsize": 10
}{
  "traces": [
    "DarkComet51",
    "NanoCore1220",
    "imminentMonitor20"
  ],
  "sig": [
    "SystemCall @ SystemCall:NtAllocateVirtualMemory",
    "SystemCall @ SystemCall:NtProtectVirtualMemory"
  ],
  "windowsize": 10
}{
  "traces": [
    "DarkComet51",
    "NanoCore1220",
    "imminentMonitor20"
  ],
  "sig": [
    "SystemCall @ SystemCall:NtAllocateVirtualMemory",
    "SystemCall @ SystemCall:NtProtectVirtualMemory"
  ],
  "windowsize": 8
}{
  "traces": [
    "DarkComet51",
    "NanoCore1220",
    "sub-7-ThreadId2300"
  ],
  "sig": [
    "SystemCall @ SystemCall:NtCreateThreadEx",
    "SystemCall @ SystemCall:NtAllocateVirtualMemory",
    "SystemCall @ SystemCall:NtProtectVirtualMemory",
    "SystemCall @ SystemCall:NtResumeThread",
    "SystemCall @ SystemCall:NtWaitForMultipleObjects32"
  ],
  "windowsize": 10
}{
  "traces": [
    "DarkComet51",
    "NanoCore1220",
    "sub-7-ThreadId2300"
  ],
  "sig": [
    "SystemCall @ SystemCall:NtCreateThreadEx",
    "SystemCall @ SystemCall:NtAllocateVirtualMemory",
    "SystemCall @ SystemCall:NtProtectVirtualMemory",
    "SystemCall @ SystemCall:NtResumeThread",
    "SystemCall @ SystemCall:NtWaitForMultipleObjects32"
  ],
  "windowsize": 10
}{
  "traces": [
    "DarkComet51",
    "NanoCore1220",
    "turkojan4.0-ThreadId2324"
  ],
  "sig": [
    "SystemCall @ SystemCall:NtCreateThreadEx",
    "SystemCall @ SystemCall:NtAllocateVirtualMemory",
    "SystemCall @ SystemCall:NtProtectVirtualMemory",
    "SystemCall @ SystemCall:NtResumeThread",
    "SystemCall @ SystemCall:NtWaitForMultipleObjects32"
  ],
  "windowsize": 10
}{
  "traces": [
    "xena2.0-ThreadId2068",
    "DarkComet51",
    "NanoCore1220"
  ],
  "sig": [
    "SystemCall @ SystemCall:NtCreateThreadEx",
    "SystemCall @ SystemCall:NtAllocateVirtualMemory",
    "SystemCall @ SystemCall:NtProtectVirtualMemory",
    "SystemCall @ SystemCall:NtResumeThread",
    "SystemCall @ SystemCall:NtWaitForMultipleObjects32"
  ],
  "windowsize": 10
}{
  "traces": [
    "DarkComet51",
    "NanoCore1220",
    "imminentMonitor20"
  ],
  "sig": [
    "SystemCall @ SystemCall:NtCreateThreadEx",
    "SystemCall @ SystemCall:NtAllocateVirtualMemory",
    "SystemCall @ SystemCall:NtProtectVirtualMemory",
    "SystemCall @ SystemCall:NtResumeThread"
  ],
  "windowsize": 8
}{
  "traces": [
    "DarkComet51",
    "NanoCore1220",
    "sub-7-ThreadId2300"
  ],
  "sig": [
    "SystemCall @ SystemCall:NtCreateThreadEx",
    "SystemCall @ SystemCall:NtAllocateVirtualMemory",
    "SystemCall @ SystemCall:NtProtectVirtualMemory",
    "SystemCall @ SystemCall:NtResumeThread",
    "SystemCall @ SystemCall:NtWaitForMultipleObjects32"
  ],
  "windowsize": 10
}{
  "traces": [
    "DarkComet51",
    "NanoCore1220",
    "turkojan4.0-ThreadId2324"
  ],
  "sig": [
    "SystemCall @ SystemCall:NtCreateThreadEx",
    "SystemCall @ SystemCall:NtAllocateVirtualMemory",
    "SystemCall @ SystemCall:NtProtectVirtualMemory",
    "SystemCall @ SystemCall:NtResumeThread",
    "SystemCall @ SystemCall:NtWaitForMultipleObjects32"
  ],
  "windowsize": 10
}{
  "traces": [
    "xena2.0-ThreadId2068",
    "DarkComet51",
    "NanoCore1220"
  ],
  "sig": [
    "SystemCall @ SystemCall:NtCreateThreadEx",
    "SystemCall @ SystemCall:NtAllocateVirtualMemory",
    "SystemCall @ SystemCall:NtProtectVirtualMemory",
    "SystemCall @ SystemCall:NtResumeThread",
    "SystemCall @ SystemCall:NtWaitForMultipleObjects32"
  ],
  "windowsize": 10
}{
  "traces": [
    "DarkComet51",
    "NanoCore1220",
    "sub-7-ThreadId2300"
  ],
  "sig": [
    "SystemCall @ SystemCall:NtCreateThreadEx",
    "SystemCall @ SystemCall:NtAllocateVirtualMemory",
    "SystemCall @ SystemCall:NtProtectVirtualMemory",
    "SystemCall @ SystemCall:NtResumeThread",
    "SystemCall @ SystemCall:NtWaitForMultipleObjects32"
  ],
  "windowsize": 10
}{
  "traces": [
    "DarkComet51",
    "NanoCore1220",
    "sub-7-ThreadId2300"
  ],
  "sig": [
    "SystemCall @ SystemCall:NtCreateThreadEx",
    "SystemCall @ SystemCall:NtAllocateVirtualMemory",
    "SystemCall @ SystemCall:NtProtectVirtualMemory",
    "SystemCall @ SystemCall:NtResumeThread",
    "SystemCall @ SystemCall:NtWaitForMultipleObjects32"
  ],
  "windowsize": 10
}{
  "traces": [
    "DarkComet51",
    "NanoCore1220",
    "turkojan4.0-ThreadId2324"
  ],
  "sig": [
    "SystemCall @ SystemCall:NtCreateThreadEx",
    "SystemCall @ SystemCall:NtAllocateVirtualMemory",
    "SystemCall @ SystemCall:NtProtectVirtualMemory",
    "SystemCall @ SystemCall:NtResumeThread",
    "SystemCall @ SystemCall:NtWaitForMultipleObjects32"
  ],
  "windowsize": 10
}{
  "traces": [
    "xena2.0-ThreadId2068",
    "DarkComet51",
    "NanoCore1220"
  ],
  "sig": [
    "SystemCall @ SystemCall:NtCreateThreadEx",
    "SystemCall @ SystemCall:NtAllocateVirtualMemory",
    "SystemCall @ SystemCall:NtProtectVirtualMemory",
    "SystemCall @ SystemCall:NtResumeThread",
    "SystemCall @ SystemCall:NtWaitForMultipleObjects32"
  ],
  "windowsize": 10
}{
  "traces": [
    "NanoCore1220",
    "imminentMonitor20",
    "sub-7-ThreadId2300"
  ],
  "sig": [
    "SystemCall @ SystemCall:NtAllocateVirtualMemory",
    "SystemCall @ SystemCall:NtProtectVirtualMemory"
  ],
  "windowsize": 8
}{
  "traces": [
    "NanoCore1220",
    "turkojan4.0-ThreadId2324",
    "imminentMonitor20"
  ],
  "sig": [
    "SystemCall @ SystemCall:NtAllocateVirtualMemory",
    "SystemCall @ SystemCall:NtProtectVirtualMemory"
  ],
  "windowsize": 8
}{
  "traces": [
    "xena2.0-ThreadId2068",
    "NanoCore1220",
    "imminentMonitor20"
  ],
  "sig": [
    "SystemCall @ SystemCall:NtAllocateVirtualMemory",
    "SystemCall @ SystemCall:NtProtectVirtualMemory"
  ],
  "windowsize": 8
}{
  "traces": [
    "NanoCore1220",
    "imminentMonitor20",
    "sub-7-ThreadId2300"
  ],
  "sig": [
    "SystemCall @ SystemCall:NtCreateThreadEx",
    "SystemCall @ SystemCall:NtAllocateVirtualMemory",
    "SystemCall @ SystemCall:NtProtectVirtualMemory",
    "SystemCall @ SystemCall:NtResumeThread"
  ],
  "windowsize": 8
}{
  "traces": [
    "NanoCore1220",
    "turkojan4.0-ThreadId2324",
    "imminentMonitor20"
  ],
  "sig": [
    "SystemCall @ SystemCall:NtCreateThreadEx",
    "SystemCall @ SystemCall:NtAllocateVirtualMemory",
    "SystemCall @ SystemCall:NtProtectVirtualMemory",
    "SystemCall @ SystemCall:NtResumeThread"
  ],
  "windowsize": 8
}{
  "traces": [
    "xena2.0-ThreadId2068",
    "NanoCore1220",
    "imminentMonitor20"
  ],
  "sig": [
    "SystemCall @ SystemCall:NtCreateThreadEx",
    "SystemCall @ SystemCall:NtAllocateVirtualMemory",
    "SystemCall @ SystemCall:NtProtectVirtualMemory",
    "SystemCall @ SystemCall:NtResumeThread"
  ],
  "windowsize": 8
}{
  "traces": [
    "NanoCore1220",
    "imminentMonitor20",
    "sub-7-ThreadId2300"
  ],
  "sig": [
    "SystemCall @ SystemCall:NtAllocateVirtualMemory",
    "SystemCall @ SystemCall:NtProtectVirtualMemory"
  ],
  "windowsize": 10
}{
  "traces": [
    "NanoCore1220",
    "turkojan4.0-ThreadId2324",
    "imminentMonitor20"
  ],
  "sig": [
    "SystemCall @ SystemCall:NtAllocateVirtualMemory",
    "SystemCall @ SystemCall:NtProtectVirtualMemory"
  ],
  "windowsize": 10
}{
  "traces": [
    "NanoCore1220",
    "turkojan4.0-ThreadId2324",
    "imminentMonitor20"
  ],
  "sig": [
    "SystemCall @ SystemCall:NtAllocateVirtualMemory",
    "SystemCall @ SystemCall:NtProtectVirtualMemory"
  ],
  "windowsize": 10
}{
  "traces": [
    "xena2.0-ThreadId2068",
    "NanoCore1220",
    "imminentMonitor20"
  ],
  "sig": [
    "SystemCall @ SystemCall:NtAllocateVirtualMemory",
    "SystemCall @ SystemCall:NtProtectVirtualMemory"
  ],
  "windowsize": 10
}{
  "traces": [
    "xena2.0-ThreadId2068",
    "NanoCore1220",
    "imminentMonitor20"
  ],
  "sig": [
    "SystemCall @ SystemCall:NtAllocateVirtualMemory",
    "SystemCall @ SystemCall:NtProtectVirtualMemory"
  ],
  "windowsize": 10
}{
  "traces": [
    "NanoCore1220",
    "turkojan4.0-ThreadId2324",
    "sub-7-ThreadId2300"
  ],
  "sig": [
    "SystemCall @ SystemCall:NtCreateThreadEx",
    "SystemCall @ SystemCall:NtAllocateVirtualMemory",
    "SystemCall @ SystemCall:NtProtectVirtualMemory",
    "SystemCall @ SystemCall:NtResumeThread",
    "SystemCall @ SystemCall:NtWaitForMultipleObjects32"
  ],
  "windowsize": 10
}{
  "traces": [
    "xena2.0-ThreadId2068",
    "NanoCore1220",
    "sub-7-ThreadId2300"
  ],
  "sig": [
    "SystemCall @ SystemCall:NtCreateThreadEx",
    "SystemCall @ SystemCall:NtAllocateVirtualMemory",
    "SystemCall @ SystemCall:NtProtectVirtualMemory",
    "SystemCall @ SystemCall:NtResumeThread",
    "SystemCall @ SystemCall:NtWaitForMultipleObjects32"
  ],
  "windowsize": 10
}{
  "traces": [
    "NanoCore1220",
    "turkojan4.0-ThreadId2324",
    "sub-7-ThreadId2300"
  ],
  "sig": [
    "SystemCall @ SystemCall:NtCreateThreadEx",
    "SystemCall @ SystemCall:NtAllocateVirtualMemory",
    "SystemCall @ SystemCall:NtProtectVirtualMemory",
    "SystemCall @ SystemCall:NtResumeThread",
    "SystemCall @ SystemCall:NtWaitForMultipleObjects32"
  ],
  "windowsize": 10
}{
  "traces": [
    "xena2.0-ThreadId2068",
    "NanoCore1220",
    "sub-7-ThreadId2300"
  ],
  "sig": [
    "SystemCall @ SystemCall:NtCreateThreadEx",
    "SystemCall @ SystemCall:NtAllocateVirtualMemory",
    "SystemCall @ SystemCall:NtProtectVirtualMemory",
    "SystemCall @ SystemCall:NtResumeThread",
    "SystemCall @ SystemCall:NtWaitForMultipleObjects32"
  ],
  "windowsize": 10
}{
  "traces": [
    "xena2.0-ThreadId2068",
    "NanoCore1220",
    "turkojan4.0-ThreadId2324"
  ],
  "sig": [
    "SystemCall @ SystemCall:NtCreateThreadEx",
    "SystemCall @ SystemCall:NtAllocateVirtualMemory",
    "SystemCall @ SystemCall:NtProtectVirtualMemory",
    "SystemCall @ SystemCall:NtResumeThread",
    "SystemCall @ SystemCall:NtWaitForMultipleObjects32"
  ],
  "windowsize": 10
}{
  "traces": [
    "NanoCore1220",
    "turkojan4.0-ThreadId2324",
    "sub-7-ThreadId2300"
  ],
  "sig": [
    "SystemCall @ SystemCall:NtCreateThreadEx",
    "SystemCall @ SystemCall:NtAllocateVirtualMemory",
    "SystemCall @ SystemCall:NtProtectVirtualMemory",
    "SystemCall @ SystemCall:NtResumeThread",
    "SystemCall @ SystemCall:NtWaitForMultipleObjects32"
  ],
  "windowsize": 10
}{
  "traces": [
    "xena2.0-ThreadId2068",
    "NanoCore1220",
    "turkojan4.0-ThreadId2324"
  ],
  "sig": [
    "SystemCall @ SystemCall:NtCreateThreadEx",
    "SystemCall @ SystemCall:NtAllocateVirtualMemory",
    "SystemCall @ SystemCall:NtProtectVirtualMemory",
    "SystemCall @ SystemCall:NtResumeThread",
    "SystemCall @ SystemCall:NtWaitForMultipleObjects32"
  ],
  "windowsize": 10
}{
  "traces": [
    "xena2.0-ThreadId2068",
    "NanoCore1220",
    "sub-7-ThreadId2300"
  ],
  "sig": [
    "SystemCall @ SystemCall:NtCreateThreadEx",
    "SystemCall @ SystemCall:NtAllocateVirtualMemory",
    "SystemCall @ SystemCall:NtProtectVirtualMemory",
    "SystemCall @ SystemCall:NtResumeThread",
    "SystemCall @ SystemCall:NtWaitForMultipleObjects32"
  ],
  "windowsize": 10
}{
  "traces": [
    "xena2.0-ThreadId2068",
    "NanoCore1220",
    "turkojan4.0-ThreadId2324"
  ],
  "sig": [
    "SystemCall @ SystemCall:NtCreateThreadEx",
    "SystemCall @ SystemCall:NtAllocateVirtualMemory",
    "SystemCall @ SystemCall:NtProtectVirtualMemory",
    "SystemCall @ SystemCall:NtResumeThread",
    "SystemCall @ SystemCall:NtWaitForMultipleObjects32"
  ],
  "windowsize": 10
}