{
  "traces": [
    "DarkComet51",
    "imminentMonitor20",
    "DarkComet53"
  ],
  "sig": [
    "SystemCall @ SystemCall:NtCallbackReturn",
    "SystemCall @ SystemCall:NtUserGetKeyState"
  ],
  "windowsize": 4
}{
  "traces": [
    "jrat-ThreadId1364",
    "DarkComet51",
    "DarkComet53"
  ],
  "sig": [
    "SystemCall @ SystemCall:NtCallbackReturn",
    "SystemCall @ SystemCall:NtUserGetKeyState",
    "SystemCall @ SystemCall:NtCallbackReturn"
  ],
  "windowsize": 16
}{
  "traces": [
    "jrat-ThreadId1364",
    "DarkComet51",
    "DarkComet53"
  ],
  "sig": [
    "SystemCall @ SystemCall:NtCallbackReturn",
    "SystemCall @ SystemCall:NtUserGetKeyState"
  ],
  "windowsize": 4
}{
  "traces": [
    "DarkComet51",
    "DarkComet53",
    "jspy-ThreadId1348"
  ],
  "sig": [
    "SystemCall @ SystemCall:NtCallbackReturn",
    "SystemCall @ SystemCall:NtUserGetForegroundWindow",
    "SystemCall @ SystemCall:NtUserQueryWindow",
    "SystemCall @ SystemCall:NtCallbackReturn"
  ],
  "windowsize": 10
}{
  "traces": [
    "DarkComet51",
    "DarkComet53",
    "jspy-ThreadId1348"
  ],
  "sig": [
    "SystemCall @ SystemCall:NtCallbackReturn",
    "SystemCall @ SystemCall:NtUserGetForegroundWindow",
    "SystemCall @ SystemCall:NtUserQueryWindow",
    "SystemCall @ SystemCall:NtCallbackReturn"
  ],
  "windowsize": 10
}{
  "traces": [
    "DarkComet51",
    "imminentMonitor20",
    "DarkComet53"
  ],
  "sig": [
    "SystemCall @ SystemCall:NtCallbackReturn",
    "SystemCall @ SystemCall:NtUserGetKeyState"
  ],
  "windowsize": 4
}{
  "traces": [
    "jrat-ThreadId1364",
    "DarkComet51",
    "DarkComet53"
  ],
  "sig": [
    "SystemCall @ SystemCall:NtCallbackReturn",
    "SystemCall @ SystemCall:NtUserGetKeyState"
  ],
  "windowsize": 4
}{
  "traces": [
    "jrat-ThreadId1364",
    "DarkComet51",
    "DarkComet53"
  ],
  "sig": [
    "SystemCall @ SystemCall:NtCallbackReturn",
    "SystemCall @ SystemCall:NtUserGetKeyState",
    "SystemCall @ SystemCall:NtCallbackReturn"
  ],
  "windowsize": 16
}{
  "traces": [
    "DarkComet51",
    "DarkComet53",
    "jspy-ThreadId1348"
  ],
  "sig": [
    "SystemCall @ SystemCall:NtCallbackReturn",
    "SystemCall @ SystemCall:NtUserGetForegroundWindow",
    "SystemCall @ SystemCall:NtUserQueryWindow",
    "SystemCall @ SystemCall:NtCallbackReturn"
  ],
  "windowsize": 10
}{
  "traces": [
    "DarkComet51",
    "DarkComet53",
    "jspy-ThreadId1348"
  ],
  "sig": [
    "SystemCall @ SystemCall:NtCallbackReturn",
    "SystemCall @ SystemCall:NtUserGetForegroundWindow",
    "SystemCall @ SystemCall:NtUserQueryWindow",
    "SystemCall @ SystemCall:NtCallbackReturn"
  ],
  "windowsize": 10
}{
  "traces": [
    "jrat-ThreadId1364",
    "DarkComet51",
    "imminentMonitor20"
  ],
  "sig": [
    "SystemCall @ SystemCall:NtCallbackReturn",
    "SystemCall @ SystemCall:NtUserGetKeyState"
  ],
  "windowsize": 4
}{
  "traces": [
    "jrat-ThreadId1364",
    "DarkComet51",
    "imminentMonitor20"
  ],
  "sig": [
    "SystemCall @ SystemCall:NtCallbackReturn",
    "SystemCall @ SystemCall:NtUserGetKeyState"
  ],
  "windowsize": 4
}{
  "traces": [
    "DarkComet51",
    "imminentMonitor20",
    "jspy-ThreadId1348"
  ],
  "sig": [
    "SystemCall @ SystemCall:NtCallbackReturn"
  ],
  "windowsize": 4
}{
  "traces": [
    "DarkComet51",
    "NanoCore1220",
    "imminentMonitor20"
  ],
  "sig": [
    "SystemCall @ SystemCall:NtCallbackReturn"
  ],
  "windowsize": 4
}{
  "traces": [
    "DarkComet51",
    "pupy-ThreadId1900",
    "imminentMonitor20"
  ],
  "sig": [
    "SystemCall @ SystemCall:NtCallbackReturn",
    "SystemCall @ SystemCall:NtUserGetKeyState"
  ],
  "windowsize": 4
}{
  "traces": [
    "DarkComet51",
    "pupy-ThreadId1900",
    "imminentMonitor20"
  ],
  "sig": [
    "SystemCall @ SystemCall:NtCallbackReturn",
    "SystemCall @ SystemCall:NtUserGetKeyState"
  ],
  "windowsize": 4
}{
  "traces": [
    "DarkComet51",
    "turkojan4.0-ThreadId2324",
    "imminentMonitor20"
  ],
  "sig": [
    "SystemCall @ SystemCall:NtCallbackReturn"
  ],
  "windowsize": 4
}{
  "traces": [
    "DarkComet51",
    "turkojan4.0-ThreadId2324",
    "imminentMonitor20"
  ],
  "sig": [
    "SystemCall @ SystemCall:NtCallbackReturn"
  ],
  "windowsize": 4
}{
  "traces": [
    "virus8.0-ThreadId2692",
    "DarkComet51",
    "imminentMonitor20"
  ],
  "sig": [
    "SystemCall @ SystemCall:NtUserGetKeyState"
  ],
  "windowsize": 4
}{
  "traces": [
    "DarkComet51",
    "imminentMonitor20",
    "xrat2.0-ThreadId1240"
  ],
  "sig": [
    "SystemCall @ SystemCall:NtCallbackReturn",
    "SystemCall @ SystemCall:NtUserGetKeyState"
  ],
  "windowsize": 4
}{
  "traces": [
    "DarkComet51",
    "imminentMonitor20",
    "xrat2.0-ThreadId1240"
  ],
  "sig": [
    "SystemCall @ SystemCall:NtCallbackReturn",
    "SystemCall @ SystemCall:NtUserGetKeyState"
  ],
  "windowsize": 4
}{
  "traces": [
    "DarkComet51",
    "imminentMonitor20",
    "DarkComet53"
  ],
  "sig": [
    "SystemCall @ SystemCall:NtCallbackReturn",
    "SystemCall @ SystemCall:NtUserGetKeyState"
  ],
  "windowsize": 4
}{
  "traces": [
    "jrat-ThreadId1364",
    "DarkComet51",
    "imminentMonitor20"
  ],
  "sig": [
    "SystemCall @ SystemCall:NtCallbackReturn",
    "SystemCall @ SystemCall:NtUserGetKeyState"
  ],
  "windowsize": 4
}{
  "traces": [
    "DarkComet51",
    "imminentMonitor20",
    "jspy-ThreadId1348"
  ],
  "sig": [
    "SystemCall @ SystemCall:NtCallbackReturn",
    "SystemCall @ SystemCall:NtUserGetKeyState"
  ],
  "windowsize": 4
}{
  "traces": [
    "DarkComet51",
    "pupy-ThreadId1900",
    "imminentMonitor20"
  ],
  "sig": [
    "SystemCall @ SystemCall:NtCallbackReturn",
    "SystemCall @ SystemCall:NtUserGetKeyState"
  ],
  "windowsize": 3
}{
  "traces": [
    "virus8.0-ThreadId2692",
    "DarkComet51",
    "imminentMonitor20"
  ],
  "sig": [
    "SystemCall @ SystemCall:NtUserGetKeyState"
  ],
  "windowsize": 4
}{
  "traces": [
    "DarkComet51",
    "imminentMonitor20",
    "xrat2.0-ThreadId1240"
  ],
  "sig": [
    "SystemCall @ SystemCall:NtCallbackReturn",
    "SystemCall @ SystemCall:NtUserGetKeyState"
  ],
  "windowsize": 4
}{
  "traces": [
    "jrat-ThreadId1364",
    "DarkComet51",
    "jspy-ThreadId1348"
  ],
  "sig": [
    "SystemCall @ SystemCall:NtCallbackReturn"
  ],
  "windowsize": 10
}{
  "traces": [
    "jrat-ThreadId1364",
    "DarkComet51",
    "NanoCore1220"
  ],
  "sig": [
    "SystemCall @ SystemCall:NtCallbackReturn"
  ],
  "windowsize": 16
}{
  "traces": [
    "jrat-ThreadId1364",
    "DarkComet51",
    "pupy-ThreadId1900"
  ],
  "sig": [
    "SystemCall @ SystemCall:NtCallbackReturn",
    "SystemCall @ SystemCall:NtUserGetKeyState",
    "SystemCall @ SystemCall:NtCallbackReturn"
  ],
  "windowsize": 16
}{
  "traces": [
    "jrat-ThreadId1364",
    "DarkComet51",
    "pupy-ThreadId1900"
  ],
  "sig": [
    "SystemCall @ SystemCall:NtCallbackReturn",
    "SystemCall @ SystemCall:NtUserGetKeyState",
    "SystemCall @ SystemCall:NtCallbackReturn"
  ],
  "windowsize": 16
}{
  "traces": [
    "jrat-ThreadId1364",
    "DarkComet51",
    "turkojan4.0-ThreadId2324"
  ],
  "sig": [
    "SystemCall @ SystemCall:NtCallbackReturn"
  ],
  "windowsize": 16
}{
  "traces": [
    "jrat-ThreadId1364",
    "DarkComet51",
    "turkojan4.0-ThreadId2324"
  ],
  "sig": [
    "SystemCall @ SystemCall:NtCallbackReturn"
  ],
  "windowsize": 16
}{
  "traces": [
    "jrat-ThreadId1364",
    "DarkComet51",
    "turkojan4.0-ThreadId2324"
  ],
  "sig": [
    "SystemCall @ SystemCall:NtCallbackReturn"
  ],
  "windowsize": 16
}{
  "traces": [
    "jrat-ThreadId1364",
    "virus8.0-ThreadId2692",
    "DarkComet51"
  ],
  "sig": [
    "SystemCall @ SystemCall:NtUserGetKeyState"
  ],
  "windowsize": 12
}{
  "traces": [
    "jrat-ThreadId1364",
    "DarkComet51",
    "xrat2.0-ThreadId1240"
  ],
  "sig": [
    "SystemCall @ SystemCall:NtCallbackReturn",
    "SystemCall @ SystemCall:NtUserGetKeyState",
    "SystemCall @ SystemCall:NtCallbackReturn"
  ],
  "windowsize": 16
}{
  "traces": [
    "jrat-ThreadId1364",
    "DarkComet51",
    "xrat2.0-ThreadId1240"
  ],
  "sig": [
    "SystemCall @ SystemCall:NtCallbackReturn",
    "SystemCall @ SystemCall:NtUserGetKeyState",
    "SystemCall @ SystemCall:NtCallbackReturn"
  ],
  "windowsize": 16
}{
  "traces": [
    "jrat-ThreadId1364",
    "DarkComet51",
    "DarkComet53"
  ],
  "sig": [
    "SystemCall @ SystemCall:NtCallbackReturn",
    "SystemCall @ SystemCall:NtUserGetKeyState"
  ],
  "windowsize": 4
}{
  "traces": [
    "jrat-ThreadId1364",
    "DarkComet51",
    "DarkComet53"
  ],
  "sig": [
    "SystemCall @ SystemCall:NtCallbackReturn",
    "SystemCall @ SystemCall:NtUserGetKeyState",
    "SystemCall @ SystemCall:NtCallbackReturn"
  ],
  "windowsize": 16
}{
  "traces": [
    "jrat-ThreadId1364",
    "DarkComet51",
    "imminentMonitor20"
  ],
  "sig": [
    "SystemCall @ SystemCall:NtCallbackReturn",
    "SystemCall @ SystemCall:NtUserGetKeyState",
    "SystemCall @ SystemCall:NtCallbackReturn"
  ],
  "windowsize": 5
}{
  "traces": [
    "jrat-ThreadId1364",
    "DarkComet51",
    "imminentMonitor20"
  ],
  "sig": [
    "SystemCall @ SystemCall:NtCallbackReturn",
    "SystemCall @ SystemCall:NtUserGetKeyState",
    "SystemCall @ SystemCall:NtCallbackReturn"
  ],
  "windowsize": 5
}{
  "traces": [
    "jrat-ThreadId1364",
    "DarkComet51",
    "jspy-ThreadId1348"
  ],
  "sig": [
    "SystemCall @ SystemCall:NtCallbackReturn",
    "SystemCall @ SystemCall:NtUserGetKeyState",
    "SystemCall @ SystemCall:NtCallbackReturn"
  ],
  "windowsize": 16
}{
  "traces": [
    "jrat-ThreadId1364",
    "DarkComet51",
    "NanoCore1220"
  ],
  "sig": [
    "SystemCall @ SystemCall:NtCallbackReturn"
  ],
  "windowsize": 4
}{
  "traces": [
    "jrat-ThreadId1364",
    "DarkComet51",
    "NanoCore1220"
  ],
  "sig": [
    "SystemCall @ SystemCall:NtCallbackReturn"
  ],
  "windowsize": 4
}{
  "traces": [
    "jrat-ThreadId1364",
    "DarkComet51",
    "pupy-ThreadId1900"
  ],
  "sig": [
    "SystemCall @ SystemCall:NtCallbackReturn",
    "SystemCall @ SystemCall:NtUserGetKeyState"
  ],
  "windowsize": 3
}{
  "traces": [
    "jrat-ThreadId1364",
    "DarkComet51",
    "turkojan4.0-ThreadId2324"
  ],
  "sig": [
    "SystemCall @ SystemCall:NtCallbackReturn"
  ],
  "windowsize": 13
}{
  "traces": [
    "jrat-ThreadId1364",
    "virus8.0-ThreadId2692",
    "DarkComet51"
  ],
  "sig": [
    "SystemCall @ SystemCall:NtCallbackReturn"
  ],
  "windowsize": 1
}{
  "traces": [
    "jrat-ThreadId1364",
    "virus8.0-ThreadId2692",
    "DarkComet51"
  ],
  "sig": [
    "SystemCall @ SystemCall:NtCallbackReturn"
  ],
  "windowsize": 1
}{
  "traces": [
    "jrat-ThreadId1364",
    "virus8.0-ThreadId2692",
    "DarkComet51"
  ],
  "sig": [
    "SystemCall @ SystemCall:NtUserGetKeyState"
  ],
  "windowsize": 1
}{
  "traces": [
    "jrat-ThreadId1364",
    "DarkComet51",
    "xrat2.0-ThreadId1240"
  ],
  "sig": [
    "SystemCall @ SystemCall:NtCallbackReturn",
    "SystemCall @ SystemCall:NtUserGetKeyState",
    "SystemCall @ SystemCall:NtCallbackReturn"
  ],
  "windowsize": 16
}{
  "traces": [
    "jrat-ThreadId1364",
    "DarkComet51",
    "xrat2.0-ThreadId1240"
  ],
  "sig": [
    "SystemCall @ SystemCall:NtCallbackReturn",
    "SystemCall @ SystemCall:NtUserGetKeyState",
    "SystemCall @ SystemCall:NtCallbackReturn"
  ],
  "windowsize": 16
}{
  "traces": [
    "jrat-ThreadId1364",
    "DarkComet51",
    "jspy-ThreadId1348"
  ],
  "sig": [
    "SystemCall @ SystemCall:NtCallbackReturn"
  ],
  "windowsize": 4
}{
  "traces": [
    "jrat-ThreadId1364",
    "DarkComet51",
    "NanoCore1220"
  ],
  "sig": [
    "SystemCall @ SystemCall:NtCallbackReturn"
  ],
  "windowsize": 4
}{
  "traces": [
    "jrat-ThreadId1364",
    "DarkComet51",
    "pupy-ThreadId1900"
  ],
  "sig": [
    "SystemCall @ SystemCall:NtCallbackReturn",
    "SystemCall @ SystemCall:NtUserGetKeyState"
  ],
  "windowsize": 4
}{
  "traces": [
    "jrat-ThreadId1364",
    "DarkComet51",
    "pupy-ThreadId1900"
  ],
  "sig": [
    "SystemCall @ SystemCall:NtCallbackReturn",
    "SystemCall @ SystemCall:NtUserGetKeyState"
  ],
  "windowsize": 4
}{
  "traces": [
    "jrat-ThreadId1364",
    "DarkComet51",
    "turkojan4.0-ThreadId2324"
  ],
  "sig": [
    "SystemCall @ SystemCall:NtCallbackReturn"
  ],
  "windowsize": 4
}{
  "traces": [
    "jrat-ThreadId1364",
    "DarkComet51",
    "turkojan4.0-ThreadId2324"
  ],
  "sig": [
    "SystemCall @ SystemCall:NtCallbackReturn"
  ],
  "windowsize": 4
}{
  "traces": [
    "jrat-ThreadId1364",
    "virus8.0-ThreadId2692",
    "DarkComet51"
  ],
  "sig": [
    "SystemCall @ SystemCall:NtUserGetKeyState"
  ],
  "windowsize": 4
}{
  "traces": [
    "jrat-ThreadId1364",
    "DarkComet51",
    "xrat2.0-ThreadId1240"
  ],
  "sig": [
    "SystemCall @ SystemCall:NtCallbackReturn",
    "SystemCall @ SystemCall:NtUserGetKeyState"
  ],
  "windowsize": 4
}{
  "traces": [
    "jrat-ThreadId1364",
    "DarkComet51",
    "xrat2.0-ThreadId1240"
  ],
  "sig": [
    "SystemCall @ SystemCall:NtCallbackReturn",
    "SystemCall @ SystemCall:NtUserGetKeyState"
  ],
  "windowsize": 4
}{
  "traces": [
    "jrat-ThreadId1364",
    "DarkComet51",
    "DarkComet53"
  ],
  "sig": [
    "SystemCall @ SystemCall:NtCallbackReturn",
    "SystemCall @ SystemCall:NtUserGetKeyState"
  ],
  "windowsize": 4
}{
  "traces": [
    "jrat-ThreadId1364",
    "DarkComet51",
    "DarkComet53"
  ],
  "sig": [
    "SystemCall @ SystemCall:NtCallbackReturn",
    "SystemCall @ SystemCall:NtUserGetKeyState"
  ],
  "windowsize": 4
}{
  "traces": [
    "jrat-ThreadId1364",
    "DarkComet51",
    "imminentMonitor20"
  ],
  "sig": [
    "SystemCall @ SystemCall:NtCallbackReturn",
    "SystemCall @ SystemCall:NtUserGetKeyState"
  ],
  "windowsize": 4
}{
  "traces": [
    "jrat-ThreadId1364",
    "DarkComet51",
    "jspy-ThreadId1348"
  ],
  "sig": [
    "SystemCall @ SystemCall:NtCallbackReturn",
    "SystemCall @ SystemCall:NtUserGetKeyState"
  ],
  "windowsize": 4
}{
  "traces": [
    "jrat-ThreadId1364",
    "DarkComet51",
    "NanoCore1220"
  ],
  "sig": [
    "SystemCall @ SystemCall:NtCallbackReturn"
  ],
  "windowsize": 4
}{
  "traces": [
    "jrat-ThreadId1364",
    "DarkComet51",
    "pupy-ThreadId1900"
  ],
  "sig": [
    "SystemCall @ SystemCall:NtCallbackReturn",
    "SystemCall @ SystemCall:NtUserGetKeyState"
  ],
  "windowsize": 3
}{
  "traces": [
    "jrat-ThreadId1364",
    "DarkComet51",
    "turkojan4.0-ThreadId2324"
  ],
  "sig": [
    "SystemCall @ SystemCall:NtCallbackReturn"
  ],
  "windowsize": 4
}{
  "traces": [
    "jrat-ThreadId1364",
    "DarkComet51",
    "turkojan4.0-ThreadId2324"
  ],
  "sig": [
    "SystemCall @ SystemCall:NtCallbackReturn"
  ],
  "windowsize": 4
}{
  "traces": [
    "jrat-ThreadId1364",
    "virus8.0-ThreadId2692",
    "DarkComet51"
  ],
  "sig": [
    "SystemCall @ SystemCall:NtCallbackReturn"
  ],
  "windowsize": 1
}{
  "traces": [
    "jrat-ThreadId1364",
    "virus8.0-ThreadId2692",
    "DarkComet51"
  ],
  "sig": [
    "SystemCall @ SystemCall:NtUserGetKeyState"
  ],
  "windowsize": 1
}{
  "traces": [
    "jrat-ThreadId1364",
    "DarkComet51",
    "xrat2.0-ThreadId1240"
  ],
  "sig": [
    "SystemCall @ SystemCall:NtCallbackReturn",
    "SystemCall @ SystemCall:NtUserGetKeyState"
  ],
  "windowsize": 4
}{
  "traces": [
    "DarkComet51",
    "NanoCore1220",
    "jspy-ThreadId1348"
  ],
  "sig": [
    "SystemCall @ SystemCall:NtCallbackReturn"
  ],
  "windowsize": 10
}{
  "traces": [
    "DarkComet51",
    "pupy-ThreadId1900",
    "jspy-ThreadId1348"
  ],
  "sig": [
    "SystemCall @ SystemCall:NtCallbackReturn",
    "SystemCall @ SystemCall:NtUserGetForegroundWindow",
    "SystemCall @ SystemCall:NtUserQueryWindow",
    "SystemCall @ SystemCall:NtCallbackReturn"
  ],
  "windowsize": 10
}{
  "traces": [
    "DarkComet51",
    "pupy-ThreadId1900",
    "jspy-ThreadId1348"
  ],
  "sig": [
    "SystemCall @ SystemCall:NtCallbackReturn",
    "SystemCall @ SystemCall:NtUserGetForegroundWindow",
    "SystemCall @ SystemCall:NtUserQueryWindow",
    "SystemCall @ SystemCall:NtCallbackReturn"
  ],
  "windowsize": 10
}{
  "traces": [
    "DarkComet51",
    "pupy-ThreadId1900",
    "jspy-ThreadId1348"
  ],
  "sig": [
    "SystemCall @ SystemCall:NtCallbackReturn",
    "SystemCall @ SystemCall:NtUserGetForegroundWindow",
    "SystemCall @ SystemCall:NtUserQueryWindow",
    "SystemCall @ SystemCall:NtCallbackReturn"
  ],
  "windowsize": 10
}{
  "traces": [
    "DarkComet51",
    "turkojan4.0-ThreadId2324",
    "jspy-ThreadId1348"
  ],
  "sig": [
    "SystemCall @ SystemCall:NtCallbackReturn"
  ],
  "windowsize": 10
}{
  "traces": [
    "DarkComet51",
    "turkojan4.0-ThreadId2324",
    "jspy-ThreadId1348"
  ],
  "sig": [
    "SystemCall @ SystemCall:NtCallbackReturn"
  ],
  "windowsize": 10
}{
  "traces": [
    "virus8.0-ThreadId2692",
    "DarkComet51",
    "jspy-ThreadId1348"
  ],
  "sig": [
    "SystemCall @ SystemCall:NtUserGetForegroundWindow",
    "SystemCall @ SystemCall:NtUserQueryWindow"
  ],
  "windowsize": 10
}{
  "traces": [
    "DarkComet51",
    "xrat2.0-ThreadId1240",
    "jspy-ThreadId1348"
  ],
  "sig": [
    "SystemCall @ SystemCall:NtCallbackReturn",
    "SystemCall @ SystemCall:NtUserGetForegroundWindow",
    "SystemCall @ SystemCall:NtUserQueryWindow",
    "SystemCall @ SystemCall:NtCallbackReturn"
  ],
  "windowsize": 10
}{
  "traces": [
    "DarkComet51",
    "xrat2.0-ThreadId1240",
    "jspy-ThreadId1348"
  ],
  "sig": [
    "SystemCall @ SystemCall:NtCallbackReturn",
    "SystemCall @ SystemCall:NtUserGetForegroundWindow",
    "SystemCall @ SystemCall:NtUserQueryWindow",
    "SystemCall @ SystemCall:NtCallbackReturn"
  ],
  "windowsize": 10
}{
  "traces": [
    "DarkComet51",
    "xrat2.0-ThreadId1240",
    "jspy-ThreadId1348"
  ],
  "sig": [
    "SystemCall @ SystemCall:NtCallbackReturn",
    "SystemCall @ SystemCall:NtUserGetForegroundWindow",
    "SystemCall @ SystemCall:NtUserQueryWindow",
    "SystemCall @ SystemCall:NtCallbackReturn"
  ],
  "windowsize": 10
}{
  "traces": [
    "DarkComet51",
    "DarkComet53",
    "jspy-ThreadId1348"
  ],
  "sig": [
    "SystemCall @ SystemCall:NtCallbackReturn",
    "SystemCall @ SystemCall:NtUserGetForegroundWindow",
    "SystemCall @ SystemCall:NtUserQueryWindow",
    "SystemCall @ SystemCall:NtCallbackReturn"
  ],
  "windowsize": 10
}{
  "traces": [
    "DarkComet51",
    "imminentMonitor20",
    "jspy-ThreadId1348"
  ],
  "sig": [
    "SystemCall @ SystemCall:NtCallbackReturn"
  ],
  "windowsize": 8
}{
  "traces": [
    "jrat-ThreadId1364",
    "DarkComet51",
    "jspy-ThreadId1348"
  ],
  "sig": [
    "SystemCall @ SystemCall:NtCallbackReturn"
  ],
  "windowsize": 10
}{
  "traces": [
    "jrat-ThreadId1364",
    "DarkComet51",
    "jspy-ThreadId1348"
  ],
  "sig": [
    "SystemCall @ SystemCall:NtCallbackReturn"
  ],
  "windowsize": 10
}{
  "traces": [
    "DarkComet51",
    "NanoCore1220",
    "jspy-ThreadId1348"
  ],
  "sig": [
    "SystemCall @ SystemCall:NtCallbackReturn"
  ],
  "windowsize": 4
}{
  "traces": [
    "DarkComet51",
    "pupy-ThreadId1900",
    "jspy-ThreadId1348"
  ],
  "sig": [
    "SystemCall @ SystemCall:NtCallbackReturn",
    "SystemCall @ SystemCall:NtUserGetForegroundWindow",
    "SystemCall @ SystemCall:NtUserQueryWindow"
  ],
  "windowsize": 8
}{
  "traces": [
    "DarkComet51",
    "turkojan4.0-ThreadId2324",
    "jspy-ThreadId1348"
  ],
  "sig": [
    "SystemCall @ SystemCall:NtCallbackReturn",
    "SystemCall @ SystemCall:NtUserQueryWindow",
    "SystemCall @ SystemCall:NtCallbackReturn"
  ],
  "windowsize": 10
}{
  "traces": [
    "DarkComet51",
    "turkojan4.0-ThreadId2324",
    "jspy-ThreadId1348"
  ],
  "sig": [
    "SystemCall @ SystemCall:NtCallbackReturn",
    "SystemCall @ SystemCall:NtUserQueryWindow",
    "SystemCall @ SystemCall:NtCallbackReturn"
  ],
  "windowsize": 10
}{
  "traces": [
    "virus8.0-ThreadId2692",
    "DarkComet51",
    "jspy-ThreadId1348"
  ],
  "sig": [
    "SystemCall @ SystemCall:NtCallbackReturn",
    "SystemCall @ SystemCall:NtUserGetForegroundWindow",
    "SystemCall @ SystemCall:NtUserQueryWindow"
  ],
  "windowsize": 6
}{
  "traces": [
    "DarkComet51",
    "xrat2.0-ThreadId1240",
    "jspy-ThreadId1348"
  ],
  "sig": [
    "SystemCall @ SystemCall:NtCallbackReturn",
    "SystemCall @ SystemCall:NtUserGetForegroundWindow",
    "SystemCall @ SystemCall:NtUserQueryWindow",
    "SystemCall @ SystemCall:NtCallbackReturn"
  ],
  "windowsize": 10
}{
  "traces": [
    "DarkComet51",
    "xrat2.0-ThreadId1240",
    "jspy-ThreadId1348"
  ],
  "sig": [
    "SystemCall @ SystemCall:NtCallbackReturn",
    "SystemCall @ SystemCall:NtUserGetForegroundWindow",
    "SystemCall @ SystemCall:NtUserQueryWindow",
    "SystemCall @ SystemCall:NtCallbackReturn"
  ],
  "windowsize": 10
}{
  "traces": [
    "DarkComet51",
    "NanoCore1220",
    "xrat2.0-ThreadId1240"
  ],
  "sig": [
    "SystemCall @ SystemCall:NtCallbackReturn"
  ],
  "windowsize": 29
}{
  "traces": [
    "DarkComet51",
    "NanoCore1220",
    "xrat2.0-ThreadId1240"
  ],
  "sig": [
    "SystemCall @ SystemCall:NtCallbackReturn"
  ],
  "windowsize": 29
}{
  "traces": [
    "jrat-ThreadId1364",
    "DarkComet51",
    "NanoCore1220"
  ],
  "sig": [
    "SystemCall @ SystemCall:NtCallbackReturn"
  ],
  "windowsize": 4
}{
  "traces": [
    "DarkComet51",
    "NanoCore1220",
    "jspy-ThreadId1348"
  ],
  "sig": [
    "SystemCall @ SystemCall:NtCallbackReturn"
  ],
  "windowsize": 4
}{
  "traces": [
    "DarkComet51",
    "pupy-ThreadId1900",
    "imminentMonitor20"
  ],
  "sig": [
    "SystemCall @ SystemCall:NtCallbackReturn",
    "SystemCall @ SystemCall:NtUserGetKeyState"
  ],
  "windowsize": 3
}{
  "traces": [
    "jrat-ThreadId1364",
    "DarkComet51",
    "pupy-ThreadId1900"
  ],
  "sig": [
    "SystemCall @ SystemCall:NtCallbackReturn",
    "SystemCall @ SystemCall:NtUserGetKeyState"
  ],
  "windowsize": 3
}{
  "traces": [
    "DarkComet51",
    "pupy-ThreadId1900",
    "jspy-ThreadId1348"
  ],
  "sig": [
    "SystemCall @ SystemCall:NtCallbackReturn",
    "SystemCall @ SystemCall:NtUserGetForegroundWindow",
    "SystemCall @ SystemCall:NtUserQueryWindow"
  ],
  "windowsize": 8
}{
  "traces": [
    "DarkComet51",
    "pupy-ThreadId1900",
    "jspy-ThreadId1348"
  ],
  "sig": [
    "SystemCall @ SystemCall:NtCallbackReturn",
    "SystemCall @ SystemCall:NtUserGetForegroundWindow",
    "SystemCall @ SystemCall:NtUserQueryWindow"
  ],
  "windowsize": 8
}{
  "traces": [
    "DarkComet51",
    "pupy-ThreadId1900",
    "turkojan4.0-ThreadId2324"
  ],
  "sig": [
    "SystemCall @ SystemCall:NtUserQueryWindow",
    "SystemCall @ SystemCall:NtCallbackReturn",
    "SystemCall @ SystemCall:NtUserQueryWindow"
  ],
  "windowsize": 42
}{
  "traces": [
    "DarkComet51",
    "pupy-ThreadId1900",
    "turkojan4.0-ThreadId2324"
  ],
  "sig": [
    "SystemCall @ SystemCall:NtUserQueryWindow",
    "SystemCall @ SystemCall:NtCallbackReturn",
    "SystemCall @ SystemCall:NtUserQueryWindow"
  ],
  "windowsize": 36
}{
  "traces": [
    "DarkComet51",
    "pupy-ThreadId1900",
    "imminentMonitor20"
  ],
  "sig": [
    "SystemCall @ SystemCall:NtCallbackReturn",
    "SystemCall @ SystemCall:NtUserGetKeyState"
  ],
  "windowsize": 3
}{
  "traces": [
    "jrat-ThreadId1364",
    "DarkComet51",
    "pupy-ThreadId1900"
  ],
  "sig": [
    "SystemCall @ SystemCall:NtCallbackReturn",
    "SystemCall @ SystemCall:NtUserGetKeyState"
  ],
  "windowsize": 3
}{
  "traces": [
    "DarkComet51",
    "pupy-ThreadId1900",
    "jspy-ThreadId1348"
  ],
  "sig": [
    "SystemCall @ SystemCall:NtCallbackReturn",
    "SystemCall @ SystemCall:NtUserGetForegroundWindow",
    "SystemCall @ SystemCall:NtUserQueryWindow"
  ],
  "windowsize": 8
}{
  "traces": [
    "DarkComet51",
    "pupy-ThreadId1900",
    "turkojan4.0-ThreadId2324"
  ],
  "sig": [
    "SystemCall @ SystemCall:NtUserQueryWindow",
    "SystemCall @ SystemCall:NtCallbackReturn"
  ],
  "windowsize": 42
}{
  "traces": [
    "DarkComet51",
    "pupy-ThreadId1900",
    "turkojan4.0-ThreadId2324"
  ],
  "sig": [
    "SystemCall @ SystemCall:NtUserQueryWindow",
    "SystemCall @ SystemCall:NtCallbackReturn",
    "SystemCall @ SystemCall:NtUserQueryWindow"
  ],
  "windowsize": 36
}{
  "traces": [
    "DarkComet51",
    "turkojan4.0-ThreadId2324",
    "xrat2.0-ThreadId1240"
  ],
  "sig": [
    "SystemCall @ SystemCall:NtCallbackReturn"
  ],
  "windowsize": 33
}{
  "traces": [
    "DarkComet51",
    "turkojan4.0-ThreadId2324",
    "xrat2.0-ThreadId1240"
  ],
  "sig": [
    "SystemCall @ SystemCall:NtCallbackReturn"
  ],
  "windowsize": 33
}{
  "traces": [
    "jrat-ThreadId1364",
    "DarkComet51",
    "turkojan4.0-ThreadId2324"
  ],
  "sig": [
    "SystemCall @ SystemCall:NtCallbackReturn"
  ],
  "windowsize": 13
}{
  "traces": [
    "jrat-ThreadId1364",
    "DarkComet51",
    "turkojan4.0-ThreadId2324"
  ],
  "sig": [
    "SystemCall @ SystemCall:NtCallbackReturn"
  ],
  "windowsize": 13
}{
  "traces": [
    "DarkComet51",
    "turkojan4.0-ThreadId2324",
    "jspy-ThreadId1348"
  ],
  "sig": [
    "SystemCall @ SystemCall:NtCallbackReturn"
  ],
  "windowsize": 11
}{
  "traces": [
    "DarkComet51",
    "pupy-ThreadId1900",
    "turkojan4.0-ThreadId2324"
  ],
  "sig": [
    "SystemCall @ SystemCall:NtCallbackReturn"
  ],
  "windowsize": 42
}{
  "traces": [
    "DarkComet51",
    "pupy-ThreadId1900",
    "turkojan4.0-ThreadId2324"
  ],
  "sig": [
    "SystemCall @ SystemCall:NtCallbackReturn",
    "SystemCall @ SystemCall:NtUserQueryWindow"
  ],
  "windowsize": 36
}{
  "traces": [
    "DarkComet51",
    "turkojan4.0-ThreadId2324",
    "xrat2.0-ThreadId1240"
  ],
  "sig": [
    "SystemCall @ SystemCall:NtCallbackReturn"
  ],
  "windowsize": 33
}{
  "traces": [
    "DarkComet51",
    "turkojan4.0-ThreadId2324",
    "xrat2.0-ThreadId1240"
  ],
  "sig": [
    "SystemCall @ SystemCall:NtCallbackReturn"
  ],
  "windowsize": 33
}{
  "traces": [
    "DarkComet51",
    "turkojan4.0-ThreadId2324",
    "xrat2.0-ThreadId1240"
  ],
  "sig": [
    "SystemCall @ SystemCall:NtCallbackReturn",
    "SystemCall @ SystemCall:NtUserQueryWindow"
  ],
  "windowsize": 33
}{
  "traces": [
    "jrat-ThreadId1364",
    "DarkComet51",
    "turkojan4.0-ThreadId2324"
  ],
  "sig": [
    "SystemCall @ SystemCall:NtCallbackReturn"
  ],
  "windowsize": 13
}{
  "traces": [
    "jrat-ThreadId1364",
    "DarkComet51",
    "turkojan4.0-ThreadId2324"
  ],
  "sig": [
    "SystemCall @ SystemCall:NtCallbackReturn"
  ],
  "windowsize": 13
}{
  "traces": [
    "DarkComet51",
    "turkojan4.0-ThreadId2324",
    "jspy-ThreadId1348"
  ],
  "sig": [
    "SystemCall @ SystemCall:NtCallbackReturn"
  ],
  "windowsize": 11
}{
  "traces": [
    "DarkComet51",
    "turkojan4.0-ThreadId2324",
    "jspy-ThreadId1348"
  ],
  "sig": [
    "SystemCall @ SystemCall:NtCallbackReturn"
  ],
  "windowsize": 11
}{
  "traces": [
    "DarkComet51",
    "pupy-ThreadId1900",
    "turkojan4.0-ThreadId2324"
  ],
  "sig": [
    "SystemCall @ SystemCall:NtCallbackReturn"
  ],
  "windowsize": 42
}{
  "traces": [
    "DarkComet51",
    "pupy-ThreadId1900",
    "turkojan4.0-ThreadId2324"
  ],
  "sig": [
    "SystemCall @ SystemCall:NtCallbackReturn",
    "SystemCall @ SystemCall:NtUserQueryWindow"
  ],
  "windowsize": 36
}{
  "traces": [
    "DarkComet51",
    "pupy-ThreadId1900",
    "turkojan4.0-ThreadId2324"
  ],
  "sig": [
    "SystemCall @ SystemCall:NtCallbackReturn",
    "SystemCall @ SystemCall:NtUserQueryWindow"
  ],
  "windowsize": 36
}{
  "traces": [
    "virus8.0-ThreadId2692",
    "DarkComet51",
    "imminentMonitor20"
  ],
  "sig": [
    "SystemCall @ SystemCall:NtUserGetKeyState"
  ],
  "windowsize": 12
}{
  "traces": [
    "virus8.0-ThreadId2692",
    "jrat-ThreadId1364",
    "DarkComet51"
  ],
  "sig": [
    "SystemCall @ SystemCall:NtUserGetKeyState"
  ],
  "windowsize": 1
}{
  "traces": [
    "virus8.0-ThreadId2692",
    "DarkComet51",
    "jspy-ThreadId1348"
  ],
  "sig": [
    "SystemCall @ SystemCall:NtUserGetForegroundWindow",
    "SystemCall @ SystemCall:NtUserQueryWindow"
  ],
  "windowsize": 6
}{
  "traces": [
    "DarkComet51",
    "xrat2.0-ThreadId1240",
    "DarkComet53"
  ],
  "sig": [
    "SystemCall @ SystemCall:NtCallbackReturn",
    "SystemCall @ SystemCall:NtUserGetForegroundWindow",
    "SystemCall @ SystemCall:NtUserQueryWindow",
    "SystemCall @ SystemCall:NtCallbackReturn"
  ],
  "windowsize": 18
}{
  "traces": [
    "DarkComet51",
    "xrat2.0-ThreadId1240",
    "DarkComet53"
  ],
  "sig": [
    "SystemCall @ SystemCall:NtCallbackReturn",
    "SystemCall @ SystemCall:NtUserGetForegroundWindow",
    "SystemCall @ SystemCall:NtUserQueryWindow",
    "SystemCall @ SystemCall:NtCallbackReturn"
  ],
  "windowsize": 18
}{
  "traces": [
    "DarkComet51",
    "imminentMonitor20",
    "xrat2.0-ThreadId1240"
  ],
  "sig": [
    "SystemCall @ SystemCall:NtCallbackReturn",
    "SystemCall @ SystemCall:NtUserGetKeyState",
    "SystemCall @ SystemCall:NtCallbackReturn"
  ],
  "windowsize": 5
}{
  "traces": [
    "DarkComet51",
    "imminentMonitor20",
    "xrat2.0-ThreadId1240"
  ],
  "sig": [
    "SystemCall @ SystemCall:NtCallbackReturn",
    "SystemCall @ SystemCall:NtUserGetKeyState",
    "SystemCall @ SystemCall:NtCallbackReturn"
  ],
  "windowsize": 5
}{
  "traces": [
    "jrat-ThreadId1364",
    "DarkComet51",
    "xrat2.0-ThreadId1240"
  ],
  "sig": [
    "SystemCall @ SystemCall:NtUserGetKeyState",
    "SystemCall @ SystemCall:NtCallbackReturn"
  ],
  "windowsize": 17
}{
  "traces": [
    "DarkComet51",
    "xrat2.0-ThreadId1240",
    "jspy-ThreadId1348"
  ],
  "sig": [
    "SystemCall @ SystemCall:NtCallbackReturn",
    "SystemCall @ SystemCall:NtUserGetForegroundWindow",
    "SystemCall @ SystemCall:NtUserQueryWindow",
    "SystemCall @ SystemCall:NtCallbackReturn"
  ],
  "windowsize": 13
}{
  "traces": [
    "DarkComet51",
    "NanoCore1220",
    "xrat2.0-ThreadId1240"
  ],
  "sig": [
    "SystemCall @ SystemCall:NtCallbackReturn"
  ],
  "windowsize": 24
}{
  "traces": [
    "DarkComet51",
    "turkojan4.0-ThreadId2324",
    "xrat2.0-ThreadId1240"
  ],
  "sig": [
    "SystemCall @ SystemCall:NtUserQueryWindow",
    "SystemCall @ SystemCall:NtCallbackReturn"
  ],
  "windowsize": 24
}{
  "traces": [
    "DarkComet51",
    "turkojan4.0-ThreadId2324",
    "xrat2.0-ThreadId1240"
  ],
  "sig": [
    "SystemCall @ SystemCall:NtUserQueryWindow",
    "SystemCall @ SystemCall:NtCallbackReturn"
  ],
  "windowsize": 24
}{
  "traces": [
    "DarkComet51",
    "xrat2.0-ThreadId1240",
    "DarkComet53"
  ],
  "sig": [
    "SystemCall @ SystemCall:NtCallbackReturn",
    "SystemCall @ SystemCall:NtUserGetForegroundWindow",
    "SystemCall @ SystemCall:NtUserQueryWindow",
    "SystemCall @ SystemCall:NtCallbackReturn"
  ],
  "windowsize": 18
}{
  "traces": [
    "DarkComet51",
    "imminentMonitor20",
    "xrat2.0-ThreadId1240"
  ],
  "sig": [
    "SystemCall @ SystemCall:NtCallbackReturn",
    "SystemCall @ SystemCall:NtUserGetKeyState",
    "SystemCall @ SystemCall:NtCallbackReturn"
  ],
  "windowsize": 5
}{
  "traces": [
    "DarkComet51",
    "imminentMonitor20",
    "xrat2.0-ThreadId1240"
  ],
  "sig": [
    "SystemCall @ SystemCall:NtCallbackReturn",
    "SystemCall @ SystemCall:NtUserGetKeyState",
    "SystemCall @ SystemCall:NtCallbackReturn"
  ],
  "windowsize": 5
}{
  "traces": [
    "jrat-ThreadId1364",
    "DarkComet51",
    "xrat2.0-ThreadId1240"
  ],
  "sig": [
    "SystemCall @ SystemCall:NtUserGetKeyState",
    "SystemCall @ SystemCall:NtCallbackReturn"
  ],
  "windowsize": 17
}{
  "traces": [
    "DarkComet51",
    "xrat2.0-ThreadId1240",
    "jspy-ThreadId1348"
  ],
  "sig": [
    "SystemCall @ SystemCall:NtUserGetForegroundWindow",
    "SystemCall @ SystemCall:NtUserQueryWindow",
    "SystemCall @ SystemCall:NtCallbackReturn"
  ],
  "windowsize": 13
}{
  "traces": [
    "DarkComet51",
    "xrat2.0-ThreadId1240",
    "jspy-ThreadId1348"
  ],
  "sig": [
    "SystemCall @ SystemCall:NtUserGetForegroundWindow",
    "SystemCall @ SystemCall:NtUserQueryWindow",
    "SystemCall @ SystemCall:NtCallbackReturn"
  ],
  "windowsize": 13
}{
  "traces": [
    "DarkComet51",
    "NanoCore1220",
    "xrat2.0-ThreadId1240"
  ],
  "sig": [
    "SystemCall @ SystemCall:NtCallbackReturn"
  ],
  "windowsize": 24
}{
  "traces": [
    "DarkComet51",
    "turkojan4.0-ThreadId2324",
    "xrat2.0-ThreadId1240"
  ],
  "sig": [
    "SystemCall @ SystemCall:NtUserQueryWindow",
    "SystemCall @ SystemCall:NtCallbackReturn"
  ],
  "windowsize": 24
}{
  "traces": [
    "jrat-ThreadId1364",
    "imminentMonitor20",
    "DarkComet53"
  ],
  "sig": [
    "SystemCall @ SystemCall:NtCallbackReturn",
    "SystemCall @ SystemCall:NtUserGetKeyState"
  ],
  "windowsize": 4
}{
  "traces": [
    "jrat-ThreadId1364",
    "imminentMonitor20",
    "DarkComet53"
  ],
  "sig": [
    "SystemCall @ SystemCall:NtCallbackReturn",
    "SystemCall @ SystemCall:NtUserGetKeyState"
  ],
  "windowsize": 4
}{
  "traces": [
    "imminentMonitor20",
    "DarkComet53",
    "jspy-ThreadId1348"
  ],
  "sig": [
    "SystemCall @ SystemCall:NtCallbackReturn"
  ],
  "windowsize": 4
}{
  "traces": [
    "NanoCore1220",
    "imminentMonitor20",
    "DarkComet53"
  ],
  "sig": [
    "SystemCall @ SystemCall:NtCallbackReturn"
  ],
  "windowsize": 4
}{
  "traces": [
    "pupy-ThreadId1900",
    "imminentMonitor20",
    "DarkComet53"
  ],
  "sig": [
    "SystemCall @ SystemCall:NtCallbackReturn",
    "SystemCall @ SystemCall:NtUserGetKeyState"
  ],
  "windowsize": 4
}{
  "traces": [
    "pupy-ThreadId1900",
    "imminentMonitor20",
    "DarkComet53"
  ],
  "sig": [
    "SystemCall @ SystemCall:NtCallbackReturn",
    "SystemCall @ SystemCall:NtUserGetKeyState"
  ],
  "windowsize": 4
}{
  "traces": [
    "turkojan4.0-ThreadId2324",
    "imminentMonitor20",
    "DarkComet53"
  ],
  "sig": [
    "SystemCall @ SystemCall:NtCallbackReturn"
  ],
  "windowsize": 4
}{
  "traces": [
    "virus8.0-ThreadId2692",
    "imminentMonitor20",
    "DarkComet53"
  ],
  "sig": [
    "SystemCall @ SystemCall:NtUserGetKeyState"
  ],
  "windowsize": 4
}{
  "traces": [
    "imminentMonitor20",
    "DarkComet53",
    "xrat2.0-ThreadId1240"
  ],
  "sig": [
    "SystemCall @ SystemCall:NtUserGetKeyState"
  ],
  "windowsize": 4
}{
  "traces": [
    "imminentMonitor20",
    "DarkComet53",
    "xrat2.0-ThreadId1240"
  ],
  "sig": [
    "SystemCall @ SystemCall:NtCallbackReturn"
  ],
  "windowsize": 4
}{
  "traces": [
    "imminentMonitor20",
    "DarkComet53",
    "xrat2.0-ThreadId1240"
  ],
  "sig": [
    "SystemCall @ SystemCall:NtCallbackReturn"
  ],
  "windowsize": 4
}{
  "traces": [
    "imminentMonitor20",
    "DarkComet53",
    "xrat2.0-ThreadId1240"
  ],
  "sig": [
    "SystemCall @ SystemCall:NtCallbackReturn"
  ],
  "windowsize": 4
}{
  "traces": [
    "jrat-ThreadId1364",
    "imminentMonitor20",
    "DarkComet53"
  ],
  "sig": [
    "SystemCall @ SystemCall:NtCallbackReturn",
    "SystemCall @ SystemCall:NtUserGetKeyState"
  ],
  "windowsize": 4
}{
  "traces": [
    "imminentMonitor20",
    "DarkComet53",
    "jspy-ThreadId1348"
  ],
  "sig": [
    "SystemCall @ SystemCall:NtCallbackReturn",
    "SystemCall @ SystemCall:NtUserGetKeyState"
  ],
  "windowsize": 4
}{
  "traces": [
    "pupy-ThreadId1900",
    "imminentMonitor20",
    "DarkComet53"
  ],
  "sig": [
    "SystemCall @ SystemCall:NtCallbackReturn",
    "SystemCall @ SystemCall:NtUserGetKeyState"
  ],
  "windowsize": 3
}{
  "traces": [
    "virus8.0-ThreadId2692",
    "imminentMonitor20",
    "DarkComet53"
  ],
  "sig": [
    "SystemCall @ SystemCall:NtUserGetKeyState"
  ],
  "windowsize": 4
}{
  "traces": [
    "imminentMonitor20",
    "DarkComet53",
    "xrat2.0-ThreadId1240"
  ],
  "sig": [
    "SystemCall @ SystemCall:NtCallbackReturn",
    "SystemCall @ SystemCall:NtUserGetKeyState"
  ],
  "windowsize": 4
}{
  "traces": [
    "jrat-ThreadId1364",
    "DarkComet53",
    "jspy-ThreadId1348"
  ],
  "sig": [
    "SystemCall @ SystemCall:NtCallbackReturn"
  ],
  "windowsize": 4
}{
  "traces": [
    "jrat-ThreadId1364",
    "NanoCore1220",
    "DarkComet53"
  ],
  "sig": [
    "SystemCall @ SystemCall:NtCallbackReturn"
  ],
  "windowsize": 4
}{
  "traces": [
    "jrat-ThreadId1364",
    "pupy-ThreadId1900",
    "DarkComet53"
  ],
  "sig": [
    "SystemCall @ SystemCall:NtCallbackReturn",
    "SystemCall @ SystemCall:NtUserGetKeyState"
  ],
  "windowsize": 4
}{
  "traces": [
    "jrat-ThreadId1364",
    "pupy-ThreadId1900",
    "DarkComet53"
  ],
  "sig": [
    "SystemCall @ SystemCall:NtCallbackReturn",
    "SystemCall @ SystemCall:NtUserGetKeyState"
  ],
  "windowsize": 4
}{
  "traces": [
    "jrat-ThreadId1364",
    "turkojan4.0-ThreadId2324",
    "DarkComet53"
  ],
  "sig": [
    "SystemCall @ SystemCall:NtCallbackReturn"
  ],
  "windowsize": 4
}{
  "traces": [
    "jrat-ThreadId1364",
    "virus8.0-ThreadId2692",
    "DarkComet53"
  ],
  "sig": [
    "SystemCall @ SystemCall:NtUserGetKeyState"
  ],
  "windowsize": 4
}{
  "traces": [
    "jrat-ThreadId1364",
    "DarkComet53",
    "xrat2.0-ThreadId1240"
  ],
  "sig": [
    "SystemCall @ SystemCall:NtUserGetKeyState"
  ],
  "windowsize": 4
}{
  "traces": [
    "jrat-ThreadId1364",
    "DarkComet53",
    "xrat2.0-ThreadId1240"
  ],
  "sig": [
    "SystemCall @ SystemCall:NtCallbackReturn"
  ],
  "windowsize": 4
}{
  "traces": [
    "jrat-ThreadId1364",
    "DarkComet53",
    "xrat2.0-ThreadId1240"
  ],
  "sig": [
    "SystemCall @ SystemCall:NtCallbackReturn"
  ],
  "windowsize": 4
}{
  "traces": [
    "jrat-ThreadId1364",
    "DarkComet53",
    "xrat2.0-ThreadId1240"
  ],
  "sig": [
    "SystemCall @ SystemCall:NtCallbackReturn"
  ],
  "windowsize": 4
}{
  "traces": [
    "jrat-ThreadId1364",
    "imminentMonitor20",
    "DarkComet53"
  ],
  "sig": [
    "SystemCall @ SystemCall:NtCallbackReturn",
    "SystemCall @ SystemCall:NtUserGetKeyState"
  ],
  "windowsize": 4
}{
  "traces": [
    "jrat-ThreadId1364",
    "DarkComet53",
    "jspy-ThreadId1348"
  ],
  "sig": [
    "SystemCall @ SystemCall:NtCallbackReturn",
    "SystemCall @ SystemCall:NtUserGetKeyState"
  ],
  "windowsize": 4
}{
  "traces": [
    "jrat-ThreadId1364",
    "NanoCore1220",
    "DarkComet53"
  ],
  "sig": [
    "SystemCall @ SystemCall:NtCallbackReturn"
  ],
  "windowsize": 4
}{
  "traces": [
    "jrat-ThreadId1364",
    "pupy-ThreadId1900",
    "DarkComet53"
  ],
  "sig": [
    "SystemCall @ SystemCall:NtCallbackReturn",
    "SystemCall @ SystemCall:NtUserGetKeyState"
  ],
  "windowsize": 3
}{
  "traces": [
    "jrat-ThreadId1364",
    "turkojan4.0-ThreadId2324",
    "DarkComet53"
  ],
  "sig": [
    "SystemCall @ SystemCall:NtCallbackReturn"
  ],
  "windowsize": 4
}{
  "traces": [
    "jrat-ThreadId1364",
    "turkojan4.0-ThreadId2324",
    "DarkComet53"
  ],
  "sig": [
    "SystemCall @ SystemCall:NtCallbackReturn"
  ],
  "windowsize": 4
}{
  "traces": [
    "jrat-ThreadId1364",
    "virus8.0-ThreadId2692",
    "DarkComet53"
  ],
  "sig": [
    "SystemCall @ SystemCall:NtCallbackReturn"
  ],
  "windowsize": 1
}{
  "traces": [
    "jrat-ThreadId1364",
    "virus8.0-ThreadId2692",
    "DarkComet53"
  ],
  "sig": [
    "SystemCall @ SystemCall:NtUserGetKeyState"
  ],
  "windowsize": 1
}{
  "traces": [
    "jrat-ThreadId1364",
    "DarkComet53",
    "xrat2.0-ThreadId1240"
  ],
  "sig": [
    "SystemCall @ SystemCall:NtCallbackReturn",
    "SystemCall @ SystemCall:NtUserGetKeyState"
  ],
  "windowsize": 4
}{
  "traces": [
    "jrat-ThreadId1364",
    "DarkComet53",
    "jspy-ThreadId1348"
  ],
  "sig": [
    "SystemCall @ SystemCall:NtCallbackReturn"
  ],
  "windowsize": 10
}{
  "traces": [
    "jrat-ThreadId1364",
    "NanoCore1220",
    "DarkComet53"
  ],
  "sig": [
    "SystemCall @ SystemCall:NtCallbackReturn"
  ],
  "windowsize": 14
}{
  "traces": [
    "jrat-ThreadId1364",
    "pupy-ThreadId1900",
    "DarkComet53"
  ],
  "sig": [
    "SystemCall @ SystemCall:NtCallbackReturn",
    "SystemCall @ SystemCall:NtUserGetKeyState",
    "SystemCall @ SystemCall:NtCallbackReturn"
  ],
  "windowsize": 16
}{
  "traces": [
    "jrat-ThreadId1364",
    "pupy-ThreadId1900",
    "DarkComet53"
  ],
  "sig": [
    "SystemCall @ SystemCall:NtCallbackReturn",
    "SystemCall @ SystemCall:NtUserGetKeyState"
  ],
  "windowsize": 16
}{
  "traces": [
    "jrat-ThreadId1364",
    "turkojan4.0-ThreadId2324",
    "DarkComet53"
  ],
  "sig": [
    "SystemCall @ SystemCall:NtCallbackReturn"
  ],
  "windowsize": 16
}{
  "traces": [
    "jrat-ThreadId1364",
    "turkojan4.0-ThreadId2324",
    "DarkComet53"
  ],
  "sig": [
    "SystemCall @ SystemCall:NtCallbackReturn"
  ],
  "windowsize": 16
}{
  "traces": [
    "jrat-ThreadId1364",
    "virus8.0-ThreadId2692",
    "DarkComet53"
  ],
  "sig": [
    "SystemCall @ SystemCall:NtUserGetKeyState"
  ],
  "windowsize": 12
}{
  "traces": [
    "jrat-ThreadId1364",
    "DarkComet53",
    "xrat2.0-ThreadId1240"
  ],
  "sig": [
    "SystemCall @ SystemCall:NtUserGetKeyState",
    "SystemCall @ SystemCall:NtCallbackReturn"
  ],
  "windowsize": 16
}{
  "traces": [
    "jrat-ThreadId1364",
    "DarkComet53",
    "xrat2.0-ThreadId1240"
  ],
  "sig": [
    "SystemCall @ SystemCall:NtUserGetKeyState",
    "SystemCall @ SystemCall:NtCallbackReturn"
  ],
  "windowsize": 16
}{
  "traces": [
    "jrat-ThreadId1364",
    "DarkComet53",
    "xrat2.0-ThreadId1240"
  ],
  "sig": [
    "SystemCall @ SystemCall:NtCallbackReturn"
  ],
  "windowsize": 16
}{
  "traces": [
    "jrat-ThreadId1364",
    "imminentMonitor20",
    "DarkComet53"
  ],
  "sig": [
    "SystemCall @ SystemCall:NtCallbackReturn",
    "SystemCall @ SystemCall:NtUserGetKeyState",
    "SystemCall @ SystemCall:NtCallbackReturn"
  ],
  "windowsize": 5
}{
  "traces": [
    "jrat-ThreadId1364",
    "imminentMonitor20",
    "DarkComet53"
  ],
  "sig": [
    "SystemCall @ SystemCall:NtCallbackReturn",
    "SystemCall @ SystemCall:NtUserGetKeyState",
    "SystemCall @ SystemCall:NtCallbackReturn"
  ],
  "windowsize": 5
}{
  "traces": [
    "jrat-ThreadId1364",
    "DarkComet53",
    "jspy-ThreadId1348"
  ],
  "sig": [
    "SystemCall @ SystemCall:NtCallbackReturn",
    "SystemCall @ SystemCall:NtUserGetKeyState",
    "SystemCall @ SystemCall:NtCallbackReturn"
  ],
  "windowsize": 16
}{
  "traces": [
    "jrat-ThreadId1364",
    "NanoCore1220",
    "DarkComet53"
  ],
  "sig": [
    "SystemCall @ SystemCall:NtCallbackReturn"
  ],
  "windowsize": 4
}{
  "traces": [
    "jrat-ThreadId1364",
    "NanoCore1220",
    "DarkComet53"
  ],
  "sig": [
    "SystemCall @ SystemCall:NtCallbackReturn"
  ],
  "windowsize": 4
}{
  "traces": [
    "jrat-ThreadId1364",
    "pupy-ThreadId1900",
    "DarkComet53"
  ],
  "sig": [
    "SystemCall @ SystemCall:NtCallbackReturn",
    "SystemCall @ SystemCall:NtUserGetKeyState"
  ],
  "windowsize": 3
}{
  "traces": [
    "jrat-ThreadId1364",
    "turkojan4.0-ThreadId2324",
    "DarkComet53"
  ],
  "sig": [
    "SystemCall @ SystemCall:NtCallbackReturn"
  ],
  "windowsize": 13
}{
  "traces": [
    "jrat-ThreadId1364",
    "virus8.0-ThreadId2692",
    "DarkComet53"
  ],
  "sig": [
    "SystemCall @ SystemCall:NtCallbackReturn"
  ],
  "windowsize": 1
}{
  "traces": [
    "jrat-ThreadId1364",
    "virus8.0-ThreadId2692",
    "DarkComet53"
  ],
  "sig": [
    "SystemCall @ SystemCall:NtCallbackReturn"
  ],
  "windowsize": 1
}{
  "traces": [
    "jrat-ThreadId1364",
    "virus8.0-ThreadId2692",
    "DarkComet53"
  ],
  "sig": [
    "SystemCall @ SystemCall:NtUserGetKeyState"
  ],
  "windowsize": 1
}{
  "traces": [
    "jrat-ThreadId1364",
    "DarkComet53",
    "xrat2.0-ThreadId1240"
  ],
  "sig": [
    "SystemCall @ SystemCall:NtCallbackReturn",
    "SystemCall @ SystemCall:NtUserGetKeyState",
    "SystemCall @ SystemCall:NtCallbackReturn"
  ],
  "windowsize": 16
}{
  "traces": [
    "jrat-ThreadId1364",
    "DarkComet53",
    "xrat2.0-ThreadId1240"
  ],
  "sig": [
    "SystemCall @ SystemCall:NtCallbackReturn",
    "SystemCall @ SystemCall:NtUserGetKeyState",
    "SystemCall @ SystemCall:NtCallbackReturn"
  ],
  "windowsize": 16
}{
  "traces": [
    "NanoCore1220",
    "DarkComet53",
    "jspy-ThreadId1348"
  ],
  "sig": [
    "SystemCall @ SystemCall:NtCallbackReturn"
  ],
  "windowsize": 10
}{
  "traces": [
    "pupy-ThreadId1900",
    "DarkComet53",
    "jspy-ThreadId1348"
  ],
  "sig": [
    "SystemCall @ SystemCall:NtCallbackReturn",
    "SystemCall @ SystemCall:NtUserGetForegroundWindow",
    "SystemCall @ SystemCall:NtUserQueryWindow",
    "SystemCall @ SystemCall:NtCallbackReturn"
  ],
  "windowsize": 10
}{
  "traces": [
    "pupy-ThreadId1900",
    "DarkComet53",
    "jspy-ThreadId1348"
  ],
  "sig": [
    "SystemCall @ SystemCall:NtUserGetForegroundWindow",
    "SystemCall @ SystemCall:NtUserQueryWindow",
    "SystemCall @ SystemCall:NtCallbackReturn"
  ],
  "windowsize": 10
}{
  "traces": [
    "pupy-ThreadId1900",
    "DarkComet53",
    "jspy-ThreadId1348"
  ],
  "sig": [
    "SystemCall @ SystemCall:NtCallbackReturn",
    "SystemCall @ SystemCall:NtUserGetForegroundWindow",
    "SystemCall @ SystemCall:NtUserQueryWindow"
  ],
  "windowsize": 10
}{
  "traces": [
    "turkojan4.0-ThreadId2324",
    "DarkComet53",
    "jspy-ThreadId1348"
  ],
  "sig": [
    "SystemCall @ SystemCall:NtCallbackReturn",
    "SystemCall @ SystemCall:NtUserQueryWindow"
  ],
  "windowsize": 10
}{
  "traces": [
    "virus8.0-ThreadId2692",
    "DarkComet53",
    "jspy-ThreadId1348"
  ],
  "sig": [
    "SystemCall @ SystemCall:NtUserGetForegroundWindow",
    "SystemCall @ SystemCall:NtUserQueryWindow"
  ],
  "windowsize": 10
}{
  "traces": [
    "DarkComet53",
    "xrat2.0-ThreadId1240",
    "jspy-ThreadId1348"
  ],
  "sig": [
    "SystemCall @ SystemCall:NtUserGetForegroundWindow",
    "SystemCall @ SystemCall:NtUserQueryWindow",
    "SystemCall @ SystemCall:NtCallbackReturn"
  ],
  "windowsize": 10
}{
  "traces": [
    "DarkComet53",
    "xrat2.0-ThreadId1240",
    "jspy-ThreadId1348"
  ],
  "sig": [
    "SystemCall @ SystemCall:NtCallbackReturn",
    "SystemCall @ SystemCall:NtUserGetForegroundWindow",
    "SystemCall @ SystemCall:NtUserQueryWindow",
    "SystemCall @ SystemCall:NtCallbackReturn"
  ],
  "windowsize": 10
}{
  "traces": [
    "DarkComet53",
    "xrat2.0-ThreadId1240",
    "jspy-ThreadId1348"
  ],
  "sig": [
    "SystemCall @ SystemCall:NtCallbackReturn",
    "SystemCall @ SystemCall:NtUserGetForegroundWindow",
    "SystemCall @ SystemCall:NtUserQueryWindow",
    "SystemCall @ SystemCall:NtCallbackReturn"
  ],
  "windowsize": 10
}{
  "traces": [
    "imminentMonitor20",
    "DarkComet53",
    "jspy-ThreadId1348"
  ],
  "sig": [
    "SystemCall @ SystemCall:NtCallbackReturn"
  ],
  "windowsize": 8
}{
  "traces": [
    "jrat-ThreadId1364",
    "DarkComet53",
    "jspy-ThreadId1348"
  ],
  "sig": [
    "SystemCall @ SystemCall:NtCallbackReturn"
  ],
  "windowsize": 10
}{
  "traces": [
    "jrat-ThreadId1364",
    "DarkComet53",
    "jspy-ThreadId1348"
  ],
  "sig": [
    "SystemCall @ SystemCall:NtCallbackReturn"
  ],
  "windowsize": 10
}{
  "traces": [
    "NanoCore1220",
    "DarkComet53",
    "jspy-ThreadId1348"
  ],
  "sig": [
    "SystemCall @ SystemCall:NtCallbackReturn"
  ],
  "windowsize": 4
}{
  "traces": [
    "pupy-ThreadId1900",
    "DarkComet53",
    "jspy-ThreadId1348"
  ],
  "sig": [
    "SystemCall @ SystemCall:NtCallbackReturn",
    "SystemCall @ SystemCall:NtUserGetForegroundWindow",
    "SystemCall @ SystemCall:NtUserQueryWindow"
  ],
  "windowsize": 8
}{
  "traces": [
    "turkojan4.0-ThreadId2324",
    "DarkComet53",
    "jspy-ThreadId1348"
  ],
  "sig": [
    "SystemCall @ SystemCall:NtCallbackReturn",
    "SystemCall @ SystemCall:NtUserQueryWindow",
    "SystemCall @ SystemCall:NtCallbackReturn"
  ],
  "windowsize": 10
}{
  "traces": [
    "turkojan4.0-ThreadId2324",
    "DarkComet53",
    "jspy-ThreadId1348"
  ],
  "sig": [
    "SystemCall @ SystemCall:NtCallbackReturn",
    "SystemCall @ SystemCall:NtUserQueryWindow",
    "SystemCall @ SystemCall:NtCallbackReturn"
  ],
  "windowsize": 10
}{
  "traces": [
    "virus8.0-ThreadId2692",
    "DarkComet53",
    "jspy-ThreadId1348"
  ],
  "sig": [
    "SystemCall @ SystemCall:NtCallbackReturn",
    "SystemCall @ SystemCall:NtUserGetForegroundWindow",
    "SystemCall @ SystemCall:NtUserQueryWindow"
  ],
  "windowsize": 6
}{
  "traces": [
    "DarkComet53",
    "xrat2.0-ThreadId1240",
    "jspy-ThreadId1348"
  ],
  "sig": [
    "SystemCall @ SystemCall:NtCallbackReturn",
    "SystemCall @ SystemCall:NtUserGetForegroundWindow",
    "SystemCall @ SystemCall:NtUserQueryWindow",
    "SystemCall @ SystemCall:NtCallbackReturn"
  ],
  "windowsize": 10
}{
  "traces": [
    "DarkComet53",
    "xrat2.0-ThreadId1240",
    "jspy-ThreadId1348"
  ],
  "sig": [
    "SystemCall @ SystemCall:NtCallbackReturn",
    "SystemCall @ SystemCall:NtUserGetForegroundWindow",
    "SystemCall @ SystemCall:NtUserQueryWindow",
    "SystemCall @ SystemCall:NtCallbackReturn"
  ],
  "windowsize": 10
}{
  "traces": [
    "NanoCore1220",
    "DarkComet53",
    "xrat2.0-ThreadId1240"
  ],
  "sig": [
    "SystemCall @ SystemCall:NtCallbackReturn"
  ],
  "windowsize": 14
}{
  "traces": [
    "NanoCore1220",
    "DarkComet53",
    "xrat2.0-ThreadId1240"
  ],
  "sig": [
    "SystemCall @ SystemCall:NtCallbackReturn"
  ],
  "windowsize": 14
}{
  "traces": [
    "jrat-ThreadId1364",
    "NanoCore1220",
    "DarkComet53"
  ],
  "sig": [
    "SystemCall @ SystemCall:NtCallbackReturn"
  ],
  "windowsize": 4
}{
  "traces": [
    "NanoCore1220",
    "DarkComet53",
    "jspy-ThreadId1348"
  ],
  "sig": [
    "SystemCall @ SystemCall:NtCallbackReturn"
  ],
  "windowsize": 4
}{
  "traces": [
    "pupy-ThreadId1900",
    "imminentMonitor20",
    "DarkComet53"
  ],
  "sig": [
    "SystemCall @ SystemCall:NtCallbackReturn",
    "SystemCall @ SystemCall:NtUserGetKeyState"
  ],
  "windowsize": 3
}{
  "traces": [
    "jrat-ThreadId1364",
    "pupy-ThreadId1900",
    "DarkComet53"
  ],
  "sig": [
    "SystemCall @ SystemCall:NtCallbackReturn",
    "SystemCall @ SystemCall:NtUserGetKeyState"
  ],
  "windowsize": 3
}{
  "traces": [
    "pupy-ThreadId1900",
    "DarkComet53",
    "jspy-ThreadId1348"
  ],
  "sig": [
    "SystemCall @ SystemCall:NtCallbackReturn",
    "SystemCall @ SystemCall:NtUserGetForegroundWindow",
    "SystemCall @ SystemCall:NtUserQueryWindow"
  ],
  "windowsize": 8
}{
  "traces": [
    "pupy-ThreadId1900",
    "turkojan4.0-ThreadId2324",
    "DarkComet53"
  ],
  "sig": [
    "SystemCall @ SystemCall:NtUserQueryWindow",
    "SystemCall @ SystemCall:NtCallbackReturn"
  ],
  "windowsize": 42
}{
  "traces": [
    "pupy-ThreadId1900",
    "turkojan4.0-ThreadId2324",
    "DarkComet53"
  ],
  "sig": [
    "SystemCall @ SystemCall:NtUserQueryWindow",
    "SystemCall @ SystemCall:NtCallbackReturn",
    "SystemCall @ SystemCall:NtUserQueryWindow"
  ],
  "windowsize": 36
}{
  "traces": [
    "pupy-ThreadId1900",
    "imminentMonitor20",
    "DarkComet53"
  ],
  "sig": [
    "SystemCall @ SystemCall:NtCallbackReturn",
    "SystemCall @ SystemCall:NtUserGetKeyState"
  ],
  "windowsize": 3
}{
  "traces": [
    "jrat-ThreadId1364",
    "pupy-ThreadId1900",
    "DarkComet53"
  ],
  "sig": [
    "SystemCall @ SystemCall:NtCallbackReturn",
    "SystemCall @ SystemCall:NtUserGetKeyState"
  ],
  "windowsize": 3
}{
  "traces": [
    "pupy-ThreadId1900",
    "DarkComet53",
    "jspy-ThreadId1348"
  ],
  "sig": [
    "SystemCall @ SystemCall:NtCallbackReturn",
    "SystemCall @ SystemCall:NtUserGetForegroundWindow",
    "SystemCall @ SystemCall:NtUserQueryWindow"
  ],
  "windowsize": 8
}{
  "traces": [
    "pupy-ThreadId1900",
    "DarkComet53",
    "jspy-ThreadId1348"
  ],
  "sig": [
    "SystemCall @ SystemCall:NtCallbackReturn",
    "SystemCall @ SystemCall:NtUserGetForegroundWindow",
    "SystemCall @ SystemCall:NtUserQueryWindow"
  ],
  "windowsize": 8
}{
  "traces": [
    "pupy-ThreadId1900",
    "turkojan4.0-ThreadId2324",
    "DarkComet53"
  ],
  "sig": [
    "SystemCall @ SystemCall:NtUserQueryWindow",
    "SystemCall @ SystemCall:NtCallbackReturn",
    "SystemCall @ SystemCall:NtUserQueryWindow"
  ],
  "windowsize": 41
}{
  "traces": [
    "pupy-ThreadId1900",
    "turkojan4.0-ThreadId2324",
    "DarkComet53"
  ],
  "sig": [
    "SystemCall @ SystemCall:NtUserQueryWindow",
    "SystemCall @ SystemCall:NtCallbackReturn",
    "SystemCall @ SystemCall:NtUserQueryWindow"
  ],
  "windowsize": 36
}{
  "traces": [
    "turkojan4.0-ThreadId2324",
    "DarkComet53",
    "xrat2.0-ThreadId1240"
  ],
  "sig": [
    "SystemCall @ SystemCall:NtCallbackReturn"
  ],
  "windowsize": 18
}{
  "traces": [
    "turkojan4.0-ThreadId2324",
    "DarkComet53",
    "xrat2.0-ThreadId1240"
  ],
  "sig": [
    "SystemCall @ SystemCall:NtCallbackReturn",
    "SystemCall @ SystemCall:NtUserQueryWindow"
  ],
  "windowsize": 24
}{
  "traces": [
    "jrat-ThreadId1364",
    "turkojan4.0-ThreadId2324",
    "DarkComet53"
  ],
  "sig": [
    "SystemCall @ SystemCall:NtCallbackReturn"
  ],
  "windowsize": 13
}{
  "traces": [
    "jrat-ThreadId1364",
    "turkojan4.0-ThreadId2324",
    "DarkComet53"
  ],
  "sig": [
    "SystemCall @ SystemCall:NtCallbackReturn"
  ],
  "windowsize": 13
}{
  "traces": [
    "turkojan4.0-ThreadId2324",
    "DarkComet53",
    "jspy-ThreadId1348"
  ],
  "sig": [
    "SystemCall @ SystemCall:NtCallbackReturn",
    "SystemCall @ SystemCall:NtUserQueryWindow"
  ],
  "windowsize": 11
}{
  "traces": [
    "pupy-ThreadId1900",
    "turkojan4.0-ThreadId2324",
    "DarkComet53"
  ],
  "sig": [
    "SystemCall @ SystemCall:NtCallbackReturn",
    "SystemCall @ SystemCall:NtUserQueryWindow"
  ],
  "windowsize": 39
}{
  "traces": [
    "pupy-ThreadId1900",
    "turkojan4.0-ThreadId2324",
    "DarkComet53"
  ],
  "sig": [
    "SystemCall @ SystemCall:NtCallbackReturn",
    "SystemCall @ SystemCall:NtUserQueryWindow"
  ],
  "windowsize": 36
}{
  "traces": [
    "pupy-ThreadId1900",
    "turkojan4.0-ThreadId2324",
    "DarkComet53"
  ],
  "sig": [
    "SystemCall @ SystemCall:NtCallbackReturn",
    "SystemCall @ SystemCall:NtUserQueryWindow"
  ],
  "windowsize": 36
}{
  "traces": [
    "virus8.0-ThreadId2692",
    "imminentMonitor20",
    "DarkComet53"
  ],
  "sig": [
    "SystemCall @ SystemCall:NtUserGetKeyState"
  ],
  "windowsize": 12
}{
  "traces": [
    "virus8.0-ThreadId2692",
    "jrat-ThreadId1364",
    "DarkComet53"
  ],
  "sig": [
    "SystemCall @ SystemCall:NtUserGetKeyState"
  ],
  "windowsize": 1
}{
  "traces": [
    "virus8.0-ThreadId2692",
    "DarkComet53",
    "jspy-ThreadId1348"
  ],
  "sig": [
    "SystemCall @ SystemCall:NtUserGetForegroundWindow",
    "SystemCall @ SystemCall:NtUserQueryWindow"
  ],
  "windowsize": 6
}{
  "traces": [
    "imminentMonitor20",
    "DarkComet53",
    "xrat2.0-ThreadId1240"
  ],
  "sig": [
    "SystemCall @ SystemCall:NtUserGetKeyState",
    "SystemCall @ SystemCall:NtCallbackReturn"
  ],
  "windowsize": 5
}{
  "traces": [
    "jrat-ThreadId1364",
    "DarkComet53",
    "xrat2.0-ThreadId1240"
  ],
  "sig": [
    "SystemCall @ SystemCall:NtUserGetKeyState",
    "SystemCall @ SystemCall:NtCallbackReturn"
  ],
  "windowsize": 17
}{
  "traces": [
    "DarkComet53",
    "xrat2.0-ThreadId1240",
    "jspy-ThreadId1348"
  ],
  "sig": [
    "SystemCall @ SystemCall:NtUserGetForegroundWindow",
    "SystemCall @ SystemCall:NtUserQueryWindow",
    "SystemCall @ SystemCall:NtCallbackReturn"
  ],
  "windowsize": 13
}{
  "traces": [
    "NanoCore1220",
    "DarkComet53",
    "xrat2.0-ThreadId1240"
  ],
  "sig": [
    "SystemCall @ SystemCall:NtCallbackReturn"
  ],
  "windowsize": 18
}{
  "traces": [
    "NanoCore1220",
    "DarkComet53",
    "xrat2.0-ThreadId1240"
  ],
  "sig": [
    "SystemCall @ SystemCall:NtCallbackReturn"
  ],
  "windowsize": 18
}{
  "traces": [
    "turkojan4.0-ThreadId2324",
    "DarkComet53",
    "xrat2.0-ThreadId1240"
  ],
  "sig": [
    "SystemCall @ SystemCall:NtUserQueryWindow",
    "SystemCall @ SystemCall:NtCallbackReturn"
  ],
  "windowsize": 18
}{
  "traces": [
    "turkojan4.0-ThreadId2324",
    "DarkComet53",
    "xrat2.0-ThreadId1240"
  ],
  "sig": [
    "SystemCall @ SystemCall:NtUserQueryWindow",
    "SystemCall @ SystemCall:NtCallbackReturn"
  ],
  "windowsize": 18
}{
  "traces": [
    "virus8.0-ThreadId2692",
    "DarkComet53",
    "xrat2.0-ThreadId1240"
  ],
  "sig": [
    "SystemCall @ SystemCall:NtUserQueryWindow",
    "SystemCall @ SystemCall:NtUserGetForegroundWindow",
    "SystemCall @ SystemCall:NtUserQueryWindow"
  ],
  "windowsize": 18
}{
  "traces": [
    "imminentMonitor20",
    "DarkComet53",
    "xrat2.0-ThreadId1240"
  ],
  "sig": [
    "SystemCall @ SystemCall:NtCallbackReturn"
  ],
  "windowsize": 5
}{
  "traces": [
    "jrat-ThreadId1364",
    "DarkComet53",
    "xrat2.0-ThreadId1240"
  ],
  "sig": [
    "SystemCall @ SystemCall:NtUserGetKeyState",
    "SystemCall @ SystemCall:NtCallbackReturn"
  ],
  "windowsize": 17
}{
  "traces": [
    "DarkComet53",
    "xrat2.0-ThreadId1240",
    "jspy-ThreadId1348"
  ],
  "sig": [
    "SystemCall @ SystemCall:NtUserGetForegroundWindow",
    "SystemCall @ SystemCall:NtUserQueryWindow",
    "SystemCall @ SystemCall:NtCallbackReturn"
  ],
  "windowsize": 13
}{
  "traces": [
    "NanoCore1220",
    "DarkComet53",
    "xrat2.0-ThreadId1240"
  ],
  "sig": [
    "SystemCall @ SystemCall:NtCallbackReturn"
  ],
  "windowsize": 24
}{
  "traces": [
    "turkojan4.0-ThreadId2324",
    "DarkComet53",
    "xrat2.0-ThreadId1240"
  ],
  "sig": [
    "SystemCall @ SystemCall:NtUserQueryWindow",
    "SystemCall @ SystemCall:NtCallbackReturn"
  ],
  "windowsize": 24
}{
  "traces": [
    "virus8.0-ThreadId2692",
    "DarkComet53",
    "xrat2.0-ThreadId1240"
  ],
  "sig": [
    "SystemCall @ SystemCall:NtUserQueryWindow",
    "SystemCall @ SystemCall:NtUserGetForegroundWindow",
    "SystemCall @ SystemCall:NtUserQueryWindow"
  ],
  "windowsize": 21
}{
  "traces": [
    "imminentMonitor20",
    "DarkComet53",
    "xrat2.0-ThreadId1240"
  ],
  "sig": [
    "SystemCall @ SystemCall:NtCallbackReturn"
  ],
  "windowsize": 5
}{
  "traces": [
    "jrat-ThreadId1364",
    "DarkComet53",
    "xrat2.0-ThreadId1240"
  ],
  "sig": [
    "SystemCall @ SystemCall:NtCallbackReturn"
  ],
  "windowsize": 17
}{
  "traces": [
    "DarkComet53",
    "xrat2.0-ThreadId1240",
    "jspy-ThreadId1348"
  ],
  "sig": [
    "SystemCall @ SystemCall:NtCallbackReturn",
    "SystemCall @ SystemCall:NtUserGetForegroundWindow",
    "SystemCall @ SystemCall:NtUserQueryWindow",
    "SystemCall @ SystemCall:NtCallbackReturn"
  ],
  "windowsize": 13
}{
  "traces": [
    "DarkComet53",
    "xrat2.0-ThreadId1240",
    "jspy-ThreadId1348"
  ],
  "sig": [
    "SystemCall @ SystemCall:NtCallbackReturn",
    "SystemCall @ SystemCall:NtUserGetForegroundWindow",
    "SystemCall @ SystemCall:NtUserQueryWindow",
    "SystemCall @ SystemCall:NtCallbackReturn"
  ],
  "windowsize": 13
}{
  "traces": [
    "pupy-ThreadId1900",
    "DarkComet53",
    "xrat2.0-ThreadId1240"
  ],
  "sig": [
    "SystemCall @ SystemCall:NtCallbackReturn",
    "SystemCall @ SystemCall:NtUserGetForegroundWindow",
    "SystemCall @ SystemCall:NtUserQueryWindow"
  ],
  "windowsize": 18
}{
  "traces": [
    "pupy-ThreadId1900",
    "DarkComet53",
    "xrat2.0-ThreadId1240"
  ],
  "sig": [
    "SystemCall @ SystemCall:NtUserGetForegroundWindow",
    "SystemCall @ SystemCall:NtUserQueryWindow",
    "SystemCall @ SystemCall:NtCallbackReturn"
  ],
  "windowsize": 18
}{
  "traces": [
    "virus8.0-ThreadId2692",
    "DarkComet53",
    "xrat2.0-ThreadId1240"
  ],
  "sig": [
    "SystemCall @ SystemCall:NtUserGetForegroundWindow",
    "SystemCall @ SystemCall:NtUserQueryWindow"
  ],
  "windowsize": 18
}{
  "traces": [
    "jrat-ThreadId1364",
    "imminentMonitor20",
    "jspy-ThreadId1348"
  ],
  "sig": [
    "SystemCall @ SystemCall:NtCallbackReturn",
    "SystemCall @ SystemCall:NtUserGetKeyState",
    "SystemCall @ SystemCall:NtCallbackReturn"
  ],
  "windowsize": 5
}{
  "traces": [
    "jrat-ThreadId1364",
    "pupy-ThreadId1900",
    "imminentMonitor20"
  ],
  "sig": [
    "SystemCall @ SystemCall:NtCallbackReturn",
    "SystemCall @ SystemCall:NtUserGetKeyState"
  ],
  "windowsize": 3
}{
  "traces": [
    "jrat-ThreadId1364",
    "virus8.0-ThreadId2692",
    "imminentMonitor20"
  ],
  "sig": [
    "SystemCall @ SystemCall:NtUserGetKeyState"
  ],
  "windowsize": 5
}{
  "traces": [
    "jrat-ThreadId1364",
    "imminentMonitor20",
    "xrat2.0-ThreadId1240"
  ],
  "sig": [
    "SystemCall @ SystemCall:NtCallbackReturn",
    "SystemCall @ SystemCall:NtUserGetKeyState",
    "SystemCall @ SystemCall:NtCallbackReturn"
  ],
  "windowsize": 5
}{
  "traces": [
    "jrat-ThreadId1364",
    "imminentMonitor20",
    "jspy-ThreadId1348"
  ],
  "sig": [
    "SystemCall @ SystemCall:NtCallbackReturn",
    "SystemCall @ SystemCall:NtUserGetKeyState",
    "SystemCall @ SystemCall:NtCallbackReturn"
  ],
  "windowsize": 5
}{
  "traces": [
    "jrat-ThreadId1364",
    "imminentMonitor20",
    "jspy-ThreadId1348"
  ],
  "sig": [
    "SystemCall @ SystemCall:NtCallbackReturn",
    "SystemCall @ SystemCall:NtUserGetKeyState",
    "SystemCall @ SystemCall:NtCallbackReturn"
  ],
  "windowsize": 5
}{
  "traces": [
    "jrat-ThreadId1364",
    "NanoCore1220",
    "imminentMonitor20"
  ],
  "sig": [
    "SystemCall @ SystemCall:NtCallbackReturn"
  ],
  "windowsize": 4
}{
  "traces": [
    "jrat-ThreadId1364",
    "pupy-ThreadId1900",
    "imminentMonitor20"
  ],
  "sig": [
    "SystemCall @ SystemCall:NtCallbackReturn",
    "SystemCall @ SystemCall:NtUserGetKeyState"
  ],
  "windowsize": 3
}{
  "traces": [
    "jrat-ThreadId1364",
    "turkojan4.0-ThreadId2324",
    "imminentMonitor20"
  ],
  "sig": [
    "SystemCall @ SystemCall:NtCallbackReturn"
  ],
  "windowsize": 5
}{
  "traces": [
    "jrat-ThreadId1364",
    "turkojan4.0-ThreadId2324",
    "imminentMonitor20"
  ],
  "sig": [
    "SystemCall @ SystemCall:NtCallbackReturn"
  ],
  "windowsize": 5
}{
  "traces": [
    "jrat-ThreadId1364",
    "virus8.0-ThreadId2692",
    "imminentMonitor20"
  ],
  "sig": [
    "SystemCall @ SystemCall:NtCallbackReturn"
  ],
  "windowsize": 1
}{
  "traces": [
    "jrat-ThreadId1364",
    "virus8.0-ThreadId2692",
    "imminentMonitor20"
  ],
  "sig": [
    "SystemCall @ SystemCall:NtCallbackReturn"
  ],
  "windowsize": 1
}{
  "traces": [
    "jrat-ThreadId1364",
    "virus8.0-ThreadId2692",
    "imminentMonitor20"
  ],
  "sig": [
    "SystemCall @ SystemCall:NtUserGetKeyState"
  ],
  "windowsize": 1
}{
  "traces": [
    "jrat-ThreadId1364",
    "imminentMonitor20",
    "xrat2.0-ThreadId1240"
  ],
  "sig": [
    "SystemCall @ SystemCall:NtCallbackReturn",
    "SystemCall @ SystemCall:NtUserGetKeyState",
    "SystemCall @ SystemCall:NtCallbackReturn"
  ],
  "windowsize": 5
}{
  "traces": [
    "jrat-ThreadId1364",
    "imminentMonitor20",
    "xrat2.0-ThreadId1240"
  ],
  "sig": [
    "SystemCall @ SystemCall:NtCallbackReturn",
    "SystemCall @ SystemCall:NtUserGetKeyState",
    "SystemCall @ SystemCall:NtCallbackReturn"
  ],
  "windowsize": 5
}{
  "traces": [
    "pupy-ThreadId1900",
    "imminentMonitor20",
    "jspy-ThreadId1348"
  ],
  "sig": [
    "SystemCall @ SystemCall:NtCallbackReturn",
    "SystemCall @ SystemCall:NtUserGetKeyState"
  ],
  "windowsize": 3
}{
  "traces": [
    "virus8.0-ThreadId2692",
    "imminentMonitor20",
    "jspy-ThreadId1348"
  ],
  "sig": [
    "SystemCall @ SystemCall:NtUserGetKeyState"
  ],
  "windowsize": 8
}{
  "traces": [
    "imminentMonitor20",
    "xrat2.0-ThreadId1240",
    "jspy-ThreadId1348"
  ],
  "sig": [
    "SystemCall @ SystemCall:NtCallbackReturn",
    "SystemCall @ SystemCall:NtUserGetKeyState",
    "SystemCall @ SystemCall:NtCallbackReturn"
  ],
  "windowsize": 5
}{
  "traces": [
    "jrat-ThreadId1364",
    "imminentMonitor20",
    "jspy-ThreadId1348"
  ],
  "sig": [
    "SystemCall @ SystemCall:NtCallbackReturn",
    "SystemCall @ SystemCall:NtUserGetKeyState",
    "SystemCall @ SystemCall:NtCallbackReturn"
  ],
  "windowsize": 8
}{
  "traces": [
    "jrat-ThreadId1364",
    "imminentMonitor20",
    "jspy-ThreadId1348"
  ],
  "sig": [
    "SystemCall @ SystemCall:NtCallbackReturn",
    "SystemCall @ SystemCall:NtUserGetKeyState",
    "SystemCall @ SystemCall:NtCallbackReturn"
  ],
  "windowsize": 8
}{
  "traces": [
    "NanoCore1220",
    "imminentMonitor20",
    "jspy-ThreadId1348"
  ],
  "sig": [
    "SystemCall @ SystemCall:NtCallbackReturn"
  ],
  "windowsize": 4
}{
  "traces": [
    "pupy-ThreadId1900",
    "imminentMonitor20",
    "jspy-ThreadId1348"
  ],
  "sig": [
    "SystemCall @ SystemCall:NtCallbackReturn"
  ],
  "windowsize": 8
}{
  "traces": [
    "turkojan4.0-ThreadId2324",
    "imminentMonitor20",
    "jspy-ThreadId1348"
  ],
  "sig": [
    "SystemCall @ SystemCall:NtCallbackReturn"
  ],
  "windowsize": 8
}{
  "traces": [
    "turkojan4.0-ThreadId2324",
    "imminentMonitor20",
    "jspy-ThreadId1348"
  ],
  "sig": [
    "SystemCall @ SystemCall:NtCallbackReturn"
  ],
  "windowsize": 8
}{
  "traces": [
    "virus8.0-ThreadId2692",
    "imminentMonitor20",
    "jspy-ThreadId1348"
  ],
  "sig": [
    "SystemCall @ SystemCall:NtCallbackReturn"
  ],
  "windowsize": 6
}{
  "traces": [
    "imminentMonitor20",
    "xrat2.0-ThreadId1240",
    "jspy-ThreadId1348"
  ],
  "sig": [
    "SystemCall @ SystemCall:NtCallbackReturn"
  ],
  "windowsize": 8
}{
  "traces": [
    "imminentMonitor20",
    "xrat2.0-ThreadId1240",
    "jspy-ThreadId1348"
  ],
  "sig": [
    "SystemCall @ SystemCall:NtCallbackReturn"
  ],
  "windowsize": 8
}{
  "traces": [
    "NanoCore1220",
    "turkojan4.0-ThreadId2324",
    "imminentMonitor20"
  ],
  "sig": [
    "DiskIoDrvMjFnCall @ MajorFunction:0",
    "DiskIoDrvMjFnCall @ MajorFunction:18",
    "DiskIoDrvMjFnCall @ MajorFunction:2"
  ],
  "windowsize": 24
}{
  "traces": [
    "NanoCore1220",
    "turkojan4.0-ThreadId2324",
    "imminentMonitor20"
  ],
  "sig": [
    "DiskIoDrvMjFnCall @ MajorFunction:0",
    "DiskIoDrvMjFnCall @ MajorFunction:18",
    "DiskIoDrvMjFnCall @ MajorFunction:2"
  ],
  "windowsize": 32
}{
  "traces": [
    "NanoCore1220",
    "turkojan4.0-ThreadId2324",
    "imminentMonitor20"
  ],
  "sig": [
    "DiskIoDrvMjFnCall @ MajorFunction:0",
    "DiskIoDrvMjFnCall @ MajorFunction:18",
    "DiskIoDrvMjFnCall @ MajorFunction:2"
  ],
  "windowsize": 32
}{
  "traces": [
    "NanoCore1220",
    "turkojan4.0-ThreadId2324",
    "imminentMonitor20"
  ],
  "sig": [
    "DiskIoDrvMjFnCall @ MajorFunction:18",
    "DiskIoDrvMjFnCall @ MajorFunction:2",
    "DiskIoDrvMjFnCall @ MajorFunction:0",
    "DiskIoDrvMjFnCall @ MajorFunction:18",
    "DiskIoDrvMjFnCall @ MajorFunction:2"
  ],
  "windowsize": 24
}{
  "traces": [
    "NanoCore1220",
    "turkojan4.0-ThreadId2324",
    "imminentMonitor20"
  ],
  "sig": [
    "DiskIoDrvMjFnCall @ MajorFunction:5",
    "DiskIoDrvMjFnCall @ MajorFunction:18",
    "DiskIoDrvMjFnCall @ MajorFunction:2",
    "DiskIoDrvMjFnCall @ MajorFunction:0",
    "DiskIoDrvMjFnCall @ MajorFunction:18",
    "DiskIoDrvMjFnCall @ MajorFunction:2"
  ],
  "windowsize": 32
}{
  "traces": [
    "NanoCore1220",
    "turkojan4.0-ThreadId2324",
    "imminentMonitor20"
  ],
  "sig": [
    "DiskIoDrvMjFnCall @ MajorFunction:5",
    "DiskIoDrvMjFnCall @ MajorFunction:18",
    "DiskIoDrvMjFnCall @ MajorFunction:2",
    "DiskIoDrvMjFnCall @ MajorFunction:0",
    "DiskIoDrvMjFnCall @ MajorFunction:18",
    "DiskIoDrvMjFnCall @ MajorFunction:2"
  ],
  "windowsize": 32
}{
  "traces": [
    "virus8.0-ThreadId2692",
    "pupy-ThreadId1900",
    "imminentMonitor20"
  ],
  "sig": [
    "SystemCall @ SystemCall:NtUserGetKeyState"
  ],
  "windowsize": 3
}{
  "traces": [
    "pupy-ThreadId1900",
    "imminentMonitor20",
    "xrat2.0-ThreadId1240"
  ],
  "sig": [
    "SystemCall @ SystemCall:NtCallbackReturn",
    "SystemCall @ SystemCall:NtUserGetKeyState"
  ],
  "windowsize": 3
}{
  "traces": [
    "jrat-ThreadId1364",
    "pupy-ThreadId1900",
    "imminentMonitor20"
  ],
  "sig": [
    "SystemCall @ SystemCall:NtCallbackReturn",
    "SystemCall @ SystemCall:NtUserGetKeyState"
  ],
  "windowsize": 3
}{
  "traces": [
    "pupy-ThreadId1900",
    "imminentMonitor20",
    "jspy-ThreadId1348"
  ],
  "sig": [
    "SystemCall @ SystemCall:NtCallbackReturn"
  ],
  "windowsize": 3
}{
  "traces": [
    "pupy-ThreadId1900",
    "NanoCore1220",
    "imminentMonitor20"
  ],
  "sig": [
    "SystemCall @ SystemCall:NtCallbackReturn"
  ],
  "windowsize": 3
}{
  "traces": [
    "pupy-ThreadId1900",
    "turkojan4.0-ThreadId2324",
    "imminentMonitor20"
  ],
  "sig": [
    "SystemCall @ SystemCall:NtCallbackReturn"
  ],
  "windowsize": 3
}{
  "traces": [
    "pupy-ThreadId1900",
    "turkojan4.0-ThreadId2324",
    "imminentMonitor20"
  ],
  "sig": [
    "SystemCall @ SystemCall:NtCallbackReturn"
  ],
  "windowsize": 3
}{
  "traces": [
    "virus8.0-ThreadId2692",
    "pupy-ThreadId1900",
    "imminentMonitor20"
  ],
  "sig": [
    "SystemCall @ SystemCall:NtUserGetKeyState"
  ],
  "windowsize": 3
}{
  "traces": [
    "pupy-ThreadId1900",
    "imminentMonitor20",
    "xrat2.0-ThreadId1240"
  ],
  "sig": [
    "SystemCall @ SystemCall:NtCallbackReturn",
    "SystemCall @ SystemCall:NtUserGetKeyState"
  ],
  "windowsize": 3
}{
  "traces": [
    "pupy-ThreadId1900",
    "imminentMonitor20",
    "xrat2.0-ThreadId1240"
  ],
  "sig": [
    "SystemCall @ SystemCall:NtCallbackReturn",
    "SystemCall @ SystemCall:NtUserGetKeyState"
  ],
  "windowsize": 3
}{
  "traces": [
    "NanoCore1220",
    "turkojan4.0-ThreadId2324",
    "imminentMonitor20"
  ],
  "sig": [
    "DiskIoDrvMjFnCall @ MajorFunction:0",
    "DiskIoDrvMjFnCall @ MajorFunction:18",
    "DiskIoDrvMjFnCall @ MajorFunction:2"
  ],
  "windowsize": 24
}{
  "traces": [
    "NanoCore1220",
    "turkojan4.0-ThreadId2324",
    "imminentMonitor20"
  ],
  "sig": [
    "DiskIoDrvMjFnCall @ MajorFunction:0",
    "DiskIoDrvMjFnCall @ MajorFunction:18",
    "DiskIoDrvMjFnCall @ MajorFunction:2"
  ],
  "windowsize": 24
}{
  "traces": [
    "virus8.0-ThreadId2692",
    "imminentMonitor20",
    "xrat2.0-ThreadId1240"
  ],
  "sig": [
    "SystemCall @ SystemCall:NtUserGetKeyState"
  ],
  "windowsize": 5
}{
  "traces": [
    "virus8.0-ThreadId2692",
    "jrat-ThreadId1364",
    "imminentMonitor20"
  ],
  "sig": [
    "SystemCall @ SystemCall:NtUserGetKeyState"
  ],
  "windowsize": 1
}{
  "traces": [
    "virus8.0-ThreadId2692",
    "NanoCore1220",
    "imminentMonitor20"
  ],
  "sig": [
    "SystemCall @ SystemCall:NtAllocateVirtualMemory",
    "SystemCall @ SystemCall:NtFreeVirtualMemory",
    "SystemCall @ SystemCall:NtFlushInstructionCache"
  ],
  "windowsize": 20
}{
  "traces": [
    "jrat-ThreadId1364",
    "imminentMonitor20",
    "xrat2.0-ThreadId1240"
  ],
  "sig": [
    "SystemCall @ SystemCall:NtCallbackReturn",
    "SystemCall @ SystemCall:NtUserGetKeyState",
    "SystemCall @ SystemCall:NtCallbackReturn"
  ],
  "windowsize": 5
}{
  "traces": [
    "jrat-ThreadId1364",
    "imminentMonitor20",
    "xrat2.0-ThreadId1240"
  ],
  "sig": [
    "SystemCall @ SystemCall:NtCallbackReturn",
    "SystemCall @ SystemCall:NtUserGetKeyState",
    "SystemCall @ SystemCall:NtCallbackReturn"
  ],
  "windowsize": 5
}{
  "traces": [
    "imminentMonitor20",
    "xrat2.0-ThreadId1240",
    "jspy-ThreadId1348"
  ],
  "sig": [
    "SystemCall @ SystemCall:NtCallbackReturn"
  ],
  "windowsize": 5
}{
  "traces": [
    "imminentMonitor20",
    "xrat2.0-ThreadId1240",
    "jspy-ThreadId1348"
  ],
  "sig": [
    "SystemCall @ SystemCall:NtCallbackReturn"
  ],
  "windowsize": 5
}{
  "traces": [
    "NanoCore1220",
    "imminentMonitor20",
    "xrat2.0-ThreadId1240"
  ],
  "sig": [
    "SystemCall @ SystemCall:NtCallbackReturn"
  ],
  "windowsize": 5
}{
  "traces": [
    "pupy-ThreadId1900",
    "imminentMonitor20",
    "xrat2.0-ThreadId1240"
  ],
  "sig": [
    "SystemCall @ SystemCall:NtCallbackReturn",
    "SystemCall @ SystemCall:NtUserGetKeyState"
  ],
  "windowsize": 5
}{
  "traces": [
    "pupy-ThreadId1900",
    "imminentMonitor20",
    "xrat2.0-ThreadId1240"
  ],
  "sig": [
    "SystemCall @ SystemCall:NtCallbackReturn",
    "SystemCall @ SystemCall:NtUserGetKeyState"
  ],
  "windowsize": 5
}{
  "traces": [
    "turkojan4.0-ThreadId2324",
    "imminentMonitor20",
    "xrat2.0-ThreadId1240"
  ],
  "sig": [
    "SystemCall @ SystemCall:NtCallbackReturn"
  ],
  "windowsize": 5
}{
  "traces": [
    "virus8.0-ThreadId2692",
    "imminentMonitor20",
    "xrat2.0-ThreadId1240"
  ],
  "sig": [
    "SystemCall @ SystemCall:NtUserGetKeyState"
  ],
  "windowsize": 5
}{
  "traces": [
    "jrat-ThreadId1364",
    "NanoCore1220",
    "jspy-ThreadId1348"
  ],
  "sig": [
    "SystemCall @ SystemCall:NtCallbackReturn"
  ],
  "windowsize": 4
}{
  "traces": [
    "jrat-ThreadId1364",
    "NanoCore1220",
    "jspy-ThreadId1348"
  ],
  "sig": [
    "SystemCall @ SystemCall:NtCallbackReturn"
  ],
  "windowsize": 4
}{
  "traces": [
    "jrat-ThreadId1364",
    "pupy-ThreadId1900",
    "jspy-ThreadId1348"
  ],
  "sig": [
    "SystemCall @ SystemCall:NtCallbackReturn",
    "SystemCall @ SystemCall:NtUserGetKeyState"
  ],
  "windowsize": 3
}{
  "traces": [
    "jrat-ThreadId1364",
    "turkojan4.0-ThreadId2324",
    "jspy-ThreadId1348"
  ],
  "sig": [
    "SystemCall @ SystemCall:NtCallbackReturn"
  ],
  "windowsize": 13
}{
  "traces": [
    "jrat-ThreadId1364",
    "virus8.0-ThreadId2692",
    "jspy-ThreadId1348"
  ],
  "sig": [
    "SystemCall @ SystemCall:NtCallbackReturn"
  ],
  "windowsize": 1
}{
  "traces": [
    "jrat-ThreadId1364",
    "virus8.0-ThreadId2692",
    "jspy-ThreadId1348"
  ],
  "sig": [
    "SystemCall @ SystemCall:NtCallbackReturn"
  ],
  "windowsize": 1
}{
  "traces": [
    "jrat-ThreadId1364",
    "virus8.0-ThreadId2692",
    "jspy-ThreadId1348"
  ],
  "sig": [
    "SystemCall @ SystemCall:NtUserGetKeyState"
  ],
  "windowsize": 1
}{
  "traces": [
    "jrat-ThreadId1364",
    "xrat2.0-ThreadId1240",
    "jspy-ThreadId1348"
  ],
  "sig": [
    "SystemCall @ SystemCall:NtCallbackReturn",
    "SystemCall @ SystemCall:NtUserGetKeyState",
    "SystemCall @ SystemCall:NtCallbackReturn"
  ],
  "windowsize": 17
}{
  "traces": [
    "jrat-ThreadId1364",
    "xrat2.0-ThreadId1240",
    "jspy-ThreadId1348"
  ],
  "sig": [
    "SystemCall @ SystemCall:NtCallbackReturn",
    "SystemCall @ SystemCall:NtUserGetKeyState",
    "SystemCall @ SystemCall:NtCallbackReturn"
  ],
  "windowsize": 17
}{
  "traces": [
    "jrat-ThreadId1364",
    "NanoCore1220",
    "jspy-ThreadId1348"
  ],
  "sig": [
    "SystemCall @ SystemCall:NtCallbackReturn"
  ],
  "windowsize": 4
}{
  "traces": [
    "jrat-ThreadId1364",
    "NanoCore1220",
    "jspy-ThreadId1348"
  ],
  "sig": [
    "SystemCall @ SystemCall:NtCallbackReturn"
  ],
  "windowsize": 4
}{
  "traces": [
    "jrat-ThreadId1364",
    "pupy-ThreadId1900",
    "jspy-ThreadId1348"
  ],
  "sig": [
    "SystemCall @ SystemCall:NtCallbackReturn"
  ],
  "windowsize": 8
}{
  "traces": [
    "jrat-ThreadId1364",
    "pupy-ThreadId1900",
    "jspy-ThreadId1348"
  ],
  "sig": [
    "SystemCall @ SystemCall:NtCallbackReturn"
  ],
  "windowsize": 8
}{
  "traces": [
    "jrat-ThreadId1364",
    "turkojan4.0-ThreadId2324",
    "jspy-ThreadId1348"
  ],
  "sig": [
    "SystemCall @ SystemCall:NtCallbackReturn"
  ],
  "windowsize": 11
}{
  "traces": [
    "jrat-ThreadId1364",
    "virus8.0-ThreadId2692",
    "jspy-ThreadId1348"
  ],
  "sig": [
    "SystemCall @ SystemCall:NtCallbackReturn"
  ],
  "windowsize": 6
}{
  "traces": [
    "jrat-ThreadId1364",
    "virus8.0-ThreadId2692",
    "jspy-ThreadId1348"
  ],
  "sig": [
    "SystemCall @ SystemCall:NtCallbackReturn"
  ],
  "windowsize": 6
}{
  "traces": [
    "jrat-ThreadId1364",
    "xrat2.0-ThreadId1240",
    "jspy-ThreadId1348"
  ],
  "sig": [
    "SystemCall @ SystemCall:NtCallbackReturn"
  ],
  "windowsize": 13
}{
  "traces": [
    "jrat-ThreadId1364",
    "pupy-ThreadId1900",
    "NanoCore1220"
  ],
  "sig": [
    "SystemCall @ SystemCall:NtCallbackReturn"
  ],
  "windowsize": 3
}{
  "traces": [
    "jrat-ThreadId1364",
    "NanoCore1220",
    "turkojan4.0-ThreadId2324"
  ],
  "sig": [
    "SystemCall @ SystemCall:NtCallbackReturn"
  ],
  "windowsize": 4
}{
  "traces": [
    "jrat-ThreadId1364",
    "NanoCore1220",
    "turkojan4.0-ThreadId2324"
  ],
  "sig": [
    "SystemCall @ SystemCall:NtCallbackReturn"
  ],
  "windowsize": 4
}{
  "traces": [
    "jrat-ThreadId1364",
    "virus8.0-ThreadId2692",
    "NanoCore1220"
  ],
  "sig": [
    "SystemCall @ SystemCall:NtCallbackReturn"
  ],
  "windowsize": 1
}{
  "traces": [
    "jrat-ThreadId1364",
    "virus8.0-ThreadId2692",
    "NanoCore1220"
  ],
  "sig": [
    "SystemCall @ SystemCall:NtCallbackReturn"
  ],
  "windowsize": 1
}{
  "traces": [
    "jrat-ThreadId1364",
    "NanoCore1220",
    "xrat2.0-ThreadId1240"
  ],
  "sig": [
    "SystemCall @ SystemCall:NtCallbackReturn"
  ],
  "windowsize": 4
}{
  "traces": [
    "jrat-ThreadId1364",
    "NanoCore1220",
    "xrat2.0-ThreadId1240"
  ],
  "sig": [
    "SystemCall @ SystemCall:NtCallbackReturn"
  ],
  "windowsize": 4
}{
  "traces": [
    "jrat-ThreadId1364",
    "NanoCore1220",
    "jspy-ThreadId1348"
  ],
  "sig": [
    "SystemCall @ SystemCall:NtCallbackReturn"
  ],
  "windowsize": 4
}{
  "traces": [
    "jrat-ThreadId1364",
    "pupy-ThreadId1900",
    "NanoCore1220"
  ],
  "sig": [
    "SystemCall @ SystemCall:NtCallbackReturn"
  ],
  "windowsize": 4
}{
  "traces": [
    "jrat-ThreadId1364",
    "NanoCore1220",
    "xrat2.0-ThreadId1240"
  ],
  "sig": [
    "SystemCall @ SystemCall:NtCallbackReturn"
  ],
  "windowsize": 4
}{
  "traces": [
    "jrat-ThreadId1364",
    "pupy-ThreadId1900",
    "turkojan4.0-ThreadId2324"
  ],
  "sig": [
    "SystemCall @ SystemCall:NtCallbackReturn"
  ],
  "windowsize": 3
}{
  "traces": [
    "jrat-ThreadId1364",
    "pupy-ThreadId1900",
    "turkojan4.0-ThreadId2324"
  ],
  "sig": [
    "SystemCall @ SystemCall:NtCallbackReturn"
  ],
  "windowsize": 3
}{
  "traces": [
    "jrat-ThreadId1364",
    "virus8.0-ThreadId2692",
    "pupy-ThreadId1900"
  ],
  "sig": [
    "SystemCall @ SystemCall:NtCallbackReturn"
  ],
  "windowsize": 1
}{
  "traces": [
    "jrat-ThreadId1364",
    "virus8.0-ThreadId2692",
    "pupy-ThreadId1900"
  ],
  "sig": [
    "SystemCall @ SystemCall:NtUserGetKeyState"
  ],
  "windowsize": 1
}{
  "traces": [
    "jrat-ThreadId1364",
    "pupy-ThreadId1900",
    "xrat2.0-ThreadId1240"
  ],
  "sig": [
    "SystemCall @ SystemCall:NtCallbackReturn",
    "SystemCall @ SystemCall:NtUserGetKeyState"
  ],
  "windowsize": 3
}{
  "traces": [
    "jrat-ThreadId1364",
    "pupy-ThreadId1900",
    "jspy-ThreadId1348"
  ],
  "sig": [
    "SystemCall @ SystemCall:NtCallbackReturn"
  ],
  "windowsize": 3
}{
  "traces": [
    "jrat-ThreadId1364",
    "pupy-ThreadId1900",
    "NanoCore1220"
  ],
  "sig": [
    "SystemCall @ SystemCall:NtCallbackReturn"
  ],
  "windowsize": 3
}{
  "traces": [
    "jrat-ThreadId1364",
    "pupy-ThreadId1900",
    "turkojan4.0-ThreadId2324"
  ],
  "sig": [
    "SystemCall @ SystemCall:NtCallbackReturn"
  ],
  "windowsize": 3
}{
  "traces": [
    "jrat-ThreadId1364",
    "pupy-ThreadId1900",
    "turkojan4.0-ThreadId2324"
  ],
  "sig": [
    "SystemCall @ SystemCall:NtCallbackReturn"
  ],
  "windowsize": 3
}{
  "traces": [
    "jrat-ThreadId1364",
    "virus8.0-ThreadId2692",
    "pupy-ThreadId1900"
  ],
  "sig": [
    "SystemCall @ SystemCall:NtUserGetKeyState"
  ],
  "windowsize": 3
}{
  "traces": [
    "jrat-ThreadId1364",
    "pupy-ThreadId1900",
    "xrat2.0-ThreadId1240"
  ],
  "sig": [
    "SystemCall @ SystemCall:NtCallbackReturn",
    "SystemCall @ SystemCall:NtUserGetKeyState"
  ],
  "windowsize": 3
}{
  "traces": [
    "jrat-ThreadId1364",
    "pupy-ThreadId1900",
    "xrat2.0-ThreadId1240"
  ],
  "sig": [
    "SystemCall @ SystemCall:NtCallbackReturn",
    "SystemCall @ SystemCall:NtUserGetKeyState"
  ],
  "windowsize": 3
}{
  "traces": [
    "jrat-ThreadId1364",
    "virus8.0-ThreadId2692",
    "turkojan4.0-ThreadId2324"
  ],
  "sig": [
    "SystemCall @ SystemCall:NtCallbackReturn"
  ],
  "windowsize": 1
}{
  "traces": [
    "jrat-ThreadId1364",
    "virus8.0-ThreadId2692",
    "turkojan4.0-ThreadId2324"
  ],
  "sig": [
    "SystemCall @ SystemCall:NtCallbackReturn"
  ],
  "windowsize": 1
}{
  "traces": [
    "jrat-ThreadId1364",
    "turkojan4.0-ThreadId2324",
    "xrat2.0-ThreadId1240"
  ],
  "sig": [
    "SystemCall @ SystemCall:NtCallbackReturn"
  ],
  "windowsize": 13
}{
  "traces": [
    "jrat-ThreadId1364",
    "turkojan4.0-ThreadId2324",
    "jspy-ThreadId1348"
  ],
  "sig": [
    "SystemCall @ SystemCall:NtCallbackReturn"
  ],
  "windowsize": 11
}{
  "traces": [
    "jrat-ThreadId1364",
    "pupy-ThreadId1900",
    "turkojan4.0-ThreadId2324"
  ],
  "sig": [
    "SystemCall @ SystemCall:NtCallbackReturn"
  ],
  "windowsize": 13
}{
  "traces": [
    "jrat-ThreadId1364",
    "pupy-ThreadId1900",
    "turkojan4.0-ThreadId2324"
  ],
  "sig": [
    "SystemCall @ SystemCall:NtCallbackReturn"
  ],
  "windowsize": 13
}{
  "traces": [
    "jrat-ThreadId1364",
    "pupy-ThreadId1900",
    "turkojan4.0-ThreadId2324"
  ],
  "sig": [
    "SystemCall @ SystemCall:NtCallbackReturn"
  ],
  "windowsize": 13
}{
  "traces": [
    "jrat-ThreadId1364",
    "turkojan4.0-ThreadId2324",
    "xrat2.0-ThreadId1240"
  ],
  "sig": [
    "SystemCall @ SystemCall:NtCallbackReturn"
  ],
  "windowsize": 13
}{
  "traces": [
    "jrat-ThreadId1364",
    "virus8.0-ThreadId2692",
    "xrat2.0-ThreadId1240"
  ],
  "sig": [
    "SystemCall @ SystemCall:NtCallbackReturn"
  ],
  "windowsize": 1
}{
  "traces": [
    "jrat-ThreadId1364",
    "virus8.0-ThreadId2692",
    "xrat2.0-ThreadId1240"
  ],
  "sig": [
    "SystemCall @ SystemCall:NtCallbackReturn"
  ],
  "windowsize": 1
}{
  "traces": [
    "jrat-ThreadId1364",
    "virus8.0-ThreadId2692",
    "jspy-ThreadId1348"
  ],
  "sig": [
    "SystemCall @ SystemCall:NtCallbackReturn"
  ],
  "windowsize": 1
}{
  "traces": [
    "jrat-ThreadId1364",
    "virus8.0-ThreadId2692",
    "xrat2.0-ThreadId1240"
  ],
  "sig": [
    "SystemCall @ SystemCall:NtUserGetKeyState"
  ],
  "windowsize": 1
}{
  "traces": [
    "jrat-ThreadId1364",
    "virus8.0-ThreadId2692",
    "pupy-ThreadId1900"
  ],
  "sig": [
    "SystemCall @ SystemCall:NtUserGetKeyState"
  ],
  "windowsize": 1
}{
  "traces": [
    "jrat-ThreadId1364",
    "virus8.0-ThreadId2692",
    "xrat2.0-ThreadId1240"
  ],
  "sig": [
    "SystemCall @ SystemCall:NtUserGetKeyState"
  ],
  "windowsize": 1
}{
  "traces": [
    "jrat-ThreadId1364",
    "xrat2.0-ThreadId1240",
    "jspy-ThreadId1348"
  ],
  "sig": [
    "SystemCall @ SystemCall:NtCallbackReturn"
  ],
  "windowsize": 13
}{
  "traces": [
    "jrat-ThreadId1364",
    "NanoCore1220",
    "xrat2.0-ThreadId1240"
  ],
  "sig": [
    "SystemCall @ SystemCall:NtCallbackReturn"
  ],
  "windowsize": 17
}{
  "traces": [
    "jrat-ThreadId1364",
    "turkojan4.0-ThreadId2324",
    "xrat2.0-ThreadId1240"
  ],
  "sig": [
    "SystemCall @ SystemCall:NtCallbackReturn"
  ],
  "windowsize": 17
}{
  "traces": [
    "jrat-ThreadId1364",
    "virus8.0-ThreadId2692",
    "xrat2.0-ThreadId1240"
  ],
  "sig": [
    "SystemCall @ SystemCall:NtUserGetKeyState"
  ],
  "windowsize": 17
}{
  "traces": [
    "pupy-ThreadId1900",
    "NanoCore1220",
    "jspy-ThreadId1348"
  ],
  "sig": [
    "SystemCall @ SystemCall:NtCallbackReturn"
  ],
  "windowsize": 4
}{
  "traces": [
    "NanoCore1220",
    "turkojan4.0-ThreadId2324",
    "jspy-ThreadId1348"
  ],
  "sig": [
    "SystemCall @ SystemCall:NtCallbackReturn"
  ],
  "windowsize": 4
}{
  "traces": [
    "NanoCore1220",
    "turkojan4.0-ThreadId2324",
    "jspy-ThreadId1348"
  ],
  "sig": [
    "SystemCall @ SystemCall:NtCallbackReturn"
  ],
  "windowsize": 4
}{
  "traces": [
    "virus8.0-ThreadId2692",
    "NanoCore1220",
    "jspy-ThreadId1348"
  ],
  "sig": [
    "SystemCall @ SystemCall:NtCallbackReturn"
  ],
  "windowsize": 4
}{
  "traces": [
    "NanoCore1220",
    "xrat2.0-ThreadId1240",
    "jspy-ThreadId1348"
  ],
  "sig": [
    "SystemCall @ SystemCall:NtCallbackReturn"
  ],
  "windowsize": 4
}{
  "traces": [
    "NanoCore1220",
    "xrat2.0-ThreadId1240",
    "jspy-ThreadId1348"
  ],
  "sig": [
    "SystemCall @ SystemCall:NtCallbackReturn"
  ],
  "windowsize": 4
}{
  "traces": [
    "pupy-ThreadId1900",
    "NanoCore1220",
    "jspy-ThreadId1348"
  ],
  "sig": [
    "SystemCall @ SystemCall:NtCallbackReturn"
  ],
  "windowsize": 4
}{
  "traces": [
    "NanoCore1220",
    "xrat2.0-ThreadId1240",
    "jspy-ThreadId1348"
  ],
  "sig": [
    "SystemCall @ SystemCall:NtCallbackReturn"
  ],
  "windowsize": 4
}{
  "traces": [
    "pupy-ThreadId1900",
    "turkojan4.0-ThreadId2324",
    "jspy-ThreadId1348"
  ],
  "sig": [
    "SystemCall @ SystemCall:NtCallbackReturn",
    "SystemCall @ SystemCall:NtUserQueryWindow"
  ],
  "windowsize": 8
}{
  "traces": [
    "virus8.0-ThreadId2692",
    "pupy-ThreadId1900",
    "jspy-ThreadId1348"
  ],
  "sig": [
    "SystemCall @ SystemCall:NtCallbackReturn",
    "SystemCall @ SystemCall:NtUserGetForegroundWindow",
    "SystemCall @ SystemCall:NtUserQueryWindow"
  ],
  "windowsize": 6
}{
  "traces": [
    "pupy-ThreadId1900",
    "xrat2.0-ThreadId1240",
    "jspy-ThreadId1348"
  ],
  "sig": [
    "SystemCall @ SystemCall:NtCallbackReturn",
    "SystemCall @ SystemCall:NtUserGetForegroundWindow",
    "SystemCall @ SystemCall:NtUserQueryWindow"
  ],
  "windowsize": 8
}{
  "traces": [
    "pupy-ThreadId1900",
    "NanoCore1220",
    "jspy-ThreadId1348"
  ],
  "sig": [
    "SystemCall @ SystemCall:NtCallbackReturn"
  ],
  "windowsize": 8
}{
  "traces": [
    "pupy-ThreadId1900",
    "turkojan4.0-ThreadId2324",
    "jspy-ThreadId1348"
  ],
  "sig": [
    "SystemCall @ SystemCall:NtCallbackReturn",
    "SystemCall @ SystemCall:NtUserQueryWindow"
  ],
  "windowsize": 8
}{
  "traces": [
    "pupy-ThreadId1900",
    "turkojan4.0-ThreadId2324",
    "jspy-ThreadId1348"
  ],
  "sig": [
    "SystemCall @ SystemCall:NtCallbackReturn",
    "SystemCall @ SystemCall:NtUserQueryWindow"
  ],
  "windowsize": 8
}{
  "traces": [
    "virus8.0-ThreadId2692",
    "pupy-ThreadId1900",
    "jspy-ThreadId1348"
  ],
  "sig": [
    "SystemCall @ SystemCall:NtUserGetForegroundWindow",
    "SystemCall @ SystemCall:NtUserQueryWindow"
  ],
  "windowsize": 8
}{
  "traces": [
    "pupy-ThreadId1900",
    "xrat2.0-ThreadId1240",
    "jspy-ThreadId1348"
  ],
  "sig": [
    "SystemCall @ SystemCall:NtCallbackReturn",
    "SystemCall @ SystemCall:NtUserGetForegroundWindow",
    "SystemCall @ SystemCall:NtUserQueryWindow"
  ],
  "windowsize": 8
}{
  "traces": [
    "pupy-ThreadId1900",
    "xrat2.0-ThreadId1240",
    "jspy-ThreadId1348"
  ],
  "sig": [
    "SystemCall @ SystemCall:NtUserGetForegroundWindow",
    "SystemCall @ SystemCall:NtUserQueryWindow"
  ],
  "windowsize": 8
}{
  "traces": [
    "virus8.0-ThreadId2692",
    "turkojan4.0-ThreadId2324",
    "jspy-ThreadId1348"
  ],
  "sig": [
    "SystemCall @ SystemCall:NtCallbackReturn",
    "SystemCall @ SystemCall:NtUserQueryWindow"
  ],
  "windowsize": 6
}{
  "traces": [
    "turkojan4.0-ThreadId2324",
    "xrat2.0-ThreadId1240",
    "jspy-ThreadId1348"
  ],
  "sig": [
    "SystemCall @ SystemCall:NtCallbackReturn",
    "SystemCall @ SystemCall:NtUserQueryWindow",
    "SystemCall @ SystemCall:NtCallbackReturn"
  ],
  "windowsize": 11
}{
  "traces": [
    "pupy-ThreadId1900",
    "turkojan4.0-ThreadId2324",
    "jspy-ThreadId1348"
  ],
  "sig": [
    "SystemCall @ SystemCall:NtCallbackReturn",
    "SystemCall @ SystemCall:NtUserQueryWindow",
    "SystemCall @ SystemCall:NtCallbackReturn"
  ],
  "windowsize": 11
}{
  "traces": [
    "pupy-ThreadId1900",
    "turkojan4.0-ThreadId2324",
    "jspy-ThreadId1348"
  ],
  "sig": [
    "SystemCall @ SystemCall:NtUserQueryWindow",
    "SystemCall @ SystemCall:NtCallbackReturn"
  ],
  "windowsize": 11
}{
  "traces": [
    "pupy-ThreadId1900",
    "turkojan4.0-ThreadId2324",
    "jspy-ThreadId1348"
  ],
  "sig": [
    "SystemCall @ SystemCall:NtUserQueryWindow",
    "SystemCall @ SystemCall:NtCallbackReturn"
  ],
  "windowsize": 11
}{
  "traces": [
    "turkojan4.0-ThreadId2324",
    "xrat2.0-ThreadId1240",
    "jspy-ThreadId1348"
  ],
  "sig": [
    "SystemCall @ SystemCall:NtUserQueryWindow",
    "SystemCall @ SystemCall:NtCallbackReturn"
  ],
  "windowsize": 11
}{
  "traces": [
    "virus8.0-ThreadId2692",
    "xrat2.0-ThreadId1240",
    "jspy-ThreadId1348"
  ],
  "sig": [
    "SystemCall @ SystemCall:NtCallbackReturn",
    "SystemCall @ SystemCall:NtUserGetForegroundWindow",
    "SystemCall @ SystemCall:NtUserQueryWindow"
  ],
  "windowsize": 6
}{
  "traces": [
    "virus8.0-ThreadId2692",
    "pupy-ThreadId1900",
    "jspy-ThreadId1348"
  ],
  "sig": [
    "SystemCall @ SystemCall:NtUserGetForegroundWindow",
    "SystemCall @ SystemCall:NtUserQueryWindow"
  ],
  "windowsize": 6
}{
  "traces": [
    "virus8.0-ThreadId2692",
    "xrat2.0-ThreadId1240",
    "jspy-ThreadId1348"
  ],
  "sig": [
    "SystemCall @ SystemCall:NtUserGetForegroundWindow",
    "SystemCall @ SystemCall:NtUserQueryWindow"
  ],
  "windowsize": 6
}{
  "traces": [
    "NanoCore1220",
    "xrat2.0-ThreadId1240",
    "jspy-ThreadId1348"
  ],
  "sig": [
    "SystemCall @ SystemCall:NtCallbackReturn"
  ],
  "windowsize": 13
}{
  "traces": [
    "pupy-ThreadId1900",
    "xrat2.0-ThreadId1240",
    "jspy-ThreadId1348"
  ],
  "sig": [
    "SystemCall @ SystemCall:NtUserGetForegroundWindow",
    "SystemCall @ SystemCall:NtUserQueryWindow",
    "SystemCall @ SystemCall:NtCallbackReturn"
  ],
  "windowsize": 13
}{
  "traces": [
    "pupy-ThreadId1900",
    "xrat2.0-ThreadId1240",
    "jspy-ThreadId1348"
  ],
  "sig": [
    "SystemCall @ SystemCall:NtUserGetForegroundWindow",
    "SystemCall @ SystemCall:NtUserQueryWindow",
    "SystemCall @ SystemCall:NtCallbackReturn"
  ],
  "windowsize": 13
}{
  "traces": [
    "turkojan4.0-ThreadId2324",
    "xrat2.0-ThreadId1240",
    "jspy-ThreadId1348"
  ],
  "sig": [
    "SystemCall @ SystemCall:NtUserQueryWindow",
    "SystemCall @ SystemCall:NtCallbackReturn"
  ],
  "windowsize": 13
}{
  "traces": [
    "virus8.0-ThreadId2692",
    "xrat2.0-ThreadId1240",
    "jspy-ThreadId1348"
  ],
  "sig": [
    "SystemCall @ SystemCall:NtUserGetForegroundWindow",
    "SystemCall @ SystemCall:NtUserQueryWindow"
  ],
  "windowsize": 13
}{
  "traces": [
    "pupy-ThreadId1900",
    "NanoCore1220",
    "turkojan4.0-ThreadId2324"
  ],
  "sig": [
    "SystemCall @ SystemCall:NtCallbackReturn"
  ],
  "windowsize": 21
}{
  "traces": [
    "pupy-ThreadId1900",
    "NanoCore1220",
    "turkojan4.0-ThreadId2324"
  ],
  "sig": [
    "SystemCall @ SystemCall:NtCallbackReturn"
  ],
  "windowsize": 21
}{
  "traces": [
    "pupy-ThreadId1900",
    "NanoCore1220",
    "xrat2.0-ThreadId1240"
  ],
  "sig": [
    "SystemCall @ SystemCall:NtCallbackReturn"
  ],
  "windowsize": 21
}{
  "traces": [
    "pupy-ThreadId1900",
    "NanoCore1220",
    "xrat2.0-ThreadId1240"
  ],
  "sig": [
    "SystemCall @ SystemCall:NtCallbackReturn"
  ],
  "windowsize": 24
}{
  "traces": [
    "virus8.0-ThreadId2692",
    "pupy-ThreadId1900",
    "turkojan4.0-ThreadId2324"
  ],
  "sig": [
    "SystemCall @ SystemCall:NtUserQueryWindow"
  ],
  "windowsize": 19
}{
  "traces": [
    "pupy-ThreadId1900",
    "turkojan4.0-ThreadId2324",
    "xrat2.0-ThreadId1240"
  ],
  "sig": [
    "SystemCall @ SystemCall:NtUserQueryWindow",
    "SystemCall @ SystemCall:NtCallbackReturn",
    "SystemCall @ SystemCall:NtUserQueryWindow"
  ],
  "windowsize": 27
}{
  "traces": [
    "pupy-ThreadId1900",
    "turkojan4.0-ThreadId2324",
    "xrat2.0-ThreadId1240"
  ],
  "sig": [
    "SystemCall @ SystemCall:NtUserQueryWindow",
    "SystemCall @ SystemCall:NtCallbackReturn"
  ],
  "windowsize": 27
}{
  "traces": [
    "pupy-ThreadId1900",
    "turkojan4.0-ThreadId2324",
    "xrat2.0-ThreadId1240"
  ],
  "sig": [
    "SystemCall @ SystemCall:NtUserQueryWindow",
    "SystemCall @ SystemCall:NtCallbackReturn"
  ],
  "windowsize": 24
}{
  "traces": [
    "virus8.0-ThreadId2692",
    "pupy-ThreadId1900",
    "turkojan4.0-ThreadId2324"
  ],
  "sig": [
    "SystemCall @ SystemCall:NtUserQueryWindow"
  ],
  "windowsize": 19
}{
  "traces": [
    "virus8.0-ThreadId2692",
    "pupy-ThreadId1900",
    "turkojan4.0-ThreadId2324"
  ],
  "sig": [
    "SystemCall @ SystemCall:NtUserQueryWindow"
  ],
  "windowsize": 19
}{
  "traces": [
    "pupy-ThreadId1900",
    "turkojan4.0-ThreadId2324",
    "xrat2.0-ThreadId1240"
  ],
  "sig": [
    "SystemCall @ SystemCall:NtUserQueryWindow",
    "SystemCall @ SystemCall:NtCallbackReturn",
    "SystemCall @ SystemCall:NtUserQueryWindow"
  ],
  "windowsize": 27
}{
  "traces": [
    "pupy-ThreadId1900",
    "turkojan4.0-ThreadId2324",
    "xrat2.0-ThreadId1240"
  ],
  "sig": [
    "SystemCall @ SystemCall:NtUserQueryWindow",
    "SystemCall @ SystemCall:NtCallbackReturn"
  ],
  "windowsize": 27
}{
  "traces": [
    "pupy-ThreadId1900",
    "turkojan4.0-ThreadId2324",
    "xrat2.0-ThreadId1240"
  ],
  "sig": [
    "SystemCall @ SystemCall:NtUserQueryWindow",
    "SystemCall @ SystemCall:NtCallbackReturn"
  ],
  "windowsize": 24
}{
  "traces": [
    "pupy-ThreadId1900",
    "turkojan4.0-ThreadId2324",
    "xrat2.0-ThreadId1240"
  ],
  "sig": [
    "SystemCall @ SystemCall:NtUserQueryWindow",
    "SystemCall @ SystemCall:NtCallbackReturn"
  ],
  "windowsize": 24
}