SystemCall @ SystemCall:NtUserToUnicodeEx 0.7 0.0 0.7
SystemCall @ SystemCall:NtUserMapVirtualKeyEx 0.5 0.08695652173913043 0.41304347826086957
SystemCall @ SystemCall:NtCallbackReturn 1.0 0.782608695652174 0.21739130434782605
SystemCall @ SystemCall:NtUserGetKeyboardState 0.7 0.5217391304347826 0.17826086956521736
SystemCall @ SystemCall:NtUserGetKeyState 0.8 0.6521739130434783 0.14782608695652177
SystemCall @ SystemCall:NtFlushInstructionCache 0.4 0.2608695652173913 0.13913043478260873
SystemCall @ SystemCall:NtUserQueryWindow 0.7 0.6956521739130435 0.004347826086956497
SystemCall @ SystemCall:NtUserGetForegroundWindow 0.6 0.6521739130434783 -0.05217391304347829
SystemCall @ SystemCall:NtWriteFile 0.5 0.6521739130434783 -0.15217391304347827
SystemCall @ SystemCall:NtQueryInformationProcess 0.5 0.8260869565217391 -0.32608695652173914
SystemCall @ SystemCall:NtCreateFile 0.4 0.7391304347826086 -0.3391304347826086
SystemCall @ SystemCall:NtAllocateVirtualMemory 0.5 0.8695652173913043 -0.3695652173913043
SystemCall @ SystemCall:NtSetInformationFile 0.3 0.6956521739130435 -0.39565217391304347
SystemCall @ SystemCall:NtFreeVirtualMemory 0.4 0.8260869565217391 -0.4260869565217391
DiskIoDrvMjFnCall @ MajorFunction:5 0.3 0.8695652173913043 -0.5695652173913044
DiskIoDrvMjFnCall @ MajorFunction:0 0.3 0.9565217391304348 -0.6565217391304348
DiskIoDrvMjFnCall @ MajorFunction:18 0.3 0.9565217391304348 -0.6565217391304348
DiskIoDrvMjFnCall @ MajorFunction:2 0.3 0.9565217391304348 -0.6565217391304348
