SystemCall @ SystemCall:NtCreateNamedPipeFile 0.9230769230769231 0.08695652173913043 0.8361204013377928
SystemCall @ SystemCall:NtCreateUserProcess 1.0 0.17391304347826086 0.8260869565217391
SystemCall @ SystemCall:NtWriteVirtualMemory 1.0 0.17391304347826086 0.8260869565217391
FileIoQueryInfo @ FileName: 1.0 0.30434782608695654 0.6956521739130435
RegistryQueryValue @ KeyName:AuthenticodeEnabled 0.7692307692307693 0.13043478260869565 0.6387959866220736
RegistryOpen @ KeyName:AppCertDlls 0.7692307692307693 0.13043478260869565 0.6387959866220736
RegistryQueryValue @ KeyName:DisableLocalOverride 0.7692307692307693 0.13043478260869565 0.6387959866220736
FileIoCreate @ FileName:SwDRM.dll 0.6153846153846154 0.0 0.6153846153846154
SystemCall @ SystemCall:NtQueryDebugFilterState 0.6153846153846154 0.043478260869565216 0.5719063545150502
SystemCall @ SystemCall:NtApphelpCacheControl 1.0 0.4782608695652174 0.5217391304347826
RegistryOpen @ KeyName:CodeIdentifiers 0.7692307692307693 0.2608695652173913 0.508361204013378
RegistryQueryValue @ KeyName:TransparentEnabled 0.7692307692307693 0.2608695652173913 0.508361204013378
SystemCall @ SystemCall:NtOpenKey 1.0 0.5652173913043478 0.4347826086956522
RegistryOpen @ KeyName:Layers 1.0 0.5652173913043478 0.4347826086956522
FileIoQueryInfo @ FileName:apphelp.dll 0.7692307692307693 0.34782608695652173 0.42140468227424754
SystemCall @ SystemCall:NtResumeThread 1.0 0.6086956521739131 0.3913043478260869
FileIoQueryInfo @ FileName:@ExecutableFile 1.0 0.6086956521739131 0.3913043478260869
RegistryOpen @ KeyName:SideBySide 1.0 0.6521739130434783 0.34782608695652173
ImageLoad @ FileName:apphelp.dll 0.7692307692307693 0.43478260869565216 0.3344481605351171
RegistryOpen @ KeyName:AppCompatibility 0.7692307692307693 0.43478260869565216 0.3344481605351171
FileIoCreate @ FileName:apphelp.dll 0.7692307692307693 0.43478260869565216 0.3344481605351171
RegistryOpen @ KeyName:Option 0.7692307692307693 0.43478260869565216 0.3344481605351171
FileIoCreate @ FileName:@ExecutableFile 1.0 0.6956521739130435 0.30434782608695654
SystemCall @ SystemCall:NtProtectVirtualMemory 1.0 0.6956521739130435 0.30434782608695654
RegistryOpen @ KeyName:AppCompat 0.7692307692307693 0.4782608695652174 0.29096989966555187
FileIoCreate @ FileName:Windows 0.9230769230769231 0.6521739130434783 0.27090301003344486
FileIoCreate @ FileName:SysWOW64 0.6153846153846154 0.34782608695652173 0.2675585284280937
ImageLoad @ FileName:@ExecutableFile 0.6153846153846154 0.34782608695652173 0.2675585284280937
RegistryOpen @ KeyName:Shell Folders 0.6153846153846154 0.34782608695652173 0.2675585284280937
RegistryOpen @ KeyName:@ExecutableFile 1.0 0.7391304347826086 0.26086956521739135
SystemCall @ SystemCall:NtOpenFile 1.0 0.7391304347826086 0.26086956521739135
SystemCall @ SystemCall:NtReadFile 1.0 0.7391304347826086 0.26086956521739135
SystemCall @ SystemCall:NtQueryObject 1.0 0.7391304347826086 0.26086956521739135
SystemCall @ SystemCall:NtCreateSection 1.0 0.7391304347826086 0.26086956521739135
RegistryKCBCreate @ KeyName:Shell Folders 0.23076923076923078 0.0 0.23076923076923078
RegistryKCBCreate @ KeyName:AppCompatFlags 0.23076923076923078 0.0 0.23076923076923078
FileIoRead @ FileName:@ExecutableFile 0.6153846153846154 0.391304347826087 0.22408026755852845
RegistryQueryValue @ KeyName:Cache 0.6153846153846154 0.391304347826087 0.22408026755852845
FileIoCreate @ FileName:HarddiskVolume1 1.0 0.782608695652174 0.21739130434782605
SystemCall @ SystemCall:NtQueryAttributesFile 1.0 0.782608695652174 0.21739130434782605
SystemCall @ SystemCall:NtQueryValueKey 1.0 0.782608695652174 0.21739130434782605
FileIoCreate @ FileName:system32 0.3076923076923077 0.13043478260869565 0.17725752508361206
SystemCall @ SystemCall:NtSetInformationObject 0.3076923076923077 0.13043478260869565 0.17725752508361206
ALPC_REC @ ProcessName:@ExecutableFile 1.0 0.8260869565217391 0.17391304347826086
SystemCall @ SystemCall:NtContinue 0.38461538461538464 0.21739130434782608 0.16722408026755856
SystemCall @ SystemCall:NtSetInformationFile 0.8461538461538461 0.6956521739130435 0.1505016722408027
SystemCall @ SystemCall:NtAllocateVirtualMemory 1.0 0.8695652173913043 0.13043478260869568
SystemCall @ SystemCall:NtFlushInstructionCache 0.38461538461538464 0.2608695652173913 0.12374581939799334
FileIoQueryInfo @ FileName:@DataFile 0.7692307692307693 0.6521739130434783 0.117056856187291
RegistryKCBCreate @ KeyName:Custom 0.23076923076923078 0.13043478260869565 0.10033444816053513
SystemCall @ SystemCall:NtQueryInformationProcess 0.9230769230769231 0.8260869565217391 0.09698996655518399
SystemCall @ SystemCall:NtQuerySystemInformation 0.7692307692307693 0.6956521739130435 0.07357859531772581
SystemCall @ SystemCall:NtOpenProcessToken 0.7692307692307693 0.6956521739130435 0.07357859531772581
SystemCall @ SystemCall:NtMapViewOfSection 0.8461538461538461 0.782608695652174 0.0635451505016722
FileIoQueryInfo @ FileName:PROPSYS.dll 0.23076923076923078 0.17391304347826086 0.05685618729096992
SystemCall @ SystemCall:NtQueryLicenseValue 0.6153846153846154 0.5652173913043478 0.050167224080267636
SystemCall @ SystemCall:NtCreateFile 0.7692307692307693 0.7391304347826086 0.030100334448160626
SystemCall @ SystemCall:NtQuerySection 0.7692307692307693 0.7391304347826086 0.030100334448160626
SystemCall @ SystemCall:NtSetInformationKey 0.7692307692307693 0.7391304347826086 0.030100334448160626
FileIoCreate @ FileName:PROPSYS.dll 0.23076923076923078 0.21739130434782608 0.013377926421404701
SystemCall @ SystemCall:NtSetInformationThread 0.6923076923076923 0.6956521739130435 -0.0033444816053511683
SystemCall @ SystemCall:NtOpenKeyEx 0.7692307692307693 0.782608695652174 -0.013377926421404673
SystemCall @ SystemCall:NtQueryDirectoryFile 0.7692307692307693 0.782608695652174 -0.013377926421404673
ImageLoad @ FileName:propsys.dll 0.23076923076923078 0.2608695652173913 -0.030100334448160515
RegistryQueryValue @ KeyName:PreferExternalManifest 0.38461538461538464 0.43478260869565216 -0.050167224080267525
SystemCall @ SystemCall:NtFreeVirtualMemory 0.7692307692307693 0.8260869565217391 -0.05685618729096986
FileIoCreate @ FileName:@DataFile 0.7692307692307693 0.8260869565217391 -0.05685618729096986
RegistryOpen @ KeyName:AppCompatFlags 0.23076923076923078 0.30434782608695654 -0.07357859531772576
SystemCall @ SystemCall:NtUnmapViewOfSection 0.6923076923076923 0.782608695652174 -0.09030100334448166
RegistrySetInformation @ KeyName: 0.7692307692307693 0.8695652173913043 -0.10033444816053505
SystemCall @ SystemCall:NtCreateThreadEx 0.46153846153846156 0.5652173913043478 -0.10367892976588622
SystemCall @ SystemCall:NtAlpcConnectPort 0.3076923076923077 0.43478260869565216 -0.12709030100334445
SystemCall @ SystemCall:NtFsControlFile 0.46153846153846156 0.6086956521739131 -0.14715719063545152
SystemCall @ SystemCall:NtQueryVirtualMemory 0.6153846153846154 0.782608695652174 -0.16722408026755853
SystemCall @ SystemCall:NtOpenProcess 0.46153846153846156 0.6521739130434783 -0.1906354515050167
SystemCall @ SystemCall:NtTraceControl 0.3076923076923077 0.5652173913043478 -0.2575250836120401
RegistryOpen @ KeyName:CurrentVersion 0.3076923076923077 0.5652173913043478 -0.2575250836120401
SystemCall @ SystemCall:NtWriteFile 0.38461538461538464 0.6521739130434783 -0.26755852842809363
RegistryQueryValue @ KeyName:XXX 0.23076923076923078 0.5217391304347826 -0.2909698996655518
SystemCall @ SystemCall:NtUserRegisterWindowMessage 0.3076923076923077 0.6086956521739131 -0.3010033444816054
SystemCall @ SystemCall:NtOpenSection 0.38461538461538464 0.6956521739130435 -0.3110367892976588
SystemCall @ SystemCall:NtQueryKey 0.46153846153846156 0.782608695652174 -0.3210702341137124
RegistryOpen @ KeyName:XXX 0.38461538461538464 0.8260869565217391 -0.4414715719063545
RegistryQuery @ KeyName: 0.46153846153846156 0.9130434782608695 -0.45150501672240795
ALPC_SEN @ ProcessName:@ExecutableFile 0.38461538461538464 0.8695652173913043 -0.4849498327759197
