[
  {
    "traces": [
      "Albertino22",
      "jrat-ThreadId3008"
    ],
    "sig": [
      "SystemCall @ SystemCall:NtGdiCreateCompatibleDC",
      "SystemCall @ SystemCall:NtGdiSelectBitmap",
      "SystemCall @ SystemCall:NtGdiBitBlt",
      "SystemCall @ SystemCall:NtAllocateVirtualMemory",
      "SystemCall @ SystemCall:NtFreeVirtualMemory"
    ],
    "windowsize": 14,
    "coverage": 0.6,
    "falsePositiveShare": 0.27586206896551724
  },
  {
    "traces": [
      "DarkComet40",
      "jrat-ThreadId3008"
    ],
    "sig": [
      "SystemCall @ SystemCall:NtGdiOpenDCW",
      "SystemCall @ SystemCall:NtGdiCreateCompatibleDC",
      "SystemCall @ SystemCall:NtGdiCreateCompatibleBitmap",
      "SystemCall @ SystemCall:NtGdiSelectBitmap",
      "SystemCall @ SystemCall:NtGdiDeleteObjectApp"
    ],
    "windowsize": 19,
    "coverage": 0.24,
    "falsePositiveShare": 0.0
  },
  {
    "traces": [
      "jrat-ThreadId3008",
      "xena2.0-ThreadId1328"
    ],
    "sig": [
      "FileIoRead @ FileName:",
      "DiskIoDrvMjFnCall @ MajorFunction:3",
      "SystemCall @ SystemCall:NtGdiCreateCompatibleDC",
      "SystemCall @ SystemCall:NtGdiSelectBitmap",
      "SystemCall @ SystemCall:NtGdiDeleteObjectApp"
    ],
    "windowsize": 19,
    "coverage": 0.12,
    "falsePositiveShare": 0.27586206896551724
  },
  {
    "traces": [
      "Albertino22",
      "DarkComet40"
    ],
    "sig": [
      "SystemCall @ SystemCall:NtCallbackReturn",
      "SystemCall @ SystemCall:NtGdiGetDeviceCaps",
      "SystemCall @ SystemCall:NtUserGetDC",
      "SystemCall @ SystemCall:NtGdiCreateCompatibleDC",
      "SystemCall @ SystemCall:NtAllocateVirtualMemory",
      "SystemCall @ SystemCall:NtGdiSelectBitmap"
    ],
    "windowsize": 16,
    "coverage": 0.2,
    "falsePositiveShare": 0.034482758620689655
  },
  {
    "traces": [
      "Albertino22",
      "NamoCore1220"
    ],
    "sig": [
      "SystemCall @ SystemCall:NtQuerySystemInformation",
      "SystemCall @ SystemCall:NtQueryInformationProcess",
      "SystemCall @ SystemCall:NtAllocateVirtualMemory",
      "SystemCall @ SystemCall:NtQuerySystemInformation",
      "SystemCall @ SystemCall:NtQueryInformationProcess",
      "SystemCall @ SystemCall:NtFlushInstructionCache"
    ],
    "windowsize": 11,
    "coverage": 0.4,
    "falsePositiveShare": 0.1724137931034483
  },
  {
    "traces": [
      "Albertino22",
      "novalite3.0-ThreadId2768"
    ],
    "sig": [
      "SystemCall @ SystemCall:NtUserGetDC",
      "SystemCall @ SystemCall:NtGdiGetDeviceCaps",
      "SystemCall @ SystemCall:NtAllocateVirtualMemory",
      "SystemCall @ SystemCall:NtUserGetDC",
      "SystemCall @ SystemCall:NtAllocateVirtualMemory",
      "SystemCall @ SystemCall:NtFreeVirtualMemory"
    ],
    "windowsize": 27,
    "coverage": 0.6,
    "falsePositiveShare": 0.3103448275862069
  },
  {
    "traces": [
      "ctOs1300",
      "xena2.0-ThreadId1328"
    ],
    "sig": [
      "SystemCall @ SystemCall:NtCallbackReturn",
      "SystemCall @ SystemCall:NtUserGetDC",
      "SystemCall @ SystemCall:NtGdiCreateCompatibleDC",
      "SystemCall @ SystemCall:NtGdiSelectBitmap",
      "SystemCall @ SystemCall:NtGdiDeleteObjectApp",
      "SystemCall @ SystemCall:NtGdiCreateCompatibleDC"
    ],
    "windowsize": 20,
    "coverage": 0.12,
    "falsePositiveShare": 0.1724137931034483
  },
  {
    "traces": [
      "pupy-ThreadId1368",
      "xena2.0-ThreadId1328"
    ],
    "sig": [
      "SystemCall @ SystemCall:NtGdiCreateCompatibleDC",
      "SystemCall @ SystemCall:NtGdiGetDIBitsInternal",
      "SystemCall @ SystemCall:NtGdiDeleteObjectApp",
      "SystemCall @ SystemCall:NtAllocateVirtualMemory",
      "SystemCall @ SystemCall:NtFreeVirtualMemory",
      "SystemCall @ SystemCall:NtAllocateVirtualMemory"
    ],
    "windowsize": 20,
    "coverage": 0.24,
    "falsePositiveShare": 0.1724137931034483
  },
  {
    "traces": [
      "DarkComet40",
      "ctOs1300"
    ],
    "sig": [
      "SystemCall @ SystemCall:NtCallbackReturn",
      "SystemCall @ SystemCall:NtUserGetDC",
      "SystemCall @ SystemCall:NtGdiCreateCompatibleDC",
      "SystemCall @ SystemCall:NtGdiCreateCompatibleBitmap",
      "SystemCall @ SystemCall:NtGdiSelectBitmap",
      "SystemCall @ SystemCall:NtGdiDeleteObjectApp",
      "SystemCall @ SystemCall:NtUserGetDC"
    ],
    "windowsize": 26,
    "coverage": 0.08,
    "falsePositiveShare": 0.10344827586206896
  },
  {
    "traces": [
      "pupy-ThreadId1368",
      "ctOs1300"
    ],
    "sig": [
      "SystemCall @ SystemCall:NtAllocateVirtualMemory",
      "SystemCall @ SystemCall:NtGdiCreateCompatibleDC",
      "SystemCall @ SystemCall:NtGdiCreateCompatibleBitmap",
      "SystemCall @ SystemCall:NtGdiSelectBitmap",
      "SystemCall @ SystemCall:NtGdiBitBlt",
      "SystemCall @ SystemCall:NtGdiDeleteObjectApp",
      "SystemCall @ SystemCall:NtAllocateVirtualMemory"
    ],
    "windowsize": 18,
    "coverage": 0.12,
    "falsePositiveShare": 0.06896551724137931
  },
  {
    "traces": [
      "pupy-ThreadId1368",
      "ctOs1300"
    ],
    "sig": [
      "SystemCall @ SystemCall:NtCallbackReturn",
      "SystemCall @ SystemCall:NtGdiCreateCompatibleDC",
      "SystemCall @ SystemCall:NtGdiCreateCompatibleBitmap",
      "SystemCall @ SystemCall:NtGdiSelectBitmap",
      "SystemCall @ SystemCall:NtGdiBitBlt",
      "SystemCall @ SystemCall:NtGdiDeleteObjectApp",
      "SystemCall @ SystemCall:NtAllocateVirtualMemory"
    ],
    "windowsize": 18,
    "coverage": 0.08,
    "falsePositiveShare": 0.06896551724137931
  },
  {
    "traces": [
      "DarkComet40",
      "novalite3.0-ThreadId2768"
    ],
    "sig": [
      "SystemCall @ SystemCall:NtGdiGetDeviceCaps",
      "SystemCall @ SystemCall:NtGdiCreateCompatibleDC",
      "SystemCall @ SystemCall:NtGdiCreateCompatibleBitmap",
      "SystemCall @ SystemCall:NtGdiSelectBitmap",
      "SystemCall @ SystemCall:NtGdiDeleteObjectApp",
      "SystemCall @ SystemCall:NtGdiExtGetObjectW",
      "SystemCall @ SystemCall:NtUserGetDC"
    ],
    "windowsize": 23,
    "coverage": 0.08,
    "falsePositiveShare": 0.06896551724137931
  },
  {
    "traces": [
      "DarkComet40",
      "novalite3.0-ThreadId2768"
    ],
    "sig": [
      "SystemCall @ SystemCall:NtUserGetDC",
      "SystemCall @ SystemCall:NtGdiCreateCompatibleDC",
      "SystemCall @ SystemCall:NtGdiCreateCompatibleBitmap",
      "SystemCall @ SystemCall:NtGdiSelectBitmap",
      "SystemCall @ SystemCall:NtGdiDeleteObjectApp",
      "SystemCall @ SystemCall:NtGdiExtGetObjectW",
      "SystemCall @ SystemCall:NtUserGetDC"
    ],
    "windowsize": 17,
    "coverage": 0.08,
    "falsePositiveShare": 0.10344827586206896
  },
  {
    "traces": [
      "imminentMonitor39",
      "nuclear2.1.0-ThreadId1960"
    ],
    "sig": [
      "SystemCall @ SystemCall:NtGdiCreateCompatibleDC",
      "SystemCall @ SystemCall:NtGdiCreateDIBSection",
      "SystemCall @ SystemCall:NtAllocateVirtualMemory",
      "SystemCall @ SystemCall:NtGdiSelectBitmap",
      "SystemCall @ SystemCall:NtAllocateVirtualMemory",
      "FileIoRead @ FileName:",
      "DiskIoDrvMjFnCall @ MajorFunction:3"
    ],
    "windowsize": 19,
    "coverage": 0.16,
    "falsePositiveShare": 0.20689655172413793
  },
  {
    "traces": [
      "jrat-ThreadId3008",
      "Proto1106"
    ],
    "sig": [
      "SystemCall @ SystemCall:NtCreateThreadEx",
      "SystemCall @ SystemCall:NtAllocateVirtualMemory",
      "SystemCall @ SystemCall:NtProtectVirtualMemory",
      "ALPC_REC @ ProcessName:@ExecutableFile",
      "SystemCall @ SystemCall:NtResumeThread",
      "SystemCall @ SystemCall:NtQueryVirtualMemory",
      "SystemCall @ SystemCall:NtAllocateVirtualMemory"
    ],
    "windowsize": 17,
    "coverage": 0.12,
    "falsePositiveShare": 0.1724137931034483
  },
  {
    "traces": [
      "pupy-ThreadId1368",
      "jrat-ThreadId3008"
    ],
    "sig": [
      "SystemCall @ SystemCall:NtCreateFile",
      "SystemCall @ SystemCall:NtReadFile",
      "SystemCall @ SystemCall:NtCreateThreadEx",
      "SystemCall @ SystemCall:NtAllocateVirtualMemory",
      "SystemCall @ SystemCall:NtProtectVirtualMemory",
      "ALPC_REC @ ProcessName:@ExecutableFile",
      "SystemCall @ SystemCall:NtResumeThread"
    ],
    "windowsize": 26,
    "coverage": 0.08,
    "falsePositiveShare": 0.06896551724137931
  },
  {
    "traces": [
      "Albertino22",
      "xena2.0-ThreadId1328"
    ],
    "sig": [
      "SystemCall @ SystemCall:NtUserGetDC",
      "SystemCall @ SystemCall:NtGdiCreateCompatibleDC",
      "SystemCall @ SystemCall:NtGdiCreateDIBSection",
      "SystemCall @ SystemCall:NtAllocateVirtualMemory",
      "SystemCall @ SystemCall:NtGdiExtGetObjectW",
      "SystemCall @ SystemCall:NtGdiFlush",
      "SystemCall @ SystemCall:NtAllocateVirtualMemory",
      "SystemCall @ SystemCall:NtFreeVirtualMemory"
    ],
    "windowsize": 24,
    "coverage": 0.36,
    "falsePositiveShare": 0.034482758620689655
  },
  {
    "traces": [
      "nuclear2.1.0-ThreadId1960",
      "ctOs1300"
    ],
    "sig": [
      "SystemCall @ SystemCall:NtCallbackReturn",
      "SystemCall @ SystemCall:NtGdiCreateCompatibleDC",
      "SystemCall @ SystemCall:NtGdiCreateCompatibleBitmap",
      "SystemCall @ SystemCall:NtGdiSelectBitmap",
      "SystemCall @ SystemCall:NtGdiDeleteObjectApp",
      "SystemCall @ SystemCall:NtGdiCreateCompatibleDC",
      "SystemCall @ SystemCall:NtAllocateVirtualMemory",
      "SystemCall @ SystemCall:NtGdiDeleteObjectApp"
    ],
    "windowsize": 29,
    "coverage": 0.08,
    "falsePositiveShare": 0.10344827586206896
  },
  {
    "traces": [
      "Paradox",
      "DarkComet40"
    ],
    "sig": [
      "SystemCall @ SystemCall:NtCallbackReturn",
      "SystemCall @ SystemCall:NtUserGetDC",
      "SystemCall @ SystemCall:NtAllocateVirtualMemory",
      "SystemCall @ SystemCall:NtUserGetDC",
      "SystemCall @ SystemCall:NtGdiCreateCompatibleDC",
      "SystemCall @ SystemCall:NtGdiCreateDIBSection",
      "SystemCall @ SystemCall:NtAllocateVirtualMemory",
      "SystemCall @ SystemCall:NtGdiSelectBitmap"
    ],
    "windowsize": 39,
    "coverage": 0.44,
    "falsePositiveShare": 0.3448275862068966
  },
  {
    "traces": [
      "Albertino22",
      "pupy-ThreadId1368"
    ],
    "sig": [
      "SystemCall @ SystemCall:NtAllocateVirtualMemory",
      "SystemCall @ SystemCall:NtCallbackReturn",
      "SystemCall @ SystemCall:NtUserGetDC",
      "SystemCall @ SystemCall:NtGdiGetDeviceCaps",
      "SystemCall @ SystemCall:NtAllocateVirtualMemory",
      "SystemCall @ SystemCall:NtGdiSelectBitmap",
      "SystemCall @ SystemCall:NtGdiBitBlt",
      "SystemCall @ SystemCall:NtAllocateVirtualMemory",
      "SystemCall @ SystemCall:NtFreeVirtualMemory"
    ],
    "windowsize": 35,
    "coverage": 0.24,
    "falsePositiveShare": 0.10344827586206896
  },
  {
    "traces": [
      "ctOs1300",
      "NamoCore1220"
    ],
    "sig": [
      "SystemCall @ SystemCall:NtQueryInformationProcess",
      "SystemCall @ SystemCall:NtAllocateVirtualMemory",
      "SystemCall @ SystemCall:NtGdiSelectBitmap",
      "SystemCall @ SystemCall:NtGdiCreateCompatibleDC",
      "SystemCall @ SystemCall:NtGdiGetDIBitsInternal",
      "SystemCall @ SystemCall:NtAllocateVirtualMemory",
      "SystemCall @ SystemCall:NtUserGetDC",
      "SystemCall @ SystemCall:NtGdiGetDeviceCaps",
      "SystemCall @ SystemCall:NtGdiDeleteObjectApp"
    ],
    "windowsize": 30,
    "coverage": 0.2,
    "falsePositiveShare": 0.0
  },
  {
    "traces": [
      "novalite3.0-ThreadId2768",
      "Proto1106"
    ],
    "sig": [
      "SystemCall @ SystemCall:NtUserGetDC",
      "SystemCall @ SystemCall:NtGdiGetDeviceCaps",
      "SystemCall @ SystemCall:NtGdiCreateCompatibleDC",
      "SystemCall @ SystemCall:NtGdiSelectBitmap",
      "SystemCall @ SystemCall:NtAllocateVirtualMemory",
      "SystemCall @ SystemCall:NtFreeVirtualMemory",
      "SystemCall @ SystemCall:NtGdiDeleteObjectApp",
      "SystemCall @ SystemCall:NtFreeVirtualMemory",
      "SystemCall @ SystemCall:NtAllocateVirtualMemory"
    ],
    "windowsize": 35,
    "coverage": 0.36,
    "falsePositiveShare": 0.10344827586206896
  },
  {
    "traces": [
      "novalite3.0-ThreadId2768",
      "NamoCore1220"
    ],
    "sig": [
      "SystemCall @ SystemCall:NtUserGetDC",
      "SystemCall @ SystemCall:NtGdiGetDeviceCaps",
      "SystemCall @ SystemCall:NtGdiSelectBitmap",
      "SystemCall @ SystemCall:NtGdiStretchBlt",
      "SystemCall @ SystemCall:NtGdiSelectBitmap",
      "SystemCall @ SystemCall:NtAllocateVirtualMemory",
      "SystemCall @ SystemCall:NtGdiGetDIBitsInternal",
      "SystemCall @ SystemCall:NtGdiDeleteObjectApp",
      "SystemCall @ SystemCall:NtAllocateVirtualMemory",
      "SystemCall @ SystemCall:NtFreeVirtualMemory"
    ],
    "windowsize": 34,
    "coverage": 0.12,
    "falsePositiveShare": 0.034482758620689655
  },
  {
    "traces": [
      "nuclear2.1.0-ThreadId1960",
      "NamoCore1220"
    ],
    "sig": [
      "SystemCall @ SystemCall:NtGdiCreateCompatibleDC",
      "SystemCall @ SystemCall:NtGdiGetDeviceCaps",
      "SystemCall @ SystemCall:NtGdiSelectBitmap",
      "SystemCall @ SystemCall:NtGdiStretchBlt",
      "SystemCall @ SystemCall:NtGdiCreateDIBSection",
      "SystemCall @ SystemCall:NtAllocateVirtualMemory",
      "SystemCall @ SystemCall:NtGdiSelectBitmap",
      "SystemCall @ SystemCall:NtGdiCreateCompatibleDC",
      "SystemCall @ SystemCall:NtGdiGetDIBitsInternal",
      "SystemCall @ SystemCall:NtGdiDeleteObjectApp",
      "SystemCall @ SystemCall:NtAllocateVirtualMemory"
    ],
    "windowsize": 39,
    "coverage": 0.08,
    "falsePositiveShare": 0.0
  },
  {
    "traces": [
      "novalite3.0-ThreadId2768",
      "xena2.0-ThreadId1328"
    ],
    "sig": [
      "SystemCall @ SystemCall:NtUserGetDC",
      "SystemCall @ SystemCall:NtGdiGetDeviceCaps",
      "SystemCall @ SystemCall:NtGdiCreateCompatibleDC",
      "SystemCall @ SystemCall:NtGdiSelectBitmap",
      "SystemCall @ SystemCall:NtGdiStretchBlt",
      "SystemCall @ SystemCall:NtGdiSelectBitmap",
      "SystemCall @ SystemCall:NtGdiDeleteObjectApp",
      "SystemCall @ SystemCall:NtGdiExtGetObjectW",
      "SystemCall @ SystemCall:NtUserGetDC",
      "SystemCall @ SystemCall:NtGdiGetDIBitsInternal",
      "SystemCall @ SystemCall:NtFreeVirtualMemory",
      "SystemCall @ SystemCall:NtAllocateVirtualMemory"
    ],
    "windowsize": 49,
    "coverage": 0.08,
    "falsePositiveShare": 0.034482758620689655
  },
  {
    "traces": [
      "novalite3.0-ThreadId2768",
      "xena2.0-ThreadId1328"
    ],
    "sig": [
      "SystemCall @ SystemCall:NtUserGetDC",
      "SystemCall @ SystemCall:NtGdiGetDeviceCaps",
      "SystemCall @ SystemCall:NtGdiCreateCompatibleDC",
      "SystemCall @ SystemCall:NtGdiSelectBitmap",
      "SystemCall @ SystemCall:NtGdiStretchBlt",
      "SystemCall @ SystemCall:NtGdiSelectBitmap",
      "SystemCall @ SystemCall:NtGdiDeleteObjectApp",
      "SystemCall @ SystemCall:NtGdiExtGetObjectW",
      "SystemCall @ SystemCall:NtUserGetDC",
      "SystemCall @ SystemCall:NtAllocateVirtualMemory",
      "SystemCall @ SystemCall:NtFreeVirtualMemory",
      "SystemCall @ SystemCall:NtAllocateVirtualMemory"
    ],
    "windowsize": 49,
    "coverage": 0.08,
    "falsePositiveShare": 0.034482758620689655
  },
  {
    "traces": [
      "Paradox",
      "xena2.0-ThreadId1328"
    ],
    "sig": [
      "SystemCall @ SystemCall:NtCallbackReturn",
      "SystemCall @ SystemCall:NtUserGetDC",
      "SystemCall @ SystemCall:NtGdiGetDeviceCaps",
      "SystemCall @ SystemCall:NtAllocateVirtualMemory",
      "FileIoRead @ FileName:",
      "DiskIoDrvMjFnCall @ MajorFunction:3",
      "SystemCall @ SystemCall:NtGdiCreateCompatibleDC",
      "SystemCall @ SystemCall:NtGdiCreateDIBSection",
      "SystemCall @ SystemCall:NtAllocateVirtualMemory",
      "SystemCall @ SystemCall:NtGdiExtGetObjectW",
      "SystemCall @ SystemCall:NtGdiFlush",
      "SystemCall @ SystemCall:NtAllocateVirtualMemory"
    ],
    "windowsize": 53,
    "coverage": 0.16,
    "falsePositiveShare": 0.0
  },
  {
    "traces": [
      "pupy-ThreadId1368",
      "xena2.0-ThreadId1328"
    ],
    "sig": [
      "SystemCall @ SystemCall:NtAllocateVirtualMemory",
      "SystemCall @ SystemCall:NtFreeVirtualMemory",
      "SystemCall @ SystemCall:NtAllocateVirtualMemory",
      "SystemCall @ SystemCall:NtUserGetDC",
      "SystemCall @ SystemCall:NtGdiGetDeviceCaps",
      "SystemCall @ SystemCall:NtAllocateVirtualMemory",
      "SystemCall @ SystemCall:NtGdiCreateCompatibleDC",
      "SystemCall @ SystemCall:NtGdiSelectBitmap",
      "SystemCall @ SystemCall:NtGdiGetDIBitsInternal",
      "SystemCall @ SystemCall:NtGdiDeleteObjectApp",
      "SystemCall @ SystemCall:NtFreeVirtualMemory",
      "SystemCall @ SystemCall:NtAllocateVirtualMemory"
    ],
    "windowsize": 62,
    "coverage": 0.2,
    "falsePositiveShare": 0.10344827586206896
  },
  {
    "traces": [
      "DarkComet40",
      "nuclear2.1.0-ThreadId1960"
    ],
    "sig": [
      "SystemCall @ SystemCall:NtSetInformationThread",
      "SystemCall @ SystemCall:NtCreateFile",
      "SystemCall @ SystemCall:NtCallbackReturn",
      "SystemCall @ SystemCall:NtGdiCreateCompatibleDC",
      "SystemCall @ SystemCall:NtGdiCreateCompatibleBitmap",
      "SystemCall @ SystemCall:NtGdiSelectBitmap",
      "SystemCall @ SystemCall:NtGdiDeleteObjectApp",
      "SystemCall @ SystemCall:NtGdiExtGetObjectW",
      "SystemCall @ SystemCall:NtGdiCreateCompatibleDC",
      "SystemCall @ SystemCall:NtGdiCreateDIBSection",
      "SystemCall @ SystemCall:NtAllocateVirtualMemory",
      "SystemCall @ SystemCall:NtGdiSelectBitmap",
      "SystemCall @ SystemCall:NtGdiCreateCompatibleDC"
    ],
    "windowsize": 47,
    "coverage": 0.08,
    "falsePositiveShare": 0.0
  },
  {
    "traces": [
      "imminentMonitor39",
      "novalite3.0-ThreadId2768"
    ],
    "sig": [
      "SystemCall @ SystemCall:NtUserGetDC",
      "SystemCall @ SystemCall:NtGdiCreateCompatibleDC",
      "SystemCall @ SystemCall:NtGdiSelectBitmap",
      "SystemCall @ SystemCall:NtAllocateVirtualMemory",
      "FileIoRead @ FileName:",
      "DiskIoDrvMjFnCall @ MajorFunction:3",
      "SystemCall @ SystemCall:NtAllocateVirtualMemory",
      "SystemCall @ SystemCall:NtFreeVirtualMemory",
      "DiskIoDrvMjFnCall @ MajorFunction:3",
      "SystemCall @ SystemCall:NtAllocateVirtualMemory",
      "DiskIoDrvMjFnCall @ MajorFunction:0",
      "DiskIoDrvMjFnCall @ MajorFunction:18",
      "DiskIoDrvMjFnCall @ MajorFunction:2"
    ],
    "windowsize": 52,
    "coverage": 0.12,
    "falsePositiveShare": 0.034482758620689655
  },
  {
    "traces": [
      "nuclear2.1.0-ThreadId1960",
      "xena2.0-ThreadId1328"
    ],
    "sig": [
      "SystemCall @ SystemCall:NtSetInformationThread",
      "SystemCall @ SystemCall:NtCreateFile",
      "SystemCall @ SystemCall:NtCallbackReturn",
      "SystemCall @ SystemCall:NtGdiCreateCompatibleDC",
      "SystemCall @ SystemCall:NtGdiSelectBitmap",
      "SystemCall @ SystemCall:NtGdiStretchBlt",
      "SystemCall @ SystemCall:NtGdiDeleteObjectApp",
      "SystemCall @ SystemCall:NtGdiExtGetObjectW",
      "SystemCall @ SystemCall:NtGdiCreateCompatibleDC",
      "SystemCall @ SystemCall:NtGdiCreateDIBSection",
      "SystemCall @ SystemCall:NtAllocateVirtualMemory",
      "SystemCall @ SystemCall:NtGdiGetDIBitsInternal",
      "SystemCall @ SystemCall:NtGdiDeleteObjectApp"
    ],
    "windowsize": 42,
    "coverage": 0.08,
    "falsePositiveShare": 0.0
  },
  {
    "traces": [
      "jrat-ThreadId3008",
      "nuclear2.1.0-ThreadId1960"
    ],
    "sig": [
      "SystemCall @ SystemCall:NtGdiCreateCompatibleDC",
      "SystemCall @ SystemCall:NtGdiSelectBitmap",
      "SystemCall @ SystemCall:NtGdiGetDIBitsInternal",
      "SystemCall @ SystemCall:NtGdiDeleteObjectApp",
      "FileIoRead @ FileName:",
      "DiskIoDrvMjFnCall @ MajorFunction:3",
      "DiskIoDrvMjFnCall @ MajorFunction:0",
      "DiskIoDrvMjFnCall @ MajorFunction:18",
      "DiskIoDrvMjFnCall @ MajorFunction:2",
      "SystemCall @ SystemCall:NtSetInformationFile",
      "DiskIoDrvMjFnCall @ MajorFunction:0",
      "DiskIoDrvMjFnCall @ MajorFunction:18",
      "DiskIoDrvMjFnCall @ MajorFunction:2",
      "SystemCall @ SystemCall:NtReadFile"
    ],
    "windowsize": 72,
    "coverage": 0.08,
    "falsePositiveShare": 0.0
  },
  {
    "traces": [
      "pupy-ThreadId1368",
      "xrat2.0-ThreadId1040"
    ],
    "sig": [
      "SystemCall @ SystemCall:NtAllocateVirtualMemory",
      "SystemCall @ SystemCall:NtFreeVirtualMemory",
      "SystemCall @ SystemCall:NtAllocateVirtualMemory",
      "ALPC_REC @ ProcessName:@ExecutableFile",
      "SystemCall @ SystemCall:NtAllocateVirtualMemory",
      "SystemCall @ SystemCall:NtCallbackReturn",
      "SystemCall @ SystemCall:NtUserGetDC",
      "SystemCall @ SystemCall:NtGdiGetDeviceCaps",
      "SystemCall @ SystemCall:NtAllocateVirtualMemory",
      "SystemCall @ SystemCall:NtGdiSelectBitmap",
      "SystemCall @ SystemCall:NtGdiBitBlt",
      "SystemCall @ SystemCall:NtGdiDeleteObjectApp",
      "SystemCall @ SystemCall:NtFreeVirtualMemory",
      "SystemCall @ SystemCall:NtAllocateVirtualMemory"
    ],
    "windowsize": 53,
    "coverage": 0.08,
    "falsePositiveShare": 0.06896551724137931
  },
  {
    "traces": [
      "ctOs1300",
      "quasar1.1-ThreadId2372"
    ],
    "sig": [
      "SystemCall @ SystemCall:NtAllocateVirtualMemory",
      "SystemCall @ SystemCall:NtUserGetDC",
      "SystemCall @ SystemCall:NtGdiCreateCompatibleDC",
      "SystemCall @ SystemCall:NtGdiSelectBitmap",
      "SystemCall @ SystemCall:NtGdiBitBlt",
      "SystemCall @ SystemCall:NtGdiDeleteObjectApp",
      "SystemCall @ SystemCall:NtUserGetDC",
      "SystemCall @ SystemCall:NtGdiGetDeviceCaps",
      "SystemCall @ SystemCall:NtGdiDeleteObjectApp",
      "SystemCall @ SystemCall:NtFlushProcessWriteBuffers",
      "SystemCall @ SystemCall:NtAllocateVirtualMemory",
      "SystemCall @ SystemCall:NtQuerySystemInformation",
      "SystemCall @ SystemCall:NtQueryInformationProcess",
      "SystemCall @ SystemCall:NtAllocateVirtualMemory",
      "ALPC_REC @ ProcessName:@ExecutableFile"
    ],
    "windowsize": 55,
    "coverage": 0.12,
    "falsePositiveShare": 0.034482758620689655
  },
  {
    "traces": [
      "imminentMonitor39",
      "ctOs1300"
    ],
    "sig": [
      "SystemCall @ SystemCall:NtAllocateVirtualMemory",
      "SystemCall @ SystemCall:NtUserGetDC",
      "SystemCall @ SystemCall:NtGdiCreateCompatibleDC",
      "SystemCall @ SystemCall:NtGdiSelectBitmap",
      "SystemCall @ SystemCall:NtGdiBitBlt",
      "SystemCall @ SystemCall:NtAllocateVirtualMemory",
      "SystemCall @ SystemCall:NtUserGetDC",
      "SystemCall @ SystemCall:NtGdiGetDeviceCaps",
      "SystemCall @ SystemCall:NtGdiDeleteObjectApp",
      "SystemCall @ SystemCall:NtFlushProcessWriteBuffers",
      "SystemCall @ SystemCall:NtQuerySystemInformation",
      "SystemCall @ SystemCall:NtQueryInformationProcess",
      "SystemCall @ SystemCall:NtFlushInstructionCache",
      "SystemCall @ SystemCall:NtUserGetDC",
      "SystemCall @ SystemCall:NtGdiGetDeviceCaps",
      "SystemCall @ SystemCall:NtAllocateVirtualMemory"
    ],
    "windowsize": 50,
    "coverage": 0.12,
    "falsePositiveShare": 0.0
  },
  {
    "traces": [
      "novalite3.0-ThreadId2768",
      "nuclear2.1.0-ThreadId1960"
    ],
    "sig": [
      "SystemCall @ SystemCall:NtGdiCreateCompatibleDC",
      "SystemCall @ SystemCall:NtGdiCreateCompatibleBitmap",
      "SystemCall @ SystemCall:NtGdiSelectBitmap",
      "SystemCall @ SystemCall:NtGdiStretchBlt",
      "SystemCall @ SystemCall:NtGdiDeleteObjectApp",
      "SystemCall @ SystemCall:NtGdiExtGetObjectW",
      "SystemCall @ SystemCall:NtAllocateVirtualMemory",
      "SystemCall @ SystemCall:NtGdiGetDIBitsInternal",
      "FileIoRead @ FileName:",
      "DiskIoDrvMjFnCall @ MajorFunction:3",
      "SystemCall @ SystemCall:NtFreeVirtualMemory",
      "SystemCall @ SystemCall:NtGdiDeleteObjectApp",
      "DiskIoDrvMjFnCall @ MajorFunction:0",
      "DiskIoDrvMjFnCall @ MajorFunction:18",
      "DiskIoDrvMjFnCall @ MajorFunction:2",
      "DiskIoDrvMjFnCall @ MajorFunction:4"
    ],
    "windowsize": 80,
    "coverage": 0.08,
    "falsePositiveShare": 0.0
  },
  {
    "traces": [
      "novalite3.0-ThreadId2768",
      "nuclear2.1.0-ThreadId1960"
    ],
    "sig": [
      "SystemCall @ SystemCall:NtGdiGetDeviceCaps",
      "SystemCall @ SystemCall:NtGdiCreateCompatibleBitmap",
      "SystemCall @ SystemCall:NtGdiSelectBitmap",
      "SystemCall @ SystemCall:NtGdiStretchBlt",
      "SystemCall @ SystemCall:NtGdiDeleteObjectApp",
      "SystemCall @ SystemCall:NtGdiExtGetObjectW",
      "SystemCall @ SystemCall:NtAllocateVirtualMemory",
      "SystemCall @ SystemCall:NtGdiGetDIBitsInternal",
      "FileIoRead @ FileName:",
      "DiskIoDrvMjFnCall @ MajorFunction:3",
      "SystemCall @ SystemCall:NtGdiDeleteObjectApp",
      "SystemCall @ SystemCall:NtFreeVirtualMemory",
      "DiskIoDrvMjFnCall @ MajorFunction:0",
      "DiskIoDrvMjFnCall @ MajorFunction:18",
      "DiskIoDrvMjFnCall @ MajorFunction:2",
      "DiskIoDrvMjFnCall @ MajorFunction:4"
    ],
    "windowsize": 80,
    "coverage": 0.08,
    "falsePositiveShare": 0.0
  },
  {
    "traces": [
      "novalite3.0-ThreadId2768",
      "nuclear2.1.0-ThreadId1960"
    ],
    "sig": [
      "SystemCall @ SystemCall:NtGdiCreateCompatibleDC",
      "SystemCall @ SystemCall:NtGdiCreateCompatibleBitmap",
      "SystemCall @ SystemCall:NtGdiSelectBitmap",
      "SystemCall @ SystemCall:NtGdiStretchBlt",
      "SystemCall @ SystemCall:NtGdiDeleteObjectApp",
      "SystemCall @ SystemCall:NtGdiExtGetObjectW",
      "SystemCall @ SystemCall:NtAllocateVirtualMemory",
      "SystemCall @ SystemCall:NtGdiGetDIBitsInternal",
      "FileIoRead @ FileName:",
      "DiskIoDrvMjFnCall @ MajorFunction:3",
      "SystemCall @ SystemCall:NtGdiDeleteObjectApp",
      "SystemCall @ SystemCall:NtFreeVirtualMemory",
      "DiskIoDrvMjFnCall @ MajorFunction:0",
      "DiskIoDrvMjFnCall @ MajorFunction:18",
      "DiskIoDrvMjFnCall @ MajorFunction:2",
      "DiskIoDrvMjFnCall @ MajorFunction:4"
    ],
    "windowsize": 80,
    "coverage": 0.08,
    "falsePositiveShare": 0.0
  },
  {
    "traces": [
      "novalite3.0-ThreadId2768",
      "nuclear2.1.0-ThreadId1960"
    ],
    "sig": [
      "SystemCall @ SystemCall:NtGdiGetDeviceCaps",
      "SystemCall @ SystemCall:NtGdiCreateCompatibleBitmap",
      "SystemCall @ SystemCall:NtGdiSelectBitmap",
      "SystemCall @ SystemCall:NtGdiStretchBlt",
      "SystemCall @ SystemCall:NtGdiDeleteObjectApp",
      "SystemCall @ SystemCall:NtGdiExtGetObjectW",
      "SystemCall @ SystemCall:NtAllocateVirtualMemory",
      "SystemCall @ SystemCall:NtGdiGetDIBitsInternal",
      "FileIoRead @ FileName:",
      "DiskIoDrvMjFnCall @ MajorFunction:3",
      "SystemCall @ SystemCall:NtFreeVirtualMemory",
      "SystemCall @ SystemCall:NtGdiDeleteObjectApp",
      "DiskIoDrvMjFnCall @ MajorFunction:0",
      "DiskIoDrvMjFnCall @ MajorFunction:18",
      "DiskIoDrvMjFnCall @ MajorFunction:2",
      "DiskIoDrvMjFnCall @ MajorFunction:4"
    ],
    "windowsize": 80,
    "coverage": 0.08,
    "falsePositiveShare": 0.0
  },
  {
    "traces": [
      "Paradox",
      "ctOs1300"
    ],
    "sig": [
      "SystemCall @ SystemCall:NtAllocateVirtualMemory",
      "SystemCall @ SystemCall:NtQueryVirtualMemory",
      "SystemCall @ SystemCall:NtQuerySystemInformation",
      "SystemCall @ SystemCall:NtQueryInformationProcess",
      "SystemCall @ SystemCall:NtAllocateVirtualMemory",
      "SystemCall @ SystemCall:NtQueryVirtualMemory",
      "SystemCall @ SystemCall:NtAllocateVirtualMemory",
      "SystemCall @ SystemCall:NtCallbackReturn",
      "SystemCall @ SystemCall:NtUserGetDC",
      "SystemCall @ SystemCall:NtAllocateVirtualMemory",
      "SystemCall @ SystemCall:NtUserGetDC",
      "SystemCall @ SystemCall:NtGdiGetDeviceCaps",
      "SystemCall @ SystemCall:NtAllocateVirtualMemory",
      "SystemCall @ SystemCall:NtFlushInstructionCache",
      "SystemCall @ SystemCall:NtUserGetDC",
      "SystemCall @ SystemCall:NtGdiGetDeviceCaps",
      "SystemCall @ SystemCall:NtAllocateVirtualMemory"
    ],
    "windowsize": 64,
    "coverage": 0.08,
    "falsePositiveShare": 0.0
  },
  {
    "traces": [
      "Albertino22",
      "quasar1.1-ThreadId2372"
    ],
    "sig": [
      "SystemCall @ SystemCall:NtAllocateVirtualMemory",
      "SystemCall @ SystemCall:NtUserGetDC",
      "SystemCall @ SystemCall:NtGdiGetDeviceCaps",
      "SystemCall @ SystemCall:NtAllocateVirtualMemory",
      "SystemCall @ SystemCall:NtGdiCreateCompatibleDC",
      "SystemCall @ SystemCall:NtGdiCreateDIBSection",
      "SystemCall @ SystemCall:NtAllocateVirtualMemory",
      "SystemCall @ SystemCall:NtGdiExtGetObjectW",
      "SystemCall @ SystemCall:NtGdiSelectBitmap",
      "SystemCall @ SystemCall:NtGdiBitBlt",
      "SystemCall @ SystemCall:NtGdiFlush",
      "SystemCall @ SystemCall:NtFreeVirtualMemory",
      "SystemCall @ SystemCall:NtFlushProcessWriteBuffers",
      "SystemCall @ SystemCall:NtQuerySystemInformation",
      "SystemCall @ SystemCall:NtQueryInformationProcess",
      "SystemCall @ SystemCall:NtAllocateVirtualMemory",
      "SystemCall @ SystemCall:NtQueryInformationProcess",
      "SystemCall @ SystemCall:NtTerminateThread"
    ],
    "windowsize": 55,
    "coverage": 0.12,
    "falsePositiveShare": 0.0
  },
  {
    "traces": [
      "imminentMonitor39",
      "pupy-ThreadId1368"
    ],
    "sig": [
      "SystemCall @ SystemCall:NtAllocateVirtualMemory",
      "SystemCall @ SystemCall:NtFreeVirtualMemory",
      "SystemCall @ SystemCall:NtCallbackReturn",
      "SystemCall @ SystemCall:NtUserGetDC",
      "SystemCall @ SystemCall:NtGdiGetDeviceCaps",
      "SystemCall @ SystemCall:NtAllocateVirtualMemory",
      "SystemCall @ SystemCall:NtGdiCreateCompatibleDC",
      "SystemCall @ SystemCall:NtGdiSelectBitmap",
      "SystemCall @ SystemCall:NtGdiBitBlt",
      "SystemCall @ SystemCall:NtAllocateVirtualMemory",
      "SystemCall @ SystemCall:NtOpenFile",
      "SystemCall @ SystemCall:NtProtectVirtualMemory",
      "SystemCall @ SystemCall:NtQuerySystemInformation",
      "SystemCall @ SystemCall:NtQueryInformationProcess",
      "SystemCall @ SystemCall:NtQueryKey",
      "RegistryQuery @ KeyName:",
      "SystemCall @ SystemCall:NtQueryObject",
      "SystemCall @ SystemCall:NtOpenKeyEx"
    ],
    "windowsize": 170,
    "coverage": 0.16,
    "falsePositiveShare": 0.13793103448275862
  },
  {
    "traces": [
      "jrat-ThreadId3008",
      "novalite3.0-ThreadId2768"
    ],
    "sig": [
      "SystemCall @ SystemCall:NtGdiCreateCompatibleDC",
      "SystemCall @ SystemCall:NtGdiCreateCompatibleBitmap",
      "SystemCall @ SystemCall:NtGdiSelectBitmap",
      "SystemCall @ SystemCall:NtAllocateVirtualMemory",
      "SystemCall @ SystemCall:NtGdiGetDIBitsInternal",
      "SystemCall @ SystemCall:NtFreeVirtualMemory",
      "SystemCall @ SystemCall:NtGdiDeleteObjectApp",
      "DiskIoDrvMjFnCall @ MajorFunction:0",
      "DiskIoDrvMjFnCall @ MajorFunction:18",
      "DiskIoDrvMjFnCall @ MajorFunction:2",
      "DiskIoDrvMjFnCall @ MajorFunction:0",
      "DiskIoDrvMjFnCall @ MajorFunction:12",
      "DiskIoDrvMjFnCall @ MajorFunction:0",
      "DiskIoDrvMjFnCall @ MajorFunction:18",
      "DiskIoDrvMjFnCall @ MajorFunction:2",
      "DiskIoDrvMjFnCall @ MajorFunction:12",
      "DiskIoDrvMjFnCall @ MajorFunction:18",
      "DiskIoDrvMjFnCall @ MajorFunction:2",
      "DiskIoDrvMjFnCall @ MajorFunction:4"
    ],
    "windowsize": 56,
    "coverage": 0.08,
    "falsePositiveShare": 0.034482758620689655
  },
  {
    "traces": [
      "novalite3.0-ThreadId2768",
      "ctOs1300"
    ],
    "sig": [
      "SystemCall @ SystemCall:NtUserGetDC",
      "SystemCall @ SystemCall:NtGdiCreateCompatibleDC",
      "SystemCall @ SystemCall:NtGdiCreateCompatibleBitmap",
      "SystemCall @ SystemCall:NtGdiSelectBitmap",
      "SystemCall @ SystemCall:NtGdiDeleteObjectApp",
      "SystemCall @ SystemCall:NtGdiGetDIBitsInternal",
      "SystemCall @ SystemCall:NtAllocateVirtualMemory",
      "SystemCall @ SystemCall:NtGdiDeleteObjectApp",
      "SystemCall @ SystemCall:NtAllocateVirtualMemory",
      "SystemCall @ SystemCall:NtFreeVirtualMemory",
      "SystemCall @ SystemCall:NtCallbackReturn",
      "SystemCall @ SystemCall:NtUserQueryWindow",
      "SystemCall @ SystemCall:NtUserGetProp",
      "SystemCall @ SystemCall:NtUserRemoveProp",
      "SystemCall @ SystemCall:NtUserGetProp",
      "SystemCall @ SystemCall:NtUserQueryWindow",
      "SystemCall @ SystemCall:NtUserGetProp",
      "SystemCall @ SystemCall:NtUserRemoveProp",
      "SystemCall @ SystemCall:NtCallbackReturn",
      "ALPC_REC @ ProcessName:@ExecutableFile"
    ],
    "windowsize": 114,
    "coverage": 0.08,
    "falsePositiveShare": 0.0
  },
  {
    "traces": [
      "novalite3.0-ThreadId2768",
      "ctOs1300"
    ],
    "sig": [
      "SystemCall @ SystemCall:NtUserGetDC",
      "SystemCall @ SystemCall:NtGdiCreateCompatibleDC",
      "SystemCall @ SystemCall:NtGdiCreateCompatibleBitmap",
      "SystemCall @ SystemCall:NtGdiSelectBitmap",
      "SystemCall @ SystemCall:NtGdiDeleteObjectApp",
      "SystemCall @ SystemCall:NtAllocateVirtualMemory",
      "SystemCall @ SystemCall:NtUserGetDC",
      "SystemCall @ SystemCall:NtGdiDeleteObjectApp",
      "SystemCall @ SystemCall:NtAllocateVirtualMemory",
      "SystemCall @ SystemCall:NtFreeVirtualMemory",
      "SystemCall @ SystemCall:NtCallbackReturn",
      "SystemCall @ SystemCall:NtUserQueryWindow",
      "SystemCall @ SystemCall:NtUserGetProp",
      "SystemCall @ SystemCall:NtUserRemoveProp",
      "SystemCall @ SystemCall:NtUserGetProp",
      "SystemCall @ SystemCall:NtUserQueryWindow",
      "SystemCall @ SystemCall:NtUserGetProp",
      "SystemCall @ SystemCall:NtUserRemoveProp",
      "SystemCall @ SystemCall:NtCallbackReturn",
      "ALPC_REC @ ProcessName:@ExecutableFile"
    ],
    "windowsize": 114,
    "coverage": 0.08,
    "falsePositiveShare": 0.0
  },
  {
    "traces": [
      "pupy-ThreadId1368",
      "quasar1.1-ThreadId2372"
    ],
    "sig": [
      "RegistryQueryValue @ KeyName:Domain",
      "SystemCall @ SystemCall:NtProtectVirtualMemory",
      "SystemCall @ SystemCall:NtSetInformationKey",
      "RegistrySetInformation @ KeyName:",
      "SystemCall @ SystemCall:NtQueryValueKey",
      "SystemCall @ SystemCall:NtProtectVirtualMemory",
      "ALPC_REC @ ProcessName:@ExecutableFile",
      "ALPC_SEN @ ProcessName:@ExecutableFile",
      "ALPC_REC @ ProcessName:@ExecutableFile",
      "SystemCall @ SystemCall:NtSetInformationThread",
      "SystemCall @ SystemCall:NtAlpcCreateSecurityContext",
      "SystemCall @ SystemCall:NtSetInformationThread",
      "SystemCall @ SystemCall:NtAllocateVirtualMemory",
      "SystemCall @ SystemCall:NtQueryKey",
      "RegistryQuery @ KeyName:",
      "SystemCall @ SystemCall:NtQueryObject",
      "SystemCall @ SystemCall:NtOpenKeyEx",
      "SystemCall @ SystemCall:NtSetInformationKey",
      "RegistrySetInformation @ KeyName:",
      "SystemCall @ SystemCall:NtQueryValueKey"
    ],
    "windowsize": 295,
    "coverage": 0.08,
    "falsePositiveShare": 0.13793103448275862
  },
  {
    "traces": [
      "pupy-ThreadId1368",
      "quasar1.1-ThreadId2372"
    ],
    "sig": [
      "RegistryQueryValue @ KeyName:Domain",
      "RegistryOpen @ KeyName:Parameters",
      "SystemCall @ SystemCall:NtSetInformationKey",
      "RegistrySetInformation @ KeyName:",
      "SystemCall @ SystemCall:NtQueryValueKey",
      "SystemCall @ SystemCall:NtProtectVirtualMemory",
      "ALPC_REC @ ProcessName:@ExecutableFile",
      "ALPC_SEN @ ProcessName:@ExecutableFile",
      "ALPC_REC @ ProcessName:@ExecutableFile",
      "SystemCall @ SystemCall:NtSetInformationThread",
      "SystemCall @ SystemCall:NtAlpcCreateSecurityContext",
      "SystemCall @ SystemCall:NtSetInformationThread",
      "SystemCall @ SystemCall:NtAllocateVirtualMemory",
      "SystemCall @ SystemCall:NtQueryKey",
      "RegistryQuery @ KeyName:",
      "SystemCall @ SystemCall:NtQueryObject",
      "SystemCall @ SystemCall:NtOpenKeyEx",
      "SystemCall @ SystemCall:NtSetInformationKey",
      "RegistrySetInformation @ KeyName:",
      "SystemCall @ SystemCall:NtQueryValueKey"
    ],
    "windowsize": 289,
    "coverage": 0.08,
    "falsePositiveShare": 0.13793103448275862
  },
  {
    "traces": [
      "pupy-ThreadId1368",
      "quasar1.1-ThreadId2372"
    ],
    "sig": [
      "RegistryQueryValue @ KeyName:Domain",
      "SystemCall @ SystemCall:NtProtectVirtualMemory",
      "RegistryOpen @ KeyName:Parameters",
      "SystemCall @ SystemCall:NtSetInformationKey",
      "RegistrySetInformation @ KeyName:",
      "SystemCall @ SystemCall:NtQueryValueKey",
      "SystemCall @ SystemCall:NtProtectVirtualMemory",
      "ALPC_REC @ ProcessName:@ExecutableFile",
      "ALPC_SEN @ ProcessName:@ExecutableFile",
      "ALPC_REC @ ProcessName:@ExecutableFile",
      "SystemCall @ SystemCall:NtSetInformationThread",
      "SystemCall @ SystemCall:NtAlpcCreateSecurityContext",
      "SystemCall @ SystemCall:NtSetInformationThread",
      "SystemCall @ SystemCall:NtAllocateVirtualMemory",
      "SystemCall @ SystemCall:NtQueryKey",
      "RegistryQuery @ KeyName:",
      "SystemCall @ SystemCall:NtQueryObject",
      "SystemCall @ SystemCall:NtOpenKeyEx",
      "SystemCall @ SystemCall:NtSetInformationKey",
      "RegistrySetInformation @ KeyName:"
    ],
    "windowsize": 289,
    "coverage": 0.08,
    "falsePositiveShare": 0.13793103448275862
  },
  {
    "traces": [
      "pupy-ThreadId1368",
      "quasar1.1-ThreadId2372"
    ],
    "sig": [
      "RegistryQueryValue @ KeyName:Domain",
      "SystemCall @ SystemCall:NtOpenKeyEx",
      "RegistryOpen @ KeyName:Parameters",
      "SystemCall @ SystemCall:NtSetInformationKey",
      "RegistrySetInformation @ KeyName:",
      "SystemCall @ SystemCall:NtQueryValueKey",
      "SystemCall @ SystemCall:NtProtectVirtualMemory",
      "ALPC_REC @ ProcessName:@ExecutableFile",
      "ALPC_SEN @ ProcessName:@ExecutableFile",
      "ALPC_REC @ ProcessName:@ExecutableFile",
      "SystemCall @ SystemCall:NtSetInformationThread",
      "SystemCall @ SystemCall:NtAlpcCreateSecurityContext",
      "SystemCall @ SystemCall:NtSetInformationThread",
      "SystemCall @ SystemCall:NtAllocateVirtualMemory",
      "SystemCall @ SystemCall:NtQueryKey",
      "RegistryQuery @ KeyName:",
      "SystemCall @ SystemCall:NtQueryObject",
      "SystemCall @ SystemCall:NtOpenKeyEx",
      "SystemCall @ SystemCall:NtSetInformationKey",
      "RegistrySetInformation @ KeyName:"
    ],
    "windowsize": 283,
    "coverage": 0.08,
    "falsePositiveShare": 0.13793103448275862
  },
  {
    "traces": [
      "novalite3.0-ThreadId2768",
      "ctOs1300"
    ],
    "sig": [
      "SystemCall @ SystemCall:NtUserGetDC",
      "SystemCall @ SystemCall:NtGdiCreateCompatibleDC",
      "SystemCall @ SystemCall:NtGdiCreateCompatibleBitmap",
      "SystemCall @ SystemCall:NtGdiSelectBitmap",
      "SystemCall @ SystemCall:NtGdiDeleteObjectApp",
      "SystemCall @ SystemCall:NtGdiGetDIBitsInternal",
      "SystemCall @ SystemCall:NtAllocateVirtualMemory",
      "SystemCall @ SystemCall:NtGdiDeleteObjectApp",
      "SystemCall @ SystemCall:NtAllocateVirtualMemory",
      "SystemCall @ SystemCall:NtFreeVirtualMemory",
      "SystemCall @ SystemCall:NtCallbackReturn",
      "SystemCall @ SystemCall:NtUserGetProp",
      "SystemCall @ SystemCall:NtCallbackReturn",
      "SystemCall @ SystemCall:NtUserQueryWindow",
      "SystemCall @ SystemCall:NtUserGetProp",
      "SystemCall @ SystemCall:NtUserRemoveProp",
      "SystemCall @ SystemCall:NtUserGetProp",
      "SystemCall @ SystemCall:NtUserQueryWindow",
      "SystemCall @ SystemCall:NtUserGetProp",
      "SystemCall @ SystemCall:NtUserRemoveProp",
      "SystemCall @ SystemCall:NtCallbackReturn"
    ],
    "windowsize": 108,
    "coverage": 0.08,
    "falsePositiveShare": 0.0
  },
  {
    "traces": [
      "novalite3.0-ThreadId2768",
      "ctOs1300"
    ],
    "sig": [
      "SystemCall @ SystemCall:NtUserGetDC",
      "SystemCall @ SystemCall:NtGdiCreateCompatibleDC",
      "SystemCall @ SystemCall:NtGdiCreateCompatibleBitmap",
      "SystemCall @ SystemCall:NtGdiSelectBitmap",
      "SystemCall @ SystemCall:NtGdiDeleteObjectApp",
      "SystemCall @ SystemCall:NtAllocateVirtualMemory",
      "SystemCall @ SystemCall:NtUserGetDC",
      "SystemCall @ SystemCall:NtGdiDeleteObjectApp",
      "SystemCall @ SystemCall:NtAllocateVirtualMemory",
      "SystemCall @ SystemCall:NtFreeVirtualMemory",
      "SystemCall @ SystemCall:NtCallbackReturn",
      "SystemCall @ SystemCall:NtUserGetProp",
      "SystemCall @ SystemCall:NtCallbackReturn",
      "SystemCall @ SystemCall:NtUserQueryWindow",
      "SystemCall @ SystemCall:NtUserGetProp",
      "SystemCall @ SystemCall:NtUserRemoveProp",
      "SystemCall @ SystemCall:NtUserGetProp",
      "SystemCall @ SystemCall:NtUserQueryWindow",
      "SystemCall @ SystemCall:NtUserGetProp",
      "SystemCall @ SystemCall:NtUserRemoveProp",
      "SystemCall @ SystemCall:NtCallbackReturn"
    ],
    "windowsize": 108,
    "coverage": 0.08,
    "falsePositiveShare": 0.0
  },
  {
    "traces": [
      "turkojan4.0-ThreadId2324",
      "quasar1.1-ThreadId2372"
    ],
    "sig": [
      "DiskIoDrvMjFnCall @ MajorFunction:0",
      "DiskIoDrvMjFnCall @ MajorFunction:5",
      "DiskIoDrvMjFnCall @ MajorFunction:0",
      "DiskIoDrvMjFnCall @ MajorFunction:18",
      "DiskIoDrvMjFnCall @ MajorFunction:2",
      "DiskIoDrvMjFnCall @ MajorFunction:4",
      "DiskIoDrvMjFnCall @ MajorFunction:6",
      "DiskIoDrvMjFnCall @ MajorFunction:0",
      "DiskIoDrvMjFnCall @ MajorFunction:18",
      "DiskIoDrvMjFnCall @ MajorFunction:2",
      "DiskIoDrvMjFnCall @ MajorFunction:0",
      "DiskIoDrvMjFnCall @ MajorFunction:12",
      "DiskIoDrvMjFnCall @ MajorFunction:0",
      "DiskIoDrvMjFnCall @ MajorFunction:18",
      "DiskIoDrvMjFnCall @ MajorFunction:2",
      "DiskIoDrvMjFnCall @ MajorFunction:12",
      "DiskIoDrvMjFnCall @ MajorFunction:18",
      "DiskIoDrvMjFnCall @ MajorFunction:2",
      "DiskIoDrvMjFnCall @ MajorFunction:0",
      "DiskIoDrvMjFnCall @ MajorFunction:18",
      "DiskIoDrvMjFnCall @ MajorFunction:2",
      "DiskIoDrvMjFnCall @ MajorFunction:4"
    ],
    "windowsize": 99,
    "coverage": 0.08,
    "falsePositiveShare": 0.10344827586206896
  },
  {
    "traces": [
      "Paradox",
      "jrat-ThreadId3008"
    ],
    "sig": [
      "SystemCall @ SystemCall:NtOpenFile",
      "SystemCall @ SystemCall:NtProtectVirtualMemory",
      "SystemCall @ SystemCall:NtQueryInformationProcess",
      "SystemCall @ SystemCall:NtAllocateVirtualMemory",
      "DiskIoDrvMjFnCall @ MajorFunction:18",
      "DiskIoDrvMjFnCall @ MajorFunction:2",
      "DiskIoDrvMjFnCall @ MajorFunction:4",
      "DiskIoDrvMjFnCall @ MajorFunction:0",
      "DiskIoDrvMjFnCall @ MajorFunction:18",
      "DiskIoDrvMjFnCall @ MajorFunction:2",
      "DiskIoDrvMjFnCall @ MajorFunction:0",
      "DiskIoDrvMjFnCall @ MajorFunction:12",
      "DiskIoDrvMjFnCall @ MajorFunction:0",
      "DiskIoDrvMjFnCall @ MajorFunction:18",
      "DiskIoDrvMjFnCall @ MajorFunction:2",
      "DiskIoDrvMjFnCall @ MajorFunction:12",
      "DiskIoDrvMjFnCall @ MajorFunction:18",
      "DiskIoDrvMjFnCall @ MajorFunction:2",
      "DiskIoDrvMjFnCall @ MajorFunction:0",
      "DiskIoDrvMjFnCall @ MajorFunction:18",
      "DiskIoDrvMjFnCall @ MajorFunction:2",
      "DiskIoDrvMjFnCall @ MajorFunction:18",
      "DiskIoDrvMjFnCall @ MajorFunction:4"
    ],
    "windowsize": 217,
    "coverage": 0.12,
    "falsePositiveShare": 0.06896551724137931
  },
  {
    "traces": [
      "xrat2.0-ThreadId1040",
      "NamoCore1220"
    ],
    "sig": [
      "SystemCall @ SystemCall:NtAllocateVirtualMemory",
      "SystemCall @ SystemCall:NtGdiCreateDIBSection",
      "SystemCall @ SystemCall:NtAllocateVirtualMemory",
      "SystemCall @ SystemCall:NtGdiSelectBitmap",
      "SystemCall @ SystemCall:NtFreeVirtualMemory",
      "SystemCall @ SystemCall:NtGdiDeleteObjectApp",
      "SystemCall @ SystemCall:NtFreeVirtualMemory",
      "SystemCall @ SystemCall:NtGdiCreateDIBSection",
      "SystemCall @ SystemCall:NtAllocateVirtualMemory",
      "SystemCall @ SystemCall:NtGdiSelectBitmap",
      "SystemCall @ SystemCall:NtUserGetDC",
      "SystemCall @ SystemCall:NtGdiGetDeviceCaps",
      "SystemCall @ SystemCall:NtGdiDeleteObjectApp",
      "SystemCall @ SystemCall:NtFreeVirtualMemory",
      "SystemCall @ SystemCall:NtUserGetDC",
      "SystemCall @ SystemCall:NtGdiGetDeviceCaps",
      "SystemCall @ SystemCall:NtGdiCreateDIBSection",
      "SystemCall @ SystemCall:NtAllocateVirtualMemory",
      "SystemCall @ SystemCall:NtGdiSelectBitmap",
      "SystemCall @ SystemCall:NtGdiDeleteObjectApp",
      "SystemCall @ SystemCall:NtFreeVirtualMemory",
      "SystemCall @ SystemCall:NtFlushInstructionCache",
      "SystemCall @ SystemCall:NtAllocateVirtualMemory"
    ],
    "windowsize": 139,
    "coverage": 0.24,
    "falsePositiveShare": 0.0
  },
  {
    "traces": [
      "Paradox",
      "quasar1.1-ThreadId2372"
    ],
    "sig": [
      "SystemCall @ SystemCall:NtAllocateVirtualMemory",
      "SystemCall @ SystemCall:NtFlushInstructionCache",
      "SystemCall @ SystemCall:NtFreeVirtualMemory",
      "SystemCall @ SystemCall:NtFlushProcessWriteBuffers",
      "DiskIoDrvMjFnCall @ MajorFunction:0",
      "DiskIoDrvMjFnCall @ MajorFunction:18",
      "DiskIoDrvMjFnCall @ MajorFunction:2",
      "DiskIoDrvMjFnCall @ MajorFunction:4",
      "DiskIoDrvMjFnCall @ MajorFunction:0",
      "DiskIoDrvMjFnCall @ MajorFunction:18",
      "DiskIoDrvMjFnCall @ MajorFunction:2",
      "DiskIoDrvMjFnCall @ MajorFunction:0",
      "DiskIoDrvMjFnCall @ MajorFunction:12",
      "DiskIoDrvMjFnCall @ MajorFunction:0",
      "DiskIoDrvMjFnCall @ MajorFunction:18",
      "DiskIoDrvMjFnCall @ MajorFunction:2",
      "DiskIoDrvMjFnCall @ MajorFunction:12",
      "DiskIoDrvMjFnCall @ MajorFunction:18",
      "DiskIoDrvMjFnCall @ MajorFunction:2",
      "DiskIoDrvMjFnCall @ MajorFunction:0",
      "DiskIoDrvMjFnCall @ MajorFunction:18",
      "DiskIoDrvMjFnCall @ MajorFunction:2",
      "DiskIoDrvMjFnCall @ MajorFunction:4"
    ],
    "windowsize": 193,
    "coverage": 0.12,
    "falsePositiveShare": 0.034482758620689655
  },
  {
    "traces": [
      "ctOs1300",
      "turkojan4.0-ThreadId2324"
    ],
    "sig": [
      "SystemCall @ SystemCall:NtUserCreateWindowEx",
      "SystemCall @ SystemCall:NtUserQueryWindow",
      "SystemCall @ SystemCall:NtUserGetProp",
      "SystemCall @ SystemCall:NtUserQueryWindow",
      "SystemCall @ SystemCall:NtCallbackReturn",
      "SystemCall @ SystemCall:NtUserQueryWindow",
      "SystemCall @ SystemCall:NtUserGetProp",
      "SystemCall @ SystemCall:NtUserSetProp",
      "SystemCall @ SystemCall:NtCallbackReturn",
      "SystemCall @ SystemCall:NtUserQueryWindow",
      "SystemCall @ SystemCall:NtUserGetProp",
      "SystemCall @ SystemCall:NtCallbackReturn",
      "SystemCall @ SystemCall:NtUserSetWindowLongPtr",
      "SystemCall @ SystemCall:NtCallbackReturn",
      "SystemCall @ SystemCall:NtUserDestroyWindow",
      "SystemCall @ SystemCall:NtCallbackReturn",
      "SystemCall @ SystemCall:NtUserQueryWindow",
      "SystemCall @ SystemCall:NtUserGetProp",
      "SystemCall @ SystemCall:NtUserRemoveProp",
      "SystemCall @ SystemCall:NtUserGetProp",
      "SystemCall @ SystemCall:NtUserQueryWindow",
      "SystemCall @ SystemCall:NtUserGetProp",
      "SystemCall @ SystemCall:NtUserRemoveProp",
      "SystemCall @ SystemCall:NtCallbackReturn"
    ],
    "windowsize": 53,
    "coverage": 0.12,
    "falsePositiveShare": 0.13793103448275862
  },
  {
    "traces": [
      "Paradox",
      "novalite3.0-ThreadId2768"
    ],
    "sig": [
      "RegistrySetInformation @ KeyName:",
      "SystemCall @ SystemCall:NtQueryKey",
      "RegistryQuery @ KeyName:",
      "SystemCall @ SystemCall:NtOpenKeyEx",
      "SystemCall @ SystemCall:NtSetInformationKey",
      "RegistrySetInformation @ KeyName:",
      "SystemCall @ SystemCall:NtOpenKeyEx",
      "SystemCall @ SystemCall:NtAllocateVirtualMemory",
      "SystemCall @ SystemCall:NtFreeVirtualMemory",
      "SystemCall @ SystemCall:NtGdiDeleteObjectApp",
      "SystemCall @ SystemCall:NtFreeVirtualMemory",
      "DiskIoDrvMjFnCall @ MajorFunction:4",
      "DiskIoDrvMjFnCall @ MajorFunction:0",
      "DiskIoDrvMjFnCall @ MajorFunction:18",
      "DiskIoDrvMjFnCall @ MajorFunction:2",
      "DiskIoDrvMjFnCall @ MajorFunction:0",
      "DiskIoDrvMjFnCall @ MajorFunction:12",
      "DiskIoDrvMjFnCall @ MajorFunction:0",
      "DiskIoDrvMjFnCall @ MajorFunction:18",
      "DiskIoDrvMjFnCall @ MajorFunction:2",
      "DiskIoDrvMjFnCall @ MajorFunction:12",
      "DiskIoDrvMjFnCall @ MajorFunction:18",
      "DiskIoDrvMjFnCall @ MajorFunction:2",
      "DiskIoDrvMjFnCall @ MajorFunction:4"
    ],
    "windowsize": 99,
    "coverage": 0.08,
    "falsePositiveShare": 0.0
  },
  {
    "traces": [
      "jrat-ThreadId3008",
      "quasar1.1-ThreadId2372"
    ],
    "sig": [
      "DiskIoDrvMjFnCall @ MajorFunction:18",
      "DiskIoDrvMjFnCall @ MajorFunction:2",
      "DiskIoDrvMjFnCall @ MajorFunction:12",
      "DiskIoDrvMjFnCall @ MajorFunction:18",
      "DiskIoDrvMjFnCall @ MajorFunction:2",
      "DiskIoDrvMjFnCall @ MajorFunction:4",
      "DiskIoDrvMjFnCall @ MajorFunction:0",
      "DiskIoDrvMjFnCall @ MajorFunction:18",
      "DiskIoDrvMjFnCall @ MajorFunction:2",
      "DiskIoDrvMjFnCall @ MajorFunction:0",
      "DiskIoDrvMjFnCall @ MajorFunction:12",
      "DiskIoDrvMjFnCall @ MajorFunction:0",
      "DiskIoDrvMjFnCall @ MajorFunction:18",
      "DiskIoDrvMjFnCall @ MajorFunction:2",
      "DiskIoDrvMjFnCall @ MajorFunction:12",
      "DiskIoDrvMjFnCall @ MajorFunction:18",
      "DiskIoDrvMjFnCall @ MajorFunction:2",
      "DiskIoDrvMjFnCall @ MajorFunction:4",
      "SystemCall @ SystemCall:NtAllocateVirtualMemory",
      "SystemCall @ SystemCall:NtCreateThreadEx",
      "SystemCall @ SystemCall:NtAllocateVirtualMemory",
      "SystemCall @ SystemCall:NtProtectVirtualMemory",
      "ALPC_REC @ ProcessName:@ExecutableFile",
      "SystemCall @ SystemCall:NtSetInformationThread",
      "SystemCall @ SystemCall:NtResumeThread"
    ],
    "windowsize": 210,
    "coverage": 0.08,
    "falsePositiveShare": 0.0
  },
  {
    "traces": [
      "novalite3.0-ThreadId2768",
      "quasar1.1-ThreadId2372"
    ],
    "sig": [
      "SystemCall @ SystemCall:NtOpenKeyEx",
      "SystemCall @ SystemCall:NtSetInformationKey",
      "RegistrySetInformation @ KeyName:",
      "SystemCall @ SystemCall:NtQueryValueKey",
      "SystemCall @ SystemCall:NtAllocateVirtualMemory",
      "FileIoRead @ FileName:",
      "DiskIoDrvMjFnCall @ MajorFunction:3",
      "SystemCall @ SystemCall:NtAllocateVirtualMemory",
      "SystemCall @ SystemCall:NtFreeVirtualMemory",
      "SystemCall @ SystemCall:NtAllocateVirtualMemory",
      "DiskIoDrvMjFnCall @ MajorFunction:3",
      "SystemCall @ SystemCall:NtFreeVirtualMemory",
      "SystemCall @ SystemCall:NtAllocateVirtualMemory",
      "DiskIoDrvMjFnCall @ MajorFunction:0",
      "DiskIoDrvMjFnCall @ MajorFunction:18",
      "DiskIoDrvMjFnCall @ MajorFunction:2",
      "DiskIoDrvMjFnCall @ MajorFunction:0",
      "DiskIoDrvMjFnCall @ MajorFunction:12",
      "DiskIoDrvMjFnCall @ MajorFunction:0",
      "DiskIoDrvMjFnCall @ MajorFunction:18",
      "DiskIoDrvMjFnCall @ MajorFunction:2",
      "DiskIoDrvMjFnCall @ MajorFunction:12",
      "DiskIoDrvMjFnCall @ MajorFunction:18",
      "DiskIoDrvMjFnCall @ MajorFunction:2",
      "DiskIoDrvMjFnCall @ MajorFunction:4"
    ],
    "windowsize": 179,
    "coverage": 0.08,
    "falsePositiveShare": 0.034482758620689655
  },
  {
    "traces": [
      "novalite3.0-ThreadId2768",
      "turkojan4.0-ThreadId2324"
    ],
    "sig": [
      "DiskIoDrvMjFnCall @ MajorFunction:18",
      "DiskIoDrvMjFnCall @ MajorFunction:2",
      "DiskIoDrvMjFnCall @ MajorFunction:4",
      "SystemCall @ SystemCall:NtUserCreateWindowEx",
      "SystemCall @ SystemCall:NtUserQueryWindow",
      "SystemCall @ SystemCall:NtUserGetProp",
      "SystemCall @ SystemCall:NtUserQueryWindow",
      "SystemCall @ SystemCall:NtCallbackReturn",
      "SystemCall @ SystemCall:NtUserQueryWindow",
      "SystemCall @ SystemCall:NtUserGetProp",
      "SystemCall @ SystemCall:NtUserSetProp",
      "SystemCall @ SystemCall:NtCallbackReturn",
      "SystemCall @ SystemCall:NtUserQueryWindow",
      "SystemCall @ SystemCall:NtUserGetProp",
      "SystemCall @ SystemCall:NtCallbackReturn",
      "SystemCall @ SystemCall:NtUserDestroyWindow",
      "SystemCall @ SystemCall:NtCallbackReturn",
      "SystemCall @ SystemCall:NtUserQueryWindow",
      "SystemCall @ SystemCall:NtUserGetProp",
      "SystemCall @ SystemCall:NtUserRemoveProp",
      "SystemCall @ SystemCall:NtUserGetProp",
      "SystemCall @ SystemCall:NtUserQueryWindow",
      "SystemCall @ SystemCall:NtUserGetProp",
      "SystemCall @ SystemCall:NtUserRemoveProp",
      "SystemCall @ SystemCall:NtCallbackReturn"
    ],
    "windowsize": 94,
    "coverage": 0.12,
    "falsePositiveShare": 0.10344827586206896
  },
  {
    "traces": [
      "Paradox",
      "turkojan4.0-ThreadId2324"
    ],
    "sig": [
      "SystemCall @ SystemCall:NtAllocateVirtualMemory",
      "DiskIoDrvMjFnCall @ MajorFunction:2",
      "DiskIoDrvMjFnCall @ MajorFunction:20",
      "DiskIoDrvMjFnCall @ MajorFunction:5",
      "DiskIoDrvMjFnCall @ MajorFunction:18",
      "DiskIoDrvMjFnCall @ MajorFunction:2",
      "DiskIoDrvMjFnCall @ MajorFunction:0",
      "DiskIoDrvMjFnCall @ MajorFunction:18",
      "DiskIoDrvMjFnCall @ MajorFunction:2",
      "DiskIoDrvMjFnCall @ MajorFunction:4",
      "DiskIoDrvMjFnCall @ MajorFunction:0",
      "DiskIoDrvMjFnCall @ MajorFunction:18",
      "DiskIoDrvMjFnCall @ MajorFunction:2",
      "DiskIoDrvMjFnCall @ MajorFunction:0",
      "DiskIoDrvMjFnCall @ MajorFunction:12",
      "DiskIoDrvMjFnCall @ MajorFunction:0",
      "DiskIoDrvMjFnCall @ MajorFunction:18",
      "DiskIoDrvMjFnCall @ MajorFunction:2",
      "DiskIoDrvMjFnCall @ MajorFunction:12",
      "DiskIoDrvMjFnCall @ MajorFunction:18",
      "DiskIoDrvMjFnCall @ MajorFunction:2",
      "DiskIoDrvMjFnCall @ MajorFunction:0",
      "DiskIoDrvMjFnCall @ MajorFunction:18",
      "DiskIoDrvMjFnCall @ MajorFunction:2",
      "DiskIoDrvMjFnCall @ MajorFunction:4"
    ],
    "windowsize": 156,
    "coverage": 0.08,
    "falsePositiveShare": 0.06896551724137931
  },
  {
    "traces": [
      "turkojan4.0-ThreadId2324",
      "quasar1.1-ThreadId2372"
    ],
    "sig": [
      "SystemCall @ SystemCall:NtCreateThreadEx",
      "SystemCall @ SystemCall:NtAllocateVirtualMemory",
      "SystemCall @ SystemCall:NtProtectVirtualMemory",
      "SystemCall @ SystemCall:NtResumeThread",
      "DiskIoDrvMjFnCall @ MajorFunction:2",
      "DiskIoDrvMjFnCall @ MajorFunction:0",
      "DiskIoDrvMjFnCall @ MajorFunction:18",
      "DiskIoDrvMjFnCall @ MajorFunction:2",
      "DiskIoDrvMjFnCall @ MajorFunction:4",
      "DiskIoDrvMjFnCall @ MajorFunction:6",
      "DiskIoDrvMjFnCall @ MajorFunction:0",
      "DiskIoDrvMjFnCall @ MajorFunction:18",
      "DiskIoDrvMjFnCall @ MajorFunction:2",
      "DiskIoDrvMjFnCall @ MajorFunction:0",
      "DiskIoDrvMjFnCall @ MajorFunction:12",
      "DiskIoDrvMjFnCall @ MajorFunction:0",
      "DiskIoDrvMjFnCall @ MajorFunction:18",
      "DiskIoDrvMjFnCall @ MajorFunction:2",
      "DiskIoDrvMjFnCall @ MajorFunction:12",
      "DiskIoDrvMjFnCall @ MajorFunction:18",
      "DiskIoDrvMjFnCall @ MajorFunction:2",
      "DiskIoDrvMjFnCall @ MajorFunction:0",
      "DiskIoDrvMjFnCall @ MajorFunction:18",
      "DiskIoDrvMjFnCall @ MajorFunction:2",
      "DiskIoDrvMjFnCall @ MajorFunction:4"
    ],
    "windowsize": 249,
    "coverage": 0.12,
    "falsePositiveShare": 0.06896551724137931
  },
  {
    "traces": [
      "turkojan4.0-ThreadId2324",
      "quasar1.1-ThreadId2372"
    ],
    "sig": [
      "DiskIoDrvMjFnCall @ MajorFunction:18",
      "DiskIoDrvMjFnCall @ MajorFunction:2",
      "DiskIoDrvMjFnCall @ MajorFunction:5",
      "DiskIoDrvMjFnCall @ MajorFunction:18",
      "DiskIoDrvMjFnCall @ MajorFunction:2",
      "DiskIoDrvMjFnCall @ MajorFunction:0",
      "DiskIoDrvMjFnCall @ MajorFunction:18",
      "DiskIoDrvMjFnCall @ MajorFunction:2",
      "DiskIoDrvMjFnCall @ MajorFunction:4",
      "DiskIoDrvMjFnCall @ MajorFunction:6",
      "DiskIoDrvMjFnCall @ MajorFunction:0",
      "DiskIoDrvMjFnCall @ MajorFunction:18",
      "DiskIoDrvMjFnCall @ MajorFunction:2",
      "DiskIoDrvMjFnCall @ MajorFunction:0",
      "DiskIoDrvMjFnCall @ MajorFunction:12",
      "DiskIoDrvMjFnCall @ MajorFunction:0",
      "DiskIoDrvMjFnCall @ MajorFunction:18",
      "DiskIoDrvMjFnCall @ MajorFunction:2",
      "DiskIoDrvMjFnCall @ MajorFunction:12",
      "DiskIoDrvMjFnCall @ MajorFunction:18",
      "DiskIoDrvMjFnCall @ MajorFunction:2",
      "DiskIoDrvMjFnCall @ MajorFunction:0",
      "DiskIoDrvMjFnCall @ MajorFunction:18",
      "DiskIoDrvMjFnCall @ MajorFunction:2",
      "DiskIoDrvMjFnCall @ MajorFunction:4"
    ],
    "windowsize": 99,
    "coverage": 0.08,
    "falsePositiveShare": 0.06896551724137931
  },
  {
    "traces": [
      "turkojan4.0-ThreadId2324",
      "quasar1.1-ThreadId2372"
    ],
    "sig": [
      "SystemCall @ SystemCall:NtCreateThreadEx",
      "SystemCall @ SystemCall:NtAllocateVirtualMemory",
      "SystemCall @ SystemCall:NtProtectVirtualMemory",
      "SystemCall @ SystemCall:NtResumeThread",
      "SystemCall @ SystemCall:NtAllocateVirtualMemory",
      "DiskIoDrvMjFnCall @ MajorFunction:0",
      "DiskIoDrvMjFnCall @ MajorFunction:18",
      "DiskIoDrvMjFnCall @ MajorFunction:2",
      "DiskIoDrvMjFnCall @ MajorFunction:4",
      "DiskIoDrvMjFnCall @ MajorFunction:6",
      "DiskIoDrvMjFnCall @ MajorFunction:0",
      "DiskIoDrvMjFnCall @ MajorFunction:18",
      "DiskIoDrvMjFnCall @ MajorFunction:2",
      "DiskIoDrvMjFnCall @ MajorFunction:0",
      "DiskIoDrvMjFnCall @ MajorFunction:12",
      "DiskIoDrvMjFnCall @ MajorFunction:0",
      "DiskIoDrvMjFnCall @ MajorFunction:18",
      "DiskIoDrvMjFnCall @ MajorFunction:2",
      "DiskIoDrvMjFnCall @ MajorFunction:12",
      "DiskIoDrvMjFnCall @ MajorFunction:18",
      "DiskIoDrvMjFnCall @ MajorFunction:2",
      "DiskIoDrvMjFnCall @ MajorFunction:0",
      "DiskIoDrvMjFnCall @ MajorFunction:18",
      "DiskIoDrvMjFnCall @ MajorFunction:2",
      "DiskIoDrvMjFnCall @ MajorFunction:4"
    ],
    "windowsize": 249,
    "coverage": 0.12,
    "falsePositiveShare": 0.06896551724137931
  },
  {
    "traces": [
      "NamoCore1220",
      "quasar1.1-ThreadId2372"
    ],
    "sig": [
      "SystemCall @ SystemCall:NtAllocateVirtualMemory",
      "SystemCall @ SystemCall:NtFlushInstructionCache",
      "SystemCall @ SystemCall:NtQuerySystemInformation",
      "SystemCall @ SystemCall:NtQueryInformationProcess",
      "SystemCall @ SystemCall:NtAllocateVirtualMemory",
      "SystemCall @ SystemCall:NtFlushInstructionCache",
      "SystemCall @ SystemCall:NtAllocateVirtualMemory",
      "SystemCall @ SystemCall:NtGdiCreateDIBSection",
      "SystemCall @ SystemCall:NtAllocateVirtualMemory",
      "SystemCall @ SystemCall:NtGdiSelectBitmap",
      "SystemCall @ SystemCall:NtFreeVirtualMemory",
      "SystemCall @ SystemCall:NtGdiDeleteObjectApp",
      "SystemCall @ SystemCall:NtFreeVirtualMemory",
      "SystemCall @ SystemCall:NtGdiCreateDIBSection",
      "SystemCall @ SystemCall:NtAllocateVirtualMemory",
      "SystemCall @ SystemCall:NtGdiSelectBitmap",
      "SystemCall @ SystemCall:NtGdiDeleteObjectApp",
      "SystemCall @ SystemCall:NtFreeVirtualMemory",
      "SystemCall @ SystemCall:NtAllocateVirtualMemory",
      "SystemCall @ SystemCall:NtUserGetDC",
      "SystemCall @ SystemCall:NtGdiGetDeviceCaps",
      "SystemCall @ SystemCall:NtGdiCreateDIBSection",
      "SystemCall @ SystemCall:NtAllocateVirtualMemory",
      "SystemCall @ SystemCall:NtGdiSelectBitmap",
      "SystemCall @ SystemCall:NtUserGetDC",
      "SystemCall @ SystemCall:NtGdiGetDeviceCaps",
      "SystemCall @ SystemCall:NtGdiDeleteObjectApp",
      "SystemCall @ SystemCall:NtFreeVirtualMemory"
    ],
    "windowsize": 282,
    "coverage": 0.28,
    "falsePositiveShare": 0.034482758620689655
  },
  {
    "traces": [
      "pupy-ThreadId1368",
      "turkojan4.0-ThreadId2324"
    ],
    "sig": [
      "SystemCall @ SystemCall:NtQueryInformationProcess",
      "RegistryOpen @ KeyName:SQMServiceList",
      "RegistryQueryValue @ KeyName:SQMServiceList",
      "FileIoCreate @ FileName:MMDevAPI.DLL",
      "FileIoQueryInfo @ FileName:MMDevAPI.DLL",
      "SystemCall @ SystemCall:NtOpenFile",
      "FileIoCreate @ FileName:MMDevAPI.DLL",
      "ImageLoad @ FileName:MMDevAPI.dll",
      "SystemCall @ SystemCall:NtProtectVirtualMemory",
      "FileIoCreate @ FileName:PROPSYS.dll",
      "FileIoQueryInfo @ FileName:PROPSYS.dll",
      "SystemCall @ SystemCall:NtOpenFile",
      "FileIoCreate @ FileName:PROPSYS.dll",
      "ImageLoad @ FileName:propsys.dll",
      "SystemCall @ SystemCall:NtProtectVirtualMemory",
      "RegistryOpen @ KeyName:DRIVERS32",
      "RegistryQueryValue @ KeyName:wave",
      "RegistryQueryValue @ KeyName:midi",
      "SystemCall @ SystemCall:NtQueryInformationProcess",
      "FileIoCreate @ FileName:@DeviceFile",
      "FileIoQueryInfo @ FileName:@DeviceFile",
      "SystemCall @ SystemCall:NtOpenFile",
      "FileIoCreate @ FileName:@DeviceFile",
      "ImageLoad @ FileName:@DeviceFile",
      "SystemCall @ SystemCall:NtProtectVirtualMemory",
      "FileIoCreate @ FileName:ksuser.dll",
      "FileIoQueryInfo @ FileName:ksuser.dll",
      "SystemCall @ SystemCall:NtOpenFile",
      "FileIoCreate @ FileName:ksuser.dll",
      "ImageLoad @ FileName:ksuser.dll",
      "SystemCall @ SystemCall:NtProtectVirtualMemory",
      "FileIoCreate @ FileName:AVRT.dll",
      "FileIoQueryInfo @ FileName:AVRT.dll",
      "SystemCall @ SystemCall:NtOpenFile",
      "FileIoCreate @ FileName:AVRT.dll",
      "ImageLoad @ FileName:avrt.dll",
      "SystemCall @ SystemCall:NtProtectVirtualMemory",
      "SystemCall @ SystemCall:NtQueryInformationProcess",
      "RegistryQueryValue @ KeyName:midi",
      "RegistryOpen @ KeyName:Winmm",
      "RegistryQueryValue @ KeyName:wheel",
      "RegistryOpen @ KeyName:DRIVERS32",
      "RegistryQueryValue @ KeyName:wave",
      "RegistryQueryValue @ KeyName:@DeviceFile",
      "FileIoCreate @ FileName:@DeviceFile",
      "FileIoQueryInfo @ FileName:@DeviceFile",
      "FileIoCreate @ FileName:@DeviceFile",
      "SystemCall @ SystemCall:NtQueryInformationProcess",
      "ImageLoad @ FileName:setupapi.dll",
      "SystemCall @ SystemCall:NtProtectVirtualMemory",
      "ImageLoad @ FileName:cfgmgr32.dll",
      "SystemCall @ SystemCall:NtProtectVirtualMemory",
      "ImageLoad @ FileName:devobj.dll",
      "SystemCall @ SystemCall:NtProtectVirtualMemory",
      "SystemCall @ SystemCall:NtQueryVirtualMemory",
      "RegistryQueryValue @ KeyName:SourcePath",
      "RegistryQueryValue @ KeyName:DevicePath",
      "SystemCall @ SystemCall:NtQuerySystemInformation",
      "SystemCall @ SystemCall:NtQueryInformationProcess",
      "RegistryQueryValue @ KeyName:SystemSetupInProgress",
      "SystemCall @ SystemCall:NtQueryInformationProcess",
      "RegistryQueryValue @ KeyName:@DeviceFile",
      "FileIoCreate @ FileName:@DeviceFile",
      "FileIoQueryInfo @ FileName:@DeviceFile",
      "FileIoCreate @ FileName:@DeviceFile",
      "SystemCall @ SystemCall:NtQueryInformationProcess",
      "SystemCall @ SystemCall:NtQueryVirtualMemory",
      "SystemCall @ SystemCall:NtQueryInformationProcess",
      "RegistryOpen @ KeyName:Properties",
      "SystemCall @ SystemCall:NtAllocateVirtualMemory",
      "RegistryOpen @ KeyName:Properties",
      "SystemCall @ SystemCall:NtQueryVirtualMemory",
      "RegistryOpen @ KeyName:Properties",
      "FileIoCreate @ FileName:AUDIOSES.DLL",
      "FileIoQueryInfo @ FileName:AUDIOSES.DLL",
      "SystemCall @ SystemCall:NtOpenFile",
      "FileIoCreate @ FileName:AUDIOSES.DLL",
      "ImageLoad @ FileName:AudioSes.dll",
      "SystemCall @ SystemCall:NtProtectVirtualMemory",
      "SystemCall @ SystemCall:NtAllocateVirtualMemory",
      "SystemCall @ SystemCall:NtQueryVirtualMemory",
      "RegistryOpen @ KeyName:Properties",
      "SystemCall @ SystemCall:NtQueryVirtualMemory",
      "RegistryQueryValue @ KeyName:@DeviceFile",
      "FileIoCreate @ FileName:@DeviceFile",
      "FileIoQueryInfo @ FileName:@DeviceFile",
      "FileIoCreate @ FileName:@DeviceFile",
      "SystemCall @ SystemCall:NtQueryInformationProcess",
      "RegistryOpen @ KeyName:Properties",
      "SystemCall @ SystemCall:NtQueryVirtualMemory",
      "RegistryOpen @ KeyName:MIDIMap",
      "RegistryQueryValue @ KeyName:wavemapper",
      "SystemCall @ SystemCall:NtQueryInformationProcess",
      "FileIoCreate @ FileName:@DeviceFile",
      "FileIoQueryInfo @ FileName:@DeviceFile",
      "SystemCall @ SystemCall:NtOpenFile",
      "FileIoCreate @ FileName:@DeviceFile",
      "ImageLoad @ FileName:@DeviceFile",
      "SystemCall @ SystemCall:NtProtectVirtualMemory",
      "SystemCall @ SystemCall:NtQueryInformationProcess",
      "RegistryQueryValue @ KeyName:wavemapper",
      "RegistryQueryValue @ KeyName:midimapper",
      "SystemCall @ SystemCall:NtQueryInformationProcess",
      "FileIoCreate @ FileName:midimap.dll",
      "FileIoQueryInfo @ FileName:midimap.dll",
      "SystemCall @ SystemCall:NtOpenFile",
      "FileIoCreate @ FileName:midimap.dll",
      "ImageLoad @ FileName:midimap.dll",
      "SystemCall @ SystemCall:NtProtectVirtualMemory",
      "SystemCall @ SystemCall:NtQueryInformationProcess",
      "RegistryQueryValue @ KeyName:midimapper",
      "SystemCall @ SystemCall:NtQueryInformationProcess"
    ],
    "windowsize": 1224,
    "coverage": 0.08,
    "falsePositiveShare": 0.1724137931034483
  }
]