RegistryQueryValue @ KeyName:@DeviceFile 0.875 0.043478260869565216 0.8315217391304348
RegistryOpen @ KeyName:DRIVERS32 0.875 0.043478260869565216 0.8315217391304348
ImageLoad @ FileName:midimap.dll 0.875 0.043478260869565216 0.8315217391304348
RegistryQueryValue @ KeyName:wheel 0.875 0.043478260869565216 0.8315217391304348
RegistryQueryValue @ KeyName:midimapper 0.875 0.043478260869565216 0.8315217391304348
RegistryOpen @ KeyName:MIDIMap 0.875 0.043478260869565216 0.8315217391304348
FileIoQueryInfo @ FileName:midimap.dll 0.875 0.043478260869565216 0.8315217391304348
FileIoQueryInfo @ FileName:MMDevAPI.DLL 0.875 0.043478260869565216 0.8315217391304348
RegistryQueryValue @ KeyName:midi 0.875 0.043478260869565216 0.8315217391304348
RegistryOpen @ KeyName:Winmm 0.875 0.043478260869565216 0.8315217391304348
FileIoCreate @ FileName:midimap.dll 0.875 0.043478260869565216 0.8315217391304348
FileIoCreate @ FileName:@DeviceFile 0.875 0.043478260869565216 0.8315217391304348
FileIoCreate @ FileName:MMDevAPI.DLL 0.875 0.043478260869565216 0.8315217391304348
RegistryQueryValue @ KeyName:wave 0.875 0.043478260869565216 0.8315217391304348
RegistryQueryValue @ KeyName:wavemapper 0.875 0.043478260869565216 0.8315217391304348
ImageLoad @ FileName:AudioSes.dll 0.875 0.08695652173913043 0.7880434782608696
FileIoCreate @ FileName:AVRT.dll 0.875 0.08695652173913043 0.7880434782608696
ImageLoad @ FileName:avrt.dll 0.875 0.08695652173913043 0.7880434782608696
FileIoCreate @ FileName:ksuser.dll 0.875 0.08695652173913043 0.7880434782608696
FileIoQueryInfo @ FileName:AUDIOSES.DLL 0.875 0.08695652173913043 0.7880434782608696
FileIoQueryInfo @ FileName:@DeviceFile 0.875 0.08695652173913043 0.7880434782608696
ImageLoad @ FileName:MMDevAPI.dll 0.875 0.08695652173913043 0.7880434782608696
ImageLoad @ FileName:ksuser.dll 0.875 0.08695652173913043 0.7880434782608696
FileIoQueryInfo @ FileName:AVRT.dll 0.875 0.08695652173913043 0.7880434782608696
FileIoCreate @ FileName:AUDIOSES.DLL 0.875 0.08695652173913043 0.7880434782608696
FileIoQueryInfo @ FileName:ksuser.dll 0.875 0.08695652173913043 0.7880434782608696
RegistryOpen @ KeyName:Properties 0.875 0.08695652173913043 0.7880434782608696
ImageLoad @ FileName:@DeviceFile 0.875 0.13043478260869565 0.7445652173913043
SystemCall @ SystemCall:NtSetInformationObject 0.875 0.13043478260869565 0.7445652173913043
RegistryQueryValue @ KeyName:msacm.imaadpcm 0.625 0.0 0.625
RegistryCreate @ KeyName:Priority v4.00 0.625 0.0 0.625
RegistryQueryValue @ KeyName:aFormatTagCache 0.625 0.0 0.625
RegistryQueryValue @ KeyName:msacm.l3acm 0.625 0.0 0.625
RegistryQueryValue @ KeyName:cFilterTags 0.625 0.0 0.625
RegistryKCBCreate @ KeyName:Winmm 0.625 0.0 0.625
RegistryQueryValue @ KeyName:NoPCMConverter 0.625 0.0 0.625
RegistryQueryValue @ KeyName:msacm.msg711 0.625 0.0 0.625
RegistryOpen @ KeyName:acm 0.625 0.0 0.625
RegistryOpen @ KeyName:DriverCache 0.625 0.0 0.625
RegistryOpen @ KeyName:msacm.msg711 0.625 0.0 0.625
RegistryQueryValue @ KeyName:msacm.msadpcm 0.625 0.0 0.625
RegistryOpen @ KeyName:msacm.msgsm610 0.625 0.0 0.625
RegistryOpen @ KeyName:msacm.imaadpcm 0.625 0.0 0.625
RegistryOpen @ KeyName:msacm.l3acm 0.625 0.0 0.625
RegistryOpen @ KeyName:Drivers32 0.625 0.0 0.625
RegistryQueryValue @ KeyName:cFormatTags 0.625 0.0 0.625
RegistryQueryValue @ KeyName:Priority1 0.625 0.0 0.625
RegistryCreate @ KeyName:Audio Compression Manager 0.625 0.0 0.625
RegistryQueryValue @ KeyName:fdwSupport 0.625 0.0 0.625
RegistryQueryValue @ KeyName:msacm.msgsm610 0.625 0.0 0.625
RegistryCreate @ KeyName:MSACM 0.625 0.0 0.625
RegistryOpen @ KeyName:msacm.msadpcm 0.625 0.0 0.625
RegistryOpen @ KeyName:SQMServiceList 0.75 0.13043478260869565 0.6195652173913043
RegistryQueryValue @ KeyName:SQMServiceList 0.75 0.13043478260869565 0.6195652173913043
SystemCall @ SystemCall:NtSetTimer 0.875 0.34782608695652173 0.5271739130434783
RegistryKCBCreate @ KeyName:msacm.msadpcm 0.5 0.0 0.5
RegistryKCBCreate @ KeyName:Priority v4.00 0.5 0.0 0.5
RegistryKCBCreate @ KeyName:msacm.msgsm610 0.5 0.0 0.5
RegistryKCBCreate @ KeyName:MSACM 0.5 0.0 0.5
RegistryKCBCreate @ KeyName:msacm.imaadpcm 0.5 0.0 0.5
RegistryKCBCreate @ KeyName:msacm.l3acm 0.5 0.0 0.5
RegistryKCBCreate @ KeyName:msacm.msg711 0.5 0.0 0.5
RegistryQueryValue @ KeyName:SystemSetupInProgress 0.75 0.2608695652173913 0.4891304347826087
SystemCall @ SystemCall:NtAlpcConnectPort 0.875 0.43478260869565216 0.44021739130434784
SystemCall @ SystemCall:NtCreateThreadEx 1.0 0.5652173913043478 0.4347826086956522
SystemCall @ SystemCall:NtUserGetProcessWindowStation 0.75 0.34782608695652173 0.40217391304347827
SystemCall @ SystemCall:NtResumeThread 1.0 0.6086956521739131 0.3913043478260869
SystemCall @ SystemCall:NtTerminateThread 0.5 0.13043478260869565 0.3695652173913043
RegistryOpen @ KeyName:Setup 0.75 0.391304347826087 0.358695652173913
RegistryQueryValue @ KeyName:XXX 0.875 0.5217391304347826 0.3532608695652174
FileIoQueryInfo @ FileName:PROPSYS.dll 0.5 0.17391304347826086 0.32608695652173914
RegistryQueryValue @ KeyName:SafeProcessSearchMode 0.625 0.30434782608695654 0.32065217391304346
SystemCall @ SystemCall:NtTraceControl 0.875 0.5652173913043478 0.3097826086956522
SystemCall @ SystemCall:NtOpenEvent 0.875 0.5652173913043478 0.3097826086956522
FileIoQueryInfo @ FileName:@LanguageFile 0.875 0.5652173913043478 0.3097826086956522
SystemCall @ SystemCall:NtProtectVirtualMemory 1.0 0.6956521739130435 0.30434782608695654
FileIoCreate @ FileName:PROPSYS.dll 0.5 0.21739130434782608 0.28260869565217395
SystemCall @ SystemCall:NtUserRegisterWindowMessage 0.875 0.6086956521739131 0.2663043478260869
SystemCall @ SystemCall:NtCreateMutant 0.875 0.6086956521739131 0.2663043478260869
RegistryQueryValue @ KeyName:waveaudio 0.25 0.0 0.25
ImageLoad @ FileName:mciwave.dll 0.25 0.0 0.25
RegistryKCBCreate @ KeyName:Joystick 0.25 0.0 0.25
RegistryKCBCreate @ KeyName:MCI32 0.25 0.0 0.25
RegistryKCBCreate @ KeyName:PrivateProperties 0.25 0.0 0.25
FileIoCreate @ FileName:#96.mci 0.25 0.0 0.25
RegistryOpen @ KeyName:MCI32 0.25 0.0 0.25
FileIoRead @ FileName:mciwave.dll 0.25 0.0 0.25
FileIoQueryInfo @ FileName:mciwave.dll 0.25 0.0 0.25
FileIoCreate @ FileName:en-US 0.25 0.0 0.25
RegistryKCBCreate @ KeyName:MediaProperties 0.25 0.0 0.25
RegistryKCBCreate @ KeyName:Control 0.25 0.0 0.25
FileIoCreate @ FileName:mciwave.dll 0.25 0.0 0.25
ImageLoad @ FileName:cfgmgr32.dll 0.375 0.13043478260869565 0.24456521739130435
ImageLoad @ FileName:devobj.dll 0.375 0.13043478260869565 0.24456521739130435
RegistryQueryValue @ KeyName:SourcePath 0.375 0.13043478260869565 0.24456521739130435
RegistryQueryValue @ KeyName:DevicePath 0.375 0.13043478260869565 0.24456521739130435
ImageLoad @ FileName:setupapi.dll 0.375 0.13043478260869565 0.24456521739130435
ImageLoad @ FileName:propsys.dll 0.5 0.2608695652173913 0.2391304347826087
SystemCall @ SystemCall:NtOpenProcess 0.875 0.6521739130434783 0.22282608695652173
ImageLoad @ FileName:msacm32.dll 0.25 0.043478260869565216 0.20652173913043478
RegistryKCBCreate @ KeyName:SQMServiceList 0.25 0.043478260869565216 0.20652173913043478
FileIoCreate @ FileName:MSACM32.dll 0.25 0.043478260869565216 0.20652173913043478
FileIoQueryInfo @ FileName:MSACM32.dll 0.25 0.043478260869565216 0.20652173913043478
SystemCall @ SystemCall:NtWaitForMultipleObjects32 0.75 0.5652173913043478 0.18478260869565222
SystemCall @ SystemCall:NtSetInformationThread 0.875 0.6956521739130435 0.17934782608695654
SystemCall @ SystemCall:NtOpenSection 0.875 0.6956521739130435 0.17934782608695654
FileIoCreate @ FileName:@LanguageFile 0.875 0.6956521739130435 0.17934782608695654
SystemCall @ SystemCall:NtCreateKey 0.625 0.4782608695652174 0.1467391304347826
SystemCall @ SystemCall:NtCreateSection 0.875 0.7391304347826086 0.13586956521739135
SystemCall @ SystemCall:NtOpenFile 0.875 0.7391304347826086 0.13586956521739135
SystemCall @ SystemCall:NtQueryObject 0.875 0.7391304347826086 0.13586956521739135
SystemCall @ SystemCall:NtSetInformationKey 0.875 0.7391304347826086 0.13586956521739135
SystemCall @ SystemCall:NtQuerySection 0.875 0.7391304347826086 0.13586956521739135
SystemCall @ SystemCall:NtCreateFile 0.875 0.7391304347826086 0.13586956521739135
ALPC_SEN @ ProcessName:@ExecutableFile 1.0 0.8695652173913043 0.13043478260869568
SystemCall @ SystemCall:NtAllocateVirtualMemory 1.0 0.8695652173913043 0.13043478260869568
SystemCall @ SystemCall:NtUserGetObjectInformation 0.75 0.6521739130434783 0.09782608695652173
SystemCall @ SystemCall:NtQueryVirtualMemory 0.875 0.782608695652174 0.09239130434782605
SystemCall @ SystemCall:NtQueryValueKey 0.875 0.782608695652174 0.09239130434782605
SystemCall @ SystemCall:NtOpenKeyEx 0.875 0.782608695652174 0.09239130434782605
SystemCall @ SystemCall:NtQueryKey 0.875 0.782608695652174 0.09239130434782605
SystemCall @ SystemCall:NtMapViewOfSection 0.875 0.782608695652174 0.09239130434782605
SystemCall @ SystemCall:NtQueryAttributesFile 0.875 0.782608695652174 0.09239130434782605
SystemCall @ SystemCall:NtCallbackReturn 0.875 0.782608695652174 0.09239130434782605
RegistryQueryValue @ KeyName:NdrOleExtDLL 0.375 0.30434782608695654 0.07065217391304346
SystemCall @ SystemCall:NtQuerySystemInformation 0.75 0.6956521739130435 0.05434782608695654
RegistryOpen @ KeyName:XXX 0.875 0.8260869565217391 0.048913043478260865
SystemCall @ SystemCall:NtQueryInformationProcess 0.875 0.8260869565217391 0.048913043478260865
ALPC_REC @ ProcessName:@ExecutableFile 0.875 0.8260869565217391 0.048913043478260865
SystemCall @ SystemCall:NtUserPostThreadMessage 0.375 0.34782608695652173 0.02717391304347827
RegistryOpen @ KeyName:Extensions 0.375 0.34782608695652173 0.02717391304347827
RegistrySetInformation @ KeyName: 0.875 0.8695652173913043 0.005434782608695676
SystemCall @ SystemCall:NtFlushInstructionCache 0.25 0.2608695652173913 -0.010869565217391297
SystemCall @ SystemCall:NtMapCMFModule 0.25 0.2608695652173913 -0.010869565217391297
SystemCall @ SystemCall:NtEnumerateValueKey 0.625 0.6521739130434783 -0.02717391304347827
RegistryQuery @ KeyName: 0.875 0.9130434782608695 -0.03804347826086951
FileIoQueryInfo @ FileName: 0.25 0.30434782608695654 -0.05434782608695654
SystemCall @ SystemCall:NtAccessCheck 0.375 0.43478260869565216 -0.05978260869565216
SystemCall @ SystemCall:NtUserGetClassInfoEx 0.5 0.5652173913043478 -0.06521739130434778
SystemCall @ SystemCall:NtOpenProcessToken 0.625 0.6956521739130435 -0.07065217391304346
FileIoCreate @ FileName:SysWOW64 0.25 0.34782608695652173 -0.09782608695652173
FileIoRead @ FileName:@LanguageFile 0.25 0.34782608695652173 -0.09782608695652173
RegistryEnumerateValueKey @ KeyName: 0.625 0.7391304347826086 -0.11413043478260865
SystemCall @ SystemCall:NtDuplicateToken 0.375 0.5652173913043478 -0.19021739130434778
RegistryOpen @ KeyName:CurrentVersion 0.375 0.5652173913043478 -0.19021739130434778
SystemCall @ SystemCall:NtOpenKey 0.375 0.5652173913043478 -0.19021739130434778
SystemCall @ SystemCall:NtUserRemoveProp 0.5 0.6956521739130435 -0.19565217391304346
SystemCall @ SystemCall:NtUserSetProp 0.5 0.6956521739130435 -0.19565217391304346
SystemCall @ SystemCall:NtUserCreateWindowEx 0.5 0.6956521739130435 -0.19565217391304346
SystemCall @ SystemCall:NtUserQueryWindow 0.5 0.6956521739130435 -0.19565217391304346
SystemCall @ SystemCall:NtUserDestroyWindow 0.5 0.6956521739130435 -0.19565217391304346
SystemCall @ SystemCall:NtFreeVirtualMemory 0.625 0.8260869565217391 -0.20108695652173914
SystemCall @ SystemCall:NtUserUpdateInputContext 0.25 0.4782608695652174 -0.2282608695652174
SystemCall @ SystemCall:NtReadFile 0.5 0.7391304347826086 -0.23913043478260865
SystemCall @ SystemCall:NtUserSetWindowLongPtr 0.5 0.7391304347826086 -0.23913043478260865
SystemCall @ SystemCall:NtUserGetProp 0.5 0.7391304347826086 -0.23913043478260865
SystemCall @ SystemCall:NtLockFile 0.25 0.5217391304347826 -0.2717391304347826
SystemCall @ SystemCall:NtUserSetWindowFNID 0.25 0.5217391304347826 -0.2717391304347826
SystemCall @ SystemCall:NtUnlockFile 0.25 0.5217391304347826 -0.2717391304347826
SystemCall @ SystemCall:NtUserBuildHwndList 0.375 0.6521739130434783 -0.27717391304347827
SystemCall @ SystemCall:NtQueryDirectoryFile 0.5 0.782608695652174 -0.28260869565217395
SystemCall @ SystemCall:NtUserGetImeInfoEx 0.25 0.5652173913043478 -0.3152173913043478
FileIoRead @ FileName: 0.5 0.8260869565217391 -0.32608695652173914
DiskIoDrvMjFnCall @ MajorFunction:4 0.5 0.8695652173913043 -0.3695652173913043
FileIoQueryInfo @ FileName:@ConfigurationFile 0.25 0.6521739130434783 -0.40217391304347827
FileIoRead @ FileName:@ConfigurationFile 0.25 0.6521739130434783 -0.40217391304347827
SystemCall @ SystemCall:NtUnmapViewOfSection 0.375 0.782608695652174 -0.40760869565217395
DiskIoDrvMjFnCall @ MajorFunction:12 0.5 0.9130434782608695 -0.4130434782608695
DiskIoDrvMjFnCall @ MajorFunction:0 0.5 0.9565217391304348 -0.4565217391304348
DiskIoDrvMjFnCall @ MajorFunction:18 0.5 0.9565217391304348 -0.4565217391304348
DiskIoDrvMjFnCall @ MajorFunction:3 0.5 0.9565217391304348 -0.4565217391304348
DiskIoDrvMjFnCall @ MajorFunction:2 0.5 0.9565217391304348 -0.4565217391304348
DiskIoDrvMjFnCall @ MajorFunction:5 0.375 0.8695652173913043 -0.4945652173913043
FileIoCreate @ FileName:@ConfigurationFile 0.25 0.782608695652174 -0.532608695652174
