start with: audiorecord_spycronic.json.syscall_args_extracted
matched number: 0
start with: audiorecord_spynet.json.syscall_args_extracted
matched number: 0
start with: njrat0.7@1_AudioRecord.json.syscall_args_extracted
matched number: 0
start with: pandora2.2@1_AudioRecord.json.syscall_args_extracted
matched number: 0
start with: spygate3.2@1_AudioRecord.json.syscall_args_extracted
matched number: 0
start with: all_spygate.txt
{
  "tokenList": [
    {
      "name": "NtOpenKey",
      "parameter": "\\Registry\\MACHINE\\System\\CurrentControlSet\\Control\\Session Manager"
    }
  ]
}
{
  "tokenList": [
    {
      "name": "NtOpenKey",
      "parameter": "\\Registry\\Machine\\Software\\Microsoft\\Windows\\Windows Error Reporting\\WMR"
    }
  ]
}
{
  "tokenList": [
    {
      "name": "NtOpenKey",
      "parameter": "Control Panel\\Desktop\\MuiCached"
    }
  ]
}
{
  "tokenList": [
    {
      "name": "NtOpenKeyEx",
      "parameter": "Software\\Policies\\Microsoft\\Windows NT\\Rpc"
    }
  ]
}
{
  "tokenList": [
    {
      "name": "NtOpenKey",
      "parameter": "\\Registry\\Machine\\Software\\Microsoft\\Windows NT\\CurrentVersion\\GRE_Initialize"
    }
  ]
}
{
  "tokenList": [
    {
      "name": "NtOpenKey",
      "parameter": "Control Panel\\Desktop\\LanguageConfiguration"
    }
  ]
}
{
  "tokenList": [
    {
      "name": "NtOpenKey",
      "parameter": "\\REGISTRY\\USER\\Software\\Policies\\Microsoft\\Windows\\Safer\\CodeIdentifiers"
    }
  ]
}
{
  "tokenList": [
    {
      "name": "NtOpenKey",
      "parameter": "Control Panel\\Desktop\\MuiCached\\MachineLanguageConfiguration"
    }
  ]
}
{
  "tokenList": [
    {
      "name": "NtOpenKey",
      "parameter": "\\Registry\\Machine\\System\\CurrentControlSet\\Control\\Error Message Instrument\\"
    }
  ]
}
{
  "tokenList": [
    {
      "name": "NtOpenKeyEx",
      "parameter": "Software\\Microsoft\\Windows NT\\CurrentVersion\\Diagnostics"
    }
  ]
}
{
  "tokenList": [
    {
      "name": "NtOpenKey",
      "parameter": "Software\\Policies\\Microsoft\\Control Panel\\Desktop"
    }
  ]
}
{
  "tokenList": [
    {
      "name": "NtOpenKey",
      "parameter": "Control Panel\\Desktop"
    }
  ]
}
{
  "tokenList": [
    {
      "name": "NtOpenKeyEx",
      "parameter": "Software\\Microsoft\\Windows\\CurrentVersion\\Explorer\\User Shell Folders"
    }
  ]
}
{
  "tokenList": [
    {
      "name": "NtOpenKeyEx",
      "parameter": "Software\\Microsoft\\Windows NT\\CurrentVersion\\Windows"
    }
  ]
}
{
  "tokenList": [
    {
      "name": "NtOpenFile",
      "parameter": "\\??\\C:\\Users\\zjulist\\Desktop\\"
    },
    {
      "name": "NtOpenFile",
      "parameter": "SspiCli.dll"
    }
  ]
}
{
  "tokenList": [
    {
      "name": "NtOpenKeyEx",
      "parameter": "\\REGISTRY\\USER\\CLSID\\XXX"
    }
  ]
}
{
  "tokenList": [
    {
      "name": "NtOpenKeyEx",
      "parameter": "\\REGISTRY\\USER\\CLSID\\XXX\\TreatAs"
    }
  ]
}
{
  "tokenList": [
    {
      "name": "NtOpenKeyEx",
      "parameter": "\\REGISTRY\\USER\\Drive\\shellex\\FolderExtensions"
    }
  ]
}
{
  "tokenList": [
    {
      "name": "NtOpenKeyEx",
      "parameter": "\\REGISTRY\\USER\\CLSID\\XXX\\InprocServer32"
    }
  ]
}
{
  "tokenList": [
    {
      "name": "NtOpenKeyEx",
      "parameter": "\\REGISTRY\\USER\\CLSID\\XXX\\InprocHandler"
    }
  ]
}
{
  "tokenList": [
    {
      "name": "NtAlpcConnectPort",
      "parameter": "\\RPC Control\\LSARPC_ENDPOINT"
    }
  ]
}
{
  "tokenList": [
    {
      "name": "NtOpenKeyEx",
      "parameter": "\\REGISTRY\\USER\\Drive\\shellex\\FolderExtensions\\XXX"
    }
  ]
}
{
  "tokenList": [
    {
      "name": "NtOpenKeyEx",
      "parameter": "\\REGISTRY\\USER\\CLSID\\XXX\\Progid"
    }
  ]
}
{
  "tokenList": [
    {
      "name": "NtOpenKeyEx",
      "parameter": "Software\\Microsoft\\Windows NT\\CurrentVersion\\ProfileList\\XXX"
    }
  ]
}
{
  "tokenList": [
    {
      "name": "NtOpenKeyEx",
      "parameter": "\\REGISTRY\\USER\\CLSID\\XXX\\InProcServer32"
    }
  ]
}
{
  "tokenList": [
    {
      "name": "NtAlpcConnectPort",
      "parameter": "\\RPC Control\\epmapper"
    }
  ]
}
{
  "tokenList": [
    {
      "name": "NtOpenKeyEx",
      "parameter": "\\REGISTRY\\USER\\CLSID\\XXX\\InprocHandler32"
    }
  ]
}
{
  "tokenList": [
    {
      "name": "NtAlpcConnectPort",
      "parameter": "\\RPC Control\\plugplay"
    }
  ]
}
{
  "tokenList": [
    {
      "name": "NtOpenKeyEx",
      "parameter": "\\REGISTRY\\USER\\Folder"
    }
  ]
}
{
  "tokenList": [
    {
      "name": "NtOpenKeyEx",
      "parameter": "\\REGISTRY\\USER\\Folder\\Clsid"
    }
  ]
}
{
  "tokenList": [
    {
      "name": "NtQueryValueKey",
      "parameter": "XXX 0xFFFF"
    }
  ]
}
{
  "tokenList": [
    {
      "name": "NtOpenKeyEx",
      "parameter": "\\REGISTRY\\USER\\AllFilesystemObjects\\BrowseInPlace"
    }
  ]
}
{
  "tokenList": [
    {
      "name": "NtOpenKeyEx",
      "parameter": "\\REGISTRY\\USER\\CLSID\\XXX\\ShellFolder"
    }
  ]
}
{
  "tokenList": [
    {
      "name": "NtOpenKeyEx",
      "parameter": "\\REGISTRY\\USER\\AllFilesystemObjects"
    }
  ]
}
{
  "tokenList": [
    {
      "name": "NtOpenKey",
      "parameter": "\\Registry\\MACHINE\\System\\CurrentControlSet\\Control\\Session Manager\\AppCertDlls"
    }
  ]
}
{
  "tokenList": [
    {
      "name": "NtOpenKeyEx",
      "parameter": "Software\\Microsoft\\Windows\\CurrentVersion\\Shell Extensions\\Cached"
    }
  ]
}
{
  "tokenList": [
    {
      "name": "NtOpenKeyEx",
      "parameter": "Software\\Microsoft\\Windows\\CurrentVersion\\Shell Extensions\\Blocked"
    }
  ]
}
{
  "tokenList": [
    {
      "name": "NtOpenKeyEx",
      "parameter": "\\REGISTRY\\USER\\Directory\\BrowseInPlace"
    }
  ]
}
{
  "tokenList": [
    {
      "name": "NtOpenKey",
      "parameter": "\\Registry\\Machine\\Software\\Microsoft\\Windows NT\\CurrentVersion\\Image File Execution Options"
    }
  ]
}
{
  "tokenList": [
    {
      "name": "NtOpenKeyEx",
      "parameter": "\\REGISTRY\\USER\\Folder\\BrowseInPlace"
    }
  ]
}
{
  "tokenList": [
    {
      "name": "NtOpenKeyEx",
      "parameter": "\\REGISTRY\\USER\\Directory\\DocObject"
    }
  ]
}
{
  "tokenList": [
    {
      "name": "NtOpenKeyEx",
      "parameter": "Software\\Microsoft\\Windows\\CurrentVersion\\Internet Settings"
    }
  ]
}
{
  "tokenList": [
    {
      "name": "NtOpenKey",
      "parameter": "\\REGISTRY\\USER\\Software\\Microsoft\\Windows NT\\CurrentVersion"
    }
  ]
}
{
  "tokenList": [
    {
      "name": "NtOpenKeyEx",
      "parameter": "\\REGISTRY\\USER\\AllFilesystemObjects\\Clsid"
    }
  ]
}
{
  "tokenList": [
    {
      "name": "NtAlpcConnectPort",
      "parameter": "\\RPC Control\\lsasspirpc"
    }
  ]
}
{
  "tokenList": [
    {
      "name": "NtOpenKeyEx",
      "parameter": "\\REGISTRY\\USER\\Directory\\Clsid"
    }
  ]
}
{
  "tokenList": [
    {
      "name": "NtQueryValueKey",
      "parameter": "Content Type"
    }
  ]
}
{
  "tokenList": [
    {
      "name": "NtOpenKeyEx",
      "parameter": "\\REGISTRY\\USER\\Directory\\ShellEx\\IconHandler"
    }
  ]
}
{
  "tokenList": [
    {
      "name": "NtOpenKeyEx",
      "parameter": "\\REGISTRY\\USER\\Folder\\ShellEx\\IconHandler"
    }
  ]
}
{
  "tokenList": [
    {
      "name": "NtOpenKeyEx",
      "parameter": "\\REGISTRY\\USER\\AllFilesystemObjects\\DocObject"
    }
  ]
}
matched number: 50
start with: all_SpyNet.txt
{
  "tokenList": [
    {
      "name": "NtOpenKey",
      "parameter": "\\Registry\\MACHINE\\System\\CurrentControlSet\\Control\\Session Manager"
    }
  ]
}
{
  "tokenList": [
    {
      "name": "NtOpenKey",
      "parameter": "\\Registry\\Machine\\Software\\Microsoft\\Windows\\Windows Error Reporting\\WMR"
    }
  ]
}
{
  "tokenList": [
    {
      "name": "NtOpenKey",
      "parameter": "Control Panel\\Desktop\\MuiCached"
    }
  ]
}
{
  "tokenList": [
    {
      "name": "NtOpenKeyEx",
      "parameter": "Software\\Policies\\Microsoft\\Windows NT\\Rpc"
    }
  ]
}
{
  "tokenList": [
    {
      "name": "NtOpenKey",
      "parameter": "\\Registry\\Machine\\Software\\Microsoft\\Windows NT\\CurrentVersion\\GRE_Initialize"
    }
  ]
}
{
  "tokenList": [
    {
      "name": "NtOpenKey",
      "parameter": "Control Panel\\Desktop\\LanguageConfiguration"
    }
  ]
}
{
  "tokenList": [
    {
      "name": "NtOpenKey",
      "parameter": "\\REGISTRY\\USER\\Software\\Policies\\Microsoft\\Windows\\Safer\\CodeIdentifiers"
    }
  ]
}
{
  "tokenList": [
    {
      "name": "NtOpenKey",
      "parameter": "Control Panel\\Desktop\\MuiCached\\MachineLanguageConfiguration"
    }
  ]
}
{
  "tokenList": [
    {
      "name": "NtOpenKey",
      "parameter": "\\Registry\\Machine\\System\\CurrentControlSet\\Control\\Error Message Instrument\\"
    }
  ]
}
{
  "tokenList": [
    {
      "name": "NtOpenKeyEx",
      "parameter": "Software\\Microsoft\\Windows NT\\CurrentVersion\\Diagnostics"
    }
  ]
}
{
  "tokenList": [
    {
      "name": "NtOpenKey",
      "parameter": "Software\\Policies\\Microsoft\\Control Panel\\Desktop"
    }
  ]
}
{
  "tokenList": [
    {
      "name": "NtOpenKey",
      "parameter": "Control Panel\\Desktop"
    }
  ]
}
{
  "tokenList": [
    {
      "name": "NtOpenKeyEx",
      "parameter": "Software\\Microsoft\\Windows\\CurrentVersion\\Explorer\\User Shell Folders"
    }
  ]
}
{
  "tokenList": [
    {
      "name": "NtOpenKeyEx",
      "parameter": "Software\\Microsoft\\Windows NT\\CurrentVersion\\Windows"
    }
  ]
}
{
  "tokenList": [
    {
      "name": "NtOpenFile",
      "parameter": "\\??\\C:\\Users\\zjulist\\Desktop\\"
    },
    {
      "name": "NtOpenFile",
      "parameter": "SspiCli.dll"
    }
  ]
}
{
  "tokenList": [
    {
      "name": "NtOpenKeyEx",
      "parameter": "\\REGISTRY\\USER\\CLSID\\XXX"
    }
  ]
}
{
  "tokenList": [
    {
      "name": "NtOpenKeyEx",
      "parameter": "\\REGISTRY\\USER\\CLSID\\XXX\\TreatAs"
    }
  ]
}
{
  "tokenList": [
    {
      "name": "NtOpenKeyEx",
      "parameter": "\\REGISTRY\\USER\\Drive\\shellex\\FolderExtensions"
    }
  ]
}
{
  "tokenList": [
    {
      "name": "NtOpenKeyEx",
      "parameter": "\\REGISTRY\\USER\\CLSID\\XXX\\InprocServer32"
    }
  ]
}
{
  "tokenList": [
    {
      "name": "NtOpenKeyEx",
      "parameter": "\\REGISTRY\\USER\\CLSID\\XXX\\InprocHandler"
    }
  ]
}
{
  "tokenList": [
    {
      "name": "NtAlpcConnectPort",
      "parameter": "\\RPC Control\\LSARPC_ENDPOINT"
    }
  ]
}
{
  "tokenList": [
    {
      "name": "NtOpenKeyEx",
      "parameter": "\\REGISTRY\\USER\\Drive\\shellex\\FolderExtensions\\XXX"
    }
  ]
}
{
  "tokenList": [
    {
      "name": "NtOpenKeyEx",
      "parameter": "\\REGISTRY\\USER\\CLSID\\XXX\\Progid"
    }
  ]
}
{
  "tokenList": [
    {
      "name": "NtOpenKeyEx",
      "parameter": "Software\\Microsoft\\Windows NT\\CurrentVersion\\ProfileList\\XXX"
    }
  ]
}
{
  "tokenList": [
    {
      "name": "NtOpenKeyEx",
      "parameter": "\\REGISTRY\\USER\\CLSID\\XXX\\InProcServer32"
    }
  ]
}
{
  "tokenList": [
    {
      "name": "NtAlpcConnectPort",
      "parameter": "\\RPC Control\\epmapper"
    }
  ]
}
{
  "tokenList": [
    {
      "name": "NtOpenKeyEx",
      "parameter": "\\REGISTRY\\USER\\CLSID\\XXX\\InprocHandler32"
    }
  ]
}
{
  "tokenList": [
    {
      "name": "NtAlpcConnectPort",
      "parameter": "\\RPC Control\\plugplay"
    }
  ]
}
{
  "tokenList": [
    {
      "name": "NtOpenKeyEx",
      "parameter": "\\REGISTRY\\USER\\Folder"
    }
  ]
}
{
  "tokenList": [
    {
      "name": "NtOpenKeyEx",
      "parameter": "\\REGISTRY\\USER\\Folder\\Clsid"
    }
  ]
}
{
  "tokenList": [
    {
      "name": "NtQueryValueKey",
      "parameter": "XXX 0xFFFF"
    }
  ]
}
{
  "tokenList": [
    {
      "name": "NtOpenKeyEx",
      "parameter": "\\REGISTRY\\USER\\AllFilesystemObjects\\BrowseInPlace"
    }
  ]
}
{
  "tokenList": [
    {
      "name": "NtOpenKeyEx",
      "parameter": "\\REGISTRY\\USER\\CLSID\\XXX\\ShellFolder"
    }
  ]
}
{
  "tokenList": [
    {
      "name": "NtOpenKeyEx",
      "parameter": "\\REGISTRY\\USER\\AllFilesystemObjects"
    }
  ]
}
{
  "tokenList": [
    {
      "name": "NtOpenKey",
      "parameter": "\\Registry\\MACHINE\\System\\CurrentControlSet\\Control\\Session Manager\\AppCertDlls"
    }
  ]
}
{
  "tokenList": [
    {
      "name": "NtOpenKeyEx",
      "parameter": "Software\\Microsoft\\Windows\\CurrentVersion\\Shell Extensions\\Cached"
    }
  ]
}
{
  "tokenList": [
    {
      "name": "NtOpenKeyEx",
      "parameter": "Software\\Microsoft\\Windows\\CurrentVersion\\Shell Extensions\\Blocked"
    }
  ]
}
{
  "tokenList": [
    {
      "name": "NtOpenKeyEx",
      "parameter": "\\REGISTRY\\USER\\Directory\\BrowseInPlace"
    }
  ]
}
{
  "tokenList": [
    {
      "name": "NtOpenKey",
      "parameter": "\\Registry\\Machine\\Software\\Microsoft\\Windows NT\\CurrentVersion\\Image File Execution Options"
    }
  ]
}
{
  "tokenList": [
    {
      "name": "NtOpenKeyEx",
      "parameter": "\\REGISTRY\\USER\\Folder\\BrowseInPlace"
    }
  ]
}
{
  "tokenList": [
    {
      "name": "NtOpenKeyEx",
      "parameter": "\\REGISTRY\\USER\\Directory\\DocObject"
    }
  ]
}
{
  "tokenList": [
    {
      "name": "NtOpenKeyEx",
      "parameter": "Software\\Microsoft\\Windows\\CurrentVersion\\Internet Settings"
    }
  ]
}
{
  "tokenList": [
    {
      "name": "NtOpenKey",
      "parameter": "\\REGISTRY\\USER\\Software\\Microsoft\\Windows NT\\CurrentVersion"
    }
  ]
}
{
  "tokenList": [
    {
      "name": "NtOpenKeyEx",
      "parameter": "\\REGISTRY\\USER\\AllFilesystemObjects\\Clsid"
    }
  ]
}
{
  "tokenList": [
    {
      "name": "NtAlpcConnectPort",
      "parameter": "\\RPC Control\\lsasspirpc"
    }
  ]
}
{
  "tokenList": [
    {
      "name": "NtOpenKeyEx",
      "parameter": "\\REGISTRY\\USER\\Directory\\Clsid"
    }
  ]
}
{
  "tokenList": [
    {
      "name": "NtQueryValueKey",
      "parameter": "Content Type"
    }
  ]
}
{
  "tokenList": [
    {
      "name": "NtOpenKeyEx",
      "parameter": "\\REGISTRY\\USER\\Directory\\ShellEx\\IconHandler"
    }
  ]
}
{
  "tokenList": [
    {
      "name": "NtOpenKeyEx",
      "parameter": "\\REGISTRY\\USER\\Folder\\ShellEx\\IconHandler"
    }
  ]
}
{
  "tokenList": [
    {
      "name": "NtOpenKeyEx",
      "parameter": "\\REGISTRY\\USER\\AllFilesystemObjects\\DocObject"
    }
  ]
}
matched number: 50
start with: all_sub7.txt
{
  "tokenList": [
    {
      "name": "NtOpenKey",
      "parameter": "\\Registry\\MACHINE\\System\\CurrentControlSet\\Control\\Session Manager"
    }
  ]
}
{
  "tokenList": [
    {
      "name": "NtOpenKey",
      "parameter": "\\Registry\\Machine\\Software\\Microsoft\\Windows\\Windows Error Reporting\\WMR"
    }
  ]
}
{
  "tokenList": [
    {
      "name": "NtOpenKey",
      "parameter": "Control Panel\\Desktop\\MuiCached"
    }
  ]
}
{
  "tokenList": [
    {
      "name": "NtOpenKeyEx",
      "parameter": "Software\\Policies\\Microsoft\\Windows NT\\Rpc"
    }
  ]
}
{
  "tokenList": [
    {
      "name": "NtOpenKey",
      "parameter": "\\Registry\\Machine\\Software\\Microsoft\\Windows NT\\CurrentVersion\\GRE_Initialize"
    }
  ]
}
{
  "tokenList": [
    {
      "name": "NtOpenKey",
      "parameter": "Control Panel\\Desktop\\LanguageConfiguration"
    }
  ]
}
{
  "tokenList": [
    {
      "name": "NtOpenKey",
      "parameter": "\\REGISTRY\\USER\\Software\\Policies\\Microsoft\\Windows\\Safer\\CodeIdentifiers"
    }
  ]
}
{
  "tokenList": [
    {
      "name": "NtOpenKey",
      "parameter": "Control Panel\\Desktop\\MuiCached\\MachineLanguageConfiguration"
    }
  ]
}
{
  "tokenList": [
    {
      "name": "NtOpenKey",
      "parameter": "\\Registry\\Machine\\System\\CurrentControlSet\\Control\\Error Message Instrument\\"
    }
  ]
}
{
  "tokenList": [
    {
      "name": "NtOpenKeyEx",
      "parameter": "Software\\Microsoft\\Windows NT\\CurrentVersion\\Diagnostics"
    }
  ]
}
{
  "tokenList": [
    {
      "name": "NtOpenKey",
      "parameter": "Software\\Policies\\Microsoft\\Control Panel\\Desktop"
    }
  ]
}
{
  "tokenList": [
    {
      "name": "NtOpenKey",
      "parameter": "Control Panel\\Desktop"
    }
  ]
}
{
  "tokenList": [
    {
      "name": "NtOpenKeyEx",
      "parameter": "Software\\Microsoft\\Windows\\CurrentVersion\\Explorer\\User Shell Folders"
    }
  ]
}
{
  "tokenList": [
    {
      "name": "NtOpenKeyEx",
      "parameter": "Software\\Microsoft\\Windows NT\\CurrentVersion\\Windows"
    }
  ]
}
{
  "tokenList": [
    {
      "name": "NtOpenFile",
      "parameter": "\\??\\C:\\Users\\zjulist\\Desktop\\"
    },
    {
      "name": "NtOpenFile",
      "parameter": "SspiCli.dll"
    }
  ]
}
{
  "tokenList": [
    {
      "name": "NtOpenKeyEx",
      "parameter": "\\REGISTRY\\USER\\CLSID\\XXX"
    }
  ]
}
{
  "tokenList": [
    {
      "name": "NtOpenKeyEx",
      "parameter": "\\REGISTRY\\USER\\CLSID\\XXX\\TreatAs"
    }
  ]
}
{
  "tokenList": [
    {
      "name": "NtOpenKeyEx",
      "parameter": "\\REGISTRY\\USER\\Drive\\shellex\\FolderExtensions"
    }
  ]
}
{
  "tokenList": [
    {
      "name": "NtOpenKeyEx",
      "parameter": "\\REGISTRY\\USER\\CLSID\\XXX\\InprocServer32"
    }
  ]
}
{
  "tokenList": [
    {
      "name": "NtOpenKeyEx",
      "parameter": "\\REGISTRY\\USER\\CLSID\\XXX\\InprocHandler"
    }
  ]
}
{
  "tokenList": [
    {
      "name": "NtAlpcConnectPort",
      "parameter": "\\RPC Control\\LSARPC_ENDPOINT"
    }
  ]
}
{
  "tokenList": [
    {
      "name": "NtOpenKeyEx",
      "parameter": "\\REGISTRY\\USER\\Drive\\shellex\\FolderExtensions\\XXX"
    }
  ]
}
{
  "tokenList": [
    {
      "name": "NtOpenKeyEx",
      "parameter": "\\REGISTRY\\USER\\CLSID\\XXX\\Progid"
    }
  ]
}
{
  "tokenList": [
    {
      "name": "NtOpenKeyEx",
      "parameter": "Software\\Microsoft\\Windows NT\\CurrentVersion\\ProfileList\\XXX"
    }
  ]
}
{
  "tokenList": [
    {
      "name": "NtOpenKeyEx",
      "parameter": "\\REGISTRY\\USER\\CLSID\\XXX\\InProcServer32"
    }
  ]
}
{
  "tokenList": [
    {
      "name": "NtOpenKeyEx",
      "parameter": "\\REGISTRY\\USER\\CLSID\\XXX\\InprocHandler32"
    }
  ]
}
{
  "tokenList": [
    {
      "name": "NtAlpcConnectPort",
      "parameter": "\\RPC Control\\plugplay"
    }
  ]
}
{
  "tokenList": [
    {
      "name": "NtOpenKeyEx",
      "parameter": "\\REGISTRY\\USER\\Folder"
    }
  ]
}
{
  "tokenList": [
    {
      "name": "NtOpenKeyEx",
      "parameter": "\\REGISTRY\\USER\\Folder\\Clsid"
    }
  ]
}
{
  "tokenList": [
    {
      "name": "NtQueryValueKey",
      "parameter": "XXX 0xFFFF"
    }
  ]
}
{
  "tokenList": [
    {
      "name": "NtOpenKeyEx",
      "parameter": "\\REGISTRY\\USER\\AllFilesystemObjects\\BrowseInPlace"
    }
  ]
}
{
  "tokenList": [
    {
      "name": "NtOpenKeyEx",
      "parameter": "\\REGISTRY\\USER\\CLSID\\XXX\\ShellFolder"
    }
  ]
}
{
  "tokenList": [
    {
      "name": "NtOpenKeyEx",
      "parameter": "\\REGISTRY\\USER\\AllFilesystemObjects"
    }
  ]
}
{
  "tokenList": [
    {
      "name": "NtOpenKey",
      "parameter": "\\Registry\\MACHINE\\System\\CurrentControlSet\\Control\\Session Manager\\AppCertDlls"
    }
  ]
}
{
  "tokenList": [
    {
      "name": "NtOpenKeyEx",
      "parameter": "Software\\Microsoft\\Windows\\CurrentVersion\\Shell Extensions\\Cached"
    }
  ]
}
{
  "tokenList": [
    {
      "name": "NtOpenKeyEx",
      "parameter": "Software\\Microsoft\\Windows\\CurrentVersion\\Shell Extensions\\Blocked"
    }
  ]
}
{
  "tokenList": [
    {
      "name": "NtOpenKeyEx",
      "parameter": "\\REGISTRY\\USER\\Directory\\BrowseInPlace"
    }
  ]
}
{
  "tokenList": [
    {
      "name": "NtOpenKey",
      "parameter": "\\Registry\\Machine\\Software\\Microsoft\\Windows NT\\CurrentVersion\\Image File Execution Options"
    }
  ]
}
{
  "tokenList": [
    {
      "name": "NtOpenKeyEx",
      "parameter": "\\REGISTRY\\USER\\Folder\\BrowseInPlace"
    }
  ]
}
{
  "tokenList": [
    {
      "name": "NtOpenKeyEx",
      "parameter": "\\REGISTRY\\USER\\Directory\\DocObject"
    }
  ]
}
{
  "tokenList": [
    {
      "name": "NtOpenKeyEx",
      "parameter": "Software\\Microsoft\\Windows\\CurrentVersion\\Internet Settings"
    }
  ]
}
{
  "tokenList": [
    {
      "name": "NtOpenKey",
      "parameter": "\\REGISTRY\\USER\\Software\\Microsoft\\Windows NT\\CurrentVersion"
    }
  ]
}
{
  "tokenList": [
    {
      "name": "NtOpenKeyEx",
      "parameter": "\\REGISTRY\\USER\\AllFilesystemObjects\\Clsid"
    }
  ]
}
{
  "tokenList": [
    {
      "name": "NtAlpcConnectPort",
      "parameter": "\\RPC Control\\lsasspirpc"
    }
  ]
}
{
  "tokenList": [
    {
      "name": "NtOpenKeyEx",
      "parameter": "\\REGISTRY\\USER\\Directory\\Clsid"
    }
  ]
}
{
  "tokenList": [
    {
      "name": "NtQueryValueKey",
      "parameter": "Content Type"
    }
  ]
}
{
  "tokenList": [
    {
      "name": "NtOpenKeyEx",
      "parameter": "\\REGISTRY\\USER\\Directory\\ShellEx\\IconHandler"
    }
  ]
}
{
  "tokenList": [
    {
      "name": "NtOpenKeyEx",
      "parameter": "\\REGISTRY\\USER\\Folder\\ShellEx\\IconHandler"
    }
  ]
}
{
  "tokenList": [
    {
      "name": "NtOpenKeyEx",
      "parameter": "\\REGISTRY\\USER\\AllFilesystemObjects\\DocObject"
    }
  ]
}
matched number: 49
start with: all_tiny.txt
{
  "tokenList": [
    {
      "name": "NtOpenKey",
      "parameter": "\\Registry\\MACHINE\\System\\CurrentControlSet\\Control\\Session Manager"
    }
  ]
}
{
  "tokenList": [
    {
      "name": "NtOpenKey",
      "parameter": "\\Registry\\Machine\\Software\\Microsoft\\Windows\\Windows Error Reporting\\WMR"
    }
  ]
}
{
  "tokenList": [
    {
      "name": "NtOpenKey",
      "parameter": "Control Panel\\Desktop\\MuiCached"
    }
  ]
}
{
  "tokenList": [
    {
      "name": "NtOpenKeyEx",
      "parameter": "Software\\Policies\\Microsoft\\Windows NT\\Rpc"
    }
  ]
}
{
  "tokenList": [
    {
      "name": "NtOpenKey",
      "parameter": "\\Registry\\Machine\\Software\\Microsoft\\Windows NT\\CurrentVersion\\GRE_Initialize"
    }
  ]
}
{
  "tokenList": [
    {
      "name": "NtOpenKey",
      "parameter": "Control Panel\\Desktop\\LanguageConfiguration"
    }
  ]
}
{
  "tokenList": [
    {
      "name": "NtOpenKey",
      "parameter": "\\REGISTRY\\USER\\Software\\Policies\\Microsoft\\Windows\\Safer\\CodeIdentifiers"
    }
  ]
}
{
  "tokenList": [
    {
      "name": "NtOpenKey",
      "parameter": "Control Panel\\Desktop\\MuiCached\\MachineLanguageConfiguration"
    }
  ]
}
{
  "tokenList": [
    {
      "name": "NtOpenKey",
      "parameter": "\\Registry\\Machine\\System\\CurrentControlSet\\Control\\Error Message Instrument\\"
    }
  ]
}
{
  "tokenList": [
    {
      "name": "NtOpenKeyEx",
      "parameter": "Software\\Microsoft\\Windows NT\\CurrentVersion\\Diagnostics"
    }
  ]
}
{
  "tokenList": [
    {
      "name": "NtOpenKey",
      "parameter": "Software\\Policies\\Microsoft\\Control Panel\\Desktop"
    }
  ]
}
{
  "tokenList": [
    {
      "name": "NtOpenKey",
      "parameter": "Control Panel\\Desktop"
    }
  ]
}
{
  "tokenList": [
    {
      "name": "NtOpenKeyEx",
      "parameter": "Software\\Microsoft\\Windows NT\\CurrentVersion\\Windows"
    }
  ]
}
{
  "tokenList": [
    {
      "name": "NtOpenFile",
      "parameter": "\\??\\C:\\Users\\zjulist\\Desktop\\"
    },
    {
      "name": "NtOpenFile",
      "parameter": "SspiCli.dll"
    }
  ]
}
{
  "tokenList": [
    {
      "name": "NtAlpcConnectPort",
      "parameter": "\\RPC Control\\epmapper"
    }
  ]
}
{
  "tokenList": [
    {
      "name": "NtOpenKeyEx",
      "parameter": "Software\\Microsoft\\Windows\\CurrentVersion\\Internet Settings"
    }
  ]
}
{
  "tokenList": [
    {
      "name": "NtAlpcConnectPort",
      "parameter": "\\RPC Control\\lsasspirpc"
    }
  ]
}
matched number: 17
start with: all_xrat.txt
{
  "tokenList": [
    {
      "name": "NtOpenKey",
      "parameter": "\\Registry\\MACHINE\\System\\CurrentControlSet\\Control\\Session Manager"
    }
  ]
}
{
  "tokenList": [
    {
      "name": "NtOpenKey",
      "parameter": "\\Registry\\Machine\\Software\\Microsoft\\Windows\\Windows Error Reporting\\WMR"
    }
  ]
}
{
  "tokenList": [
    {
      "name": "NtOpenKey",
      "parameter": "Control Panel\\Desktop\\MuiCached"
    }
  ]
}
{
  "tokenList": [
    {
      "name": "NtOpenKeyEx",
      "parameter": "Software\\Policies\\Microsoft\\Windows NT\\Rpc"
    }
  ]
}
{
  "tokenList": [
    {
      "name": "NtOpenKey",
      "parameter": "\\Registry\\Machine\\Software\\Microsoft\\Windows NT\\CurrentVersion\\GRE_Initialize"
    }
  ]
}
{
  "tokenList": [
    {
      "name": "NtOpenKey",
      "parameter": "Control Panel\\Desktop\\LanguageConfiguration"
    }
  ]
}
{
  "tokenList": [
    {
      "name": "NtOpenKey",
      "parameter": "\\REGISTRY\\USER\\Software\\Policies\\Microsoft\\Windows\\Safer\\CodeIdentifiers"
    }
  ]
}
{
  "tokenList": [
    {
      "name": "NtOpenKey",
      "parameter": "Control Panel\\Desktop\\MuiCached\\MachineLanguageConfiguration"
    }
  ]
}
{
  "tokenList": [
    {
      "name": "NtOpenKey",
      "parameter": "\\Registry\\Machine\\System\\CurrentControlSet\\Control\\Error Message Instrument\\"
    }
  ]
}
{
  "tokenList": [
    {
      "name": "NtOpenKeyEx",
      "parameter": "Software\\Microsoft\\Windows NT\\CurrentVersion\\Diagnostics"
    }
  ]
}
{
  "tokenList": [
    {
      "name": "NtOpenKey",
      "parameter": "Software\\Policies\\Microsoft\\Control Panel\\Desktop"
    }
  ]
}
{
  "tokenList": [
    {
      "name": "NtOpenKey",
      "parameter": "Control Panel\\Desktop"
    }
  ]
}
{
  "tokenList": [
    {
      "name": "NtOpenKeyEx",
      "parameter": "Software\\Microsoft\\Windows\\CurrentVersion\\Explorer\\User Shell Folders"
    }
  ]
}
{
  "tokenList": [
    {
      "name": "NtOpenKeyEx",
      "parameter": "Software\\Microsoft\\Windows NT\\CurrentVersion\\Windows"
    }
  ]
}
{
  "tokenList": [
    {
      "name": "NtOpenKeyEx",
      "parameter": "\\REGISTRY\\USER\\CLSID\\XXX"
    }
  ]
}
{
  "tokenList": [
    {
      "name": "NtOpenKeyEx",
      "parameter": "\\REGISTRY\\USER\\CLSID\\XXX\\TreatAs"
    }
  ]
}
{
  "tokenList": [
    {
      "name": "NtOpenKeyEx",
      "parameter": "\\REGISTRY\\USER\\Drive\\shellex\\FolderExtensions"
    }
  ]
}
{
  "tokenList": [
    {
      "name": "NtOpenKeyEx",
      "parameter": "\\REGISTRY\\USER\\CLSID\\XXX\\InprocServer32"
    }
  ]
}
{
  "tokenList": [
    {
      "name": "NtOpenKeyEx",
      "parameter": "\\REGISTRY\\USER\\CLSID\\XXX\\InprocHandler"
    }
  ]
}
{
  "tokenList": [
    {
      "name": "NtAlpcConnectPort",
      "parameter": "\\RPC Control\\LSARPC_ENDPOINT"
    }
  ]
}
{
  "tokenList": [
    {
      "name": "NtOpenKeyEx",
      "parameter": "\\REGISTRY\\USER\\Drive\\shellex\\FolderExtensions\\XXX"
    }
  ]
}
{
  "tokenList": [
    {
      "name": "NtOpenKeyEx",
      "parameter": "\\REGISTRY\\USER\\CLSID\\XXX\\Progid"
    }
  ]
}
{
  "tokenList": [
    {
      "name": "NtOpenKeyEx",
      "parameter": "Software\\Microsoft\\Windows NT\\CurrentVersion\\ProfileList\\XXX"
    }
  ]
}
{
  "tokenList": [
    {
      "name": "NtOpenKeyEx",
      "parameter": "\\REGISTRY\\USER\\CLSID\\XXX\\InProcServer32"
    }
  ]
}
{
  "tokenList": [
    {
      "name": "NtAlpcConnectPort",
      "parameter": "\\RPC Control\\epmapper"
    }
  ]
}
{
  "tokenList": [
    {
      "name": "NtOpenKeyEx",
      "parameter": "\\REGISTRY\\USER\\CLSID\\XXX\\InprocHandler32"
    }
  ]
}
{
  "tokenList": [
    {
      "name": "NtAlpcConnectPort",
      "parameter": "\\RPC Control\\plugplay"
    }
  ]
}
{
  "tokenList": [
    {
      "name": "NtOpenKeyEx",
      "parameter": "\\REGISTRY\\USER\\Folder"
    }
  ]
}
{
  "tokenList": [
    {
      "name": "NtOpenKeyEx",
      "parameter": "\\REGISTRY\\USER\\Folder\\Clsid"
    }
  ]
}
{
  "tokenList": [
    {
      "name": "NtQueryValueKey",
      "parameter": "XXX 0xFFFF"
    }
  ]
}
{
  "tokenList": [
    {
      "name": "NtOpenKeyEx",
      "parameter": "\\REGISTRY\\USER\\AllFilesystemObjects\\BrowseInPlace"
    }
  ]
}
{
  "tokenList": [
    {
      "name": "NtOpenKeyEx",
      "parameter": "\\REGISTRY\\USER\\CLSID\\XXX\\ShellFolder"
    }
  ]
}
{
  "tokenList": [
    {
      "name": "NtOpenKeyEx",
      "parameter": "\\REGISTRY\\USER\\AllFilesystemObjects"
    }
  ]
}
{
  "tokenList": [
    {
      "name": "NtOpenKey",
      "parameter": "\\Registry\\MACHINE\\System\\CurrentControlSet\\Control\\Session Manager\\AppCertDlls"
    }
  ]
}
{
  "tokenList": [
    {
      "name": "NtOpenKeyEx",
      "parameter": "Software\\Microsoft\\Windows\\CurrentVersion\\Shell Extensions\\Cached"
    }
  ]
}
{
  "tokenList": [
    {
      "name": "NtOpenKeyEx",
      "parameter": "Software\\Microsoft\\Windows\\CurrentVersion\\Shell Extensions\\Blocked"
    }
  ]
}
{
  "tokenList": [
    {
      "name": "NtOpenKeyEx",
      "parameter": "\\REGISTRY\\USER\\Directory\\BrowseInPlace"
    }
  ]
}
{
  "tokenList": [
    {
      "name": "NtOpenKey",
      "parameter": "\\Registry\\Machine\\Software\\Microsoft\\Windows NT\\CurrentVersion\\Image File Execution Options"
    }
  ]
}
{
  "tokenList": [
    {
      "name": "NtOpenKeyEx",
      "parameter": "\\REGISTRY\\USER\\Folder\\BrowseInPlace"
    }
  ]
}
{
  "tokenList": [
    {
      "name": "NtOpenKeyEx",
      "parameter": "\\REGISTRY\\USER\\Directory\\DocObject"
    }
  ]
}
{
  "tokenList": [
    {
      "name": "NtOpenKeyEx",
      "parameter": "Software\\Microsoft\\Windows\\CurrentVersion\\Internet Settings"
    }
  ]
}
{
  "tokenList": [
    {
      "name": "NtOpenKey",
      "parameter": "\\REGISTRY\\USER\\Software\\Microsoft\\Windows NT\\CurrentVersion"
    }
  ]
}
{
  "tokenList": [
    {
      "name": "NtOpenKeyEx",
      "parameter": "\\REGISTRY\\USER\\AllFilesystemObjects\\Clsid"
    }
  ]
}
{
  "tokenList": [
    {
      "name": "NtAlpcConnectPort",
      "parameter": "\\RPC Control\\lsasspirpc"
    }
  ]
}
{
  "tokenList": [
    {
      "name": "NtOpenKeyEx",
      "parameter": "\\REGISTRY\\USER\\Directory\\Clsid"
    }
  ]
}
{
  "tokenList": [
    {
      "name": "NtQueryValueKey",
      "parameter": "Content Type"
    }
  ]
}
{
  "tokenList": [
    {
      "name": "NtOpenKeyEx",
      "parameter": "\\REGISTRY\\USER\\Directory\\ShellEx\\IconHandler"
    }
  ]
}
{
  "tokenList": [
    {
      "name": "NtOpenKeyEx",
      "parameter": "\\REGISTRY\\USER\\Folder\\ShellEx\\IconHandler"
    }
  ]
}
{
  "tokenList": [
    {
      "name": "NtOpenKeyEx",
      "parameter": "\\REGISTRY\\USER\\AllFilesystemObjects\\DocObject"
    }
  ]
}
matched number: 49
start with: all_xtreme.txt
{
  "tokenList": [
    {
      "name": "NtOpenKey",
      "parameter": "\\Registry\\MACHINE\\System\\CurrentControlSet\\Control\\Session Manager"
    }
  ]
}
{
  "tokenList": [
    {
      "name": "NtOpenKey",
      "parameter": "\\Registry\\Machine\\Software\\Microsoft\\Windows\\Windows Error Reporting\\WMR"
    }
  ]
}
{
  "tokenList": [
    {
      "name": "NtOpenKey",
      "parameter": "Control Panel\\Desktop\\MuiCached"
    }
  ]
}
{
  "tokenList": [
    {
      "name": "NtOpenKeyEx",
      "parameter": "Software\\Policies\\Microsoft\\Windows NT\\Rpc"
    }
  ]
}
{
  "tokenList": [
    {
      "name": "NtOpenKey",
      "parameter": "\\Registry\\Machine\\Software\\Microsoft\\Windows NT\\CurrentVersion\\GRE_Initialize"
    }
  ]
}
{
  "tokenList": [
    {
      "name": "NtOpenKey",
      "parameter": "Control Panel\\Desktop\\LanguageConfiguration"
    }
  ]
}
{
  "tokenList": [
    {
      "name": "NtOpenKey",
      "parameter": "\\REGISTRY\\USER\\Software\\Policies\\Microsoft\\Windows\\Safer\\CodeIdentifiers"
    }
  ]
}
{
  "tokenList": [
    {
      "name": "NtOpenKey",
      "parameter": "Control Panel\\Desktop\\MuiCached\\MachineLanguageConfiguration"
    }
  ]
}
{
  "tokenList": [
    {
      "name": "NtOpenKey",
      "parameter": "\\Registry\\Machine\\System\\CurrentControlSet\\Control\\Error Message Instrument\\"
    }
  ]
}
{
  "tokenList": [
    {
      "name": "NtOpenKeyEx",
      "parameter": "Software\\Microsoft\\Windows NT\\CurrentVersion\\Diagnostics"
    }
  ]
}
{
  "tokenList": [
    {
      "name": "NtOpenKey",
      "parameter": "Software\\Policies\\Microsoft\\Control Panel\\Desktop"
    }
  ]
}
{
  "tokenList": [
    {
      "name": "NtOpenKey",
      "parameter": "Control Panel\\Desktop"
    }
  ]
}
{
  "tokenList": [
    {
      "name": "NtOpenKeyEx",
      "parameter": "Software\\Microsoft\\Windows\\CurrentVersion\\Explorer\\User Shell Folders"
    }
  ]
}
{
  "tokenList": [
    {
      "name": "NtOpenKeyEx",
      "parameter": "Software\\Microsoft\\Windows NT\\CurrentVersion\\Windows"
    }
  ]
}
{
  "tokenList": [
    {
      "name": "NtOpenFile",
      "parameter": "\\??\\C:\\Users\\zjulist\\Desktop\\"
    },
    {
      "name": "NtOpenFile",
      "parameter": "SspiCli.dll"
    }
  ]
}
{
  "tokenList": [
    {
      "name": "NtOpenKeyEx",
      "parameter": "\\REGISTRY\\USER\\CLSID\\XXX"
    }
  ]
}
{
  "tokenList": [
    {
      "name": "NtOpenKeyEx",
      "parameter": "\\REGISTRY\\USER\\CLSID\\XXX\\TreatAs"
    }
  ]
}
{
  "tokenList": [
    {
      "name": "NtOpenKeyEx",
      "parameter": "\\REGISTRY\\USER\\Drive\\shellex\\FolderExtensions"
    }
  ]
}
{
  "tokenList": [
    {
      "name": "NtOpenKeyEx",
      "parameter": "\\REGISTRY\\USER\\CLSID\\XXX\\InprocServer32"
    }
  ]
}
{
  "tokenList": [
    {
      "name": "NtOpenKeyEx",
      "parameter": "\\REGISTRY\\USER\\CLSID\\XXX\\InprocHandler"
    }
  ]
}
{
  "tokenList": [
    {
      "name": "NtOpenKeyEx",
      "parameter": "\\REGISTRY\\USER\\Drive\\shellex\\FolderExtensions\\XXX"
    }
  ]
}
{
  "tokenList": [
    {
      "name": "NtOpenKeyEx",
      "parameter": "\\REGISTRY\\USER\\CLSID\\XXX\\Progid"
    }
  ]
}
{
  "tokenList": [
    {
      "name": "NtOpenKeyEx",
      "parameter": "\\REGISTRY\\USER\\CLSID\\XXX\\InProcServer32"
    }
  ]
}
{
  "tokenList": [
    {
      "name": "NtOpenKeyEx",
      "parameter": "\\REGISTRY\\USER\\CLSID\\XXX\\InprocHandler32"
    }
  ]
}
{
  "tokenList": [
    {
      "name": "NtAlpcConnectPort",
      "parameter": "\\RPC Control\\plugplay"
    }
  ]
}
{
  "tokenList": [
    {
      "name": "NtOpenKeyEx",
      "parameter": "\\REGISTRY\\USER\\Folder"
    }
  ]
}
{
  "tokenList": [
    {
      "name": "NtOpenKeyEx",
      "parameter": "\\REGISTRY\\USER\\Folder\\Clsid"
    }
  ]
}
{
  "tokenList": [
    {
      "name": "NtOpenKeyEx",
      "parameter": "\\REGISTRY\\USER\\AllFilesystemObjects\\BrowseInPlace"
    }
  ]
}
{
  "tokenList": [
    {
      "name": "NtOpenKeyEx",
      "parameter": "\\REGISTRY\\USER\\CLSID\\XXX\\ShellFolder"
    }
  ]
}
{
  "tokenList": [
    {
      "name": "NtOpenKeyEx",
      "parameter": "\\REGISTRY\\USER\\AllFilesystemObjects"
    }
  ]
}
{
  "tokenList": [
    {
      "name": "NtOpenKeyEx",
      "parameter": "\\REGISTRY\\USER\\Directory\\BrowseInPlace"
    }
  ]
}
{
  "tokenList": [
    {
      "name": "NtOpenKeyEx",
      "parameter": "\\REGISTRY\\USER\\Folder\\BrowseInPlace"
    }
  ]
}
{
  "tokenList": [
    {
      "name": "NtOpenKeyEx",
      "parameter": "\\REGISTRY\\USER\\Directory\\DocObject"
    }
  ]
}
{
  "tokenList": [
    {
      "name": "NtOpenKeyEx",
      "parameter": "Software\\Microsoft\\Windows\\CurrentVersion\\Internet Settings"
    }
  ]
}
{
  "tokenList": [
    {
      "name": "NtOpenKeyEx",
      "parameter": "\\REGISTRY\\USER\\AllFilesystemObjects\\Clsid"
    }
  ]
}
{
  "tokenList": [
    {
      "name": "NtOpenKeyEx",
      "parameter": "\\REGISTRY\\USER\\Directory\\Clsid"
    }
  ]
}
{
  "tokenList": [
    {
      "name": "NtOpenKeyEx",
      "parameter": "\\REGISTRY\\USER\\Directory\\ShellEx\\IconHandler"
    }
  ]
}
{
  "tokenList": [
    {
      "name": "NtOpenKeyEx",
      "parameter": "\\REGISTRY\\USER\\Folder\\ShellEx\\IconHandler"
    }
  ]
}
{
  "tokenList": [
    {
      "name": "NtOpenKeyEx",
      "parameter": "\\REGISTRY\\USER\\AllFilesystemObjects\\DocObject"
    }
  ]
}
matched number: 39
