[
  {
    "traces": [
      "pandora_TheadId2400",
      "VanTom_TheadId1692"
    ],
    "sig": [
      "SystemCall @ SystemCall:NtAlpcConnectPort",
      "ALPC_SEN @ ProcessName:svchost.exe",
      "ALPC_REC @ ProcessName:svchost.exe"
    ],
    "windowsize": 5
  }
]