SystemCall @ SystemCall:NtUserToUnicodeEx 0.6363636363636364 0.0 0.6363636363636364
SystemCall @ SystemCall:NtUserMapVirtualKeyEx 0.45454545454545453 0.08695652173913043 0.3675889328063241
SystemCall @ SystemCall:NtUserIsClipboardFormatAvailable 0.2727272727272727 0.08695652173913043 0.18577075098814227
FileIoRead @ FileName:XXX.dc 0.18181818181818182 0.0 0.18181818181818182
FileIoWrite @ FileName:XXX.dc 0.18181818181818182 0.0 0.18181818181818182
FileIoQueryInfo @ FileName:XXX.dc 0.18181818181818182 0.0 0.18181818181818182
FileIoCreate @ FileName:XXX.dc 0.18181818181818182 0.0 0.18181818181818182
SystemCall @ SystemCall:NtUserCreateLocalMemHandle 0.18181818181818182 0.043478260869565216 0.1383399209486166
SystemCall @ SystemCall:NtUserOpenClipboard 0.18181818181818182 0.043478260869565216 0.1383399209486166
SystemCall @ SystemCall:NtUserCloseClipboard 0.18181818181818182 0.043478260869565216 0.1383399209486166
SystemCall @ SystemCall:NtUserGetClipboardData 0.18181818181818182 0.043478260869565216 0.1383399209486166
SystemCall @ SystemCall:NtCallbackReturn 0.9090909090909091 0.782608695652174 0.1264822134387351
SystemCall @ SystemCall:NtUserGetKeyboardState 0.6363636363636364 0.5217391304347826 0.11462450592885376
SystemCall @ SystemCall:NtFlushInstructionCache 0.36363636363636365 0.2608695652173913 0.10276679841897235
SystemCall @ SystemCall:NtUserGetKeyState 0.7272727272727273 0.6521739130434783 0.07509881422924902
SystemCall @ SystemCall:NtUserQueryWindow 0.7272727272727273 0.6956521739130435 0.031620553359683834
SystemCall @ SystemCall:NtUserGetForegroundWindow 0.6363636363636364 0.6521739130434783 -0.015810276679841917
SystemCall @ SystemCall:NtUserGetAsyncKeyState 0.2727272727272727 0.30434782608695654 -0.031620553359683834
SystemCall @ SystemCall:NtWriteFile 0.45454545454545453 0.6521739130434783 -0.19762845849802374
SystemCall @ SystemCall:NtQueryInformationProcess 0.45454545454545453 0.8260869565217391 -0.3715415019762846
SystemCall @ SystemCall:NtCreateFile 0.36363636363636365 0.7391304347826086 -0.375494071146245
SystemCall @ SystemCall:NtAllocateVirtualMemory 0.45454545454545453 0.8695652173913043 -0.4150197628458498
SystemCall @ SystemCall:NtQueryAttributesFile 0.36363636363636365 0.782608695652174 -0.4189723320158103
SystemCall @ SystemCall:NtSetInformationFile 0.2727272727272727 0.6956521739130435 -0.42292490118577075
SystemCall @ SystemCall:NtUserGetDoubleClickTime 0.18181818181818182 0.6086956521739131 -0.42687747035573126
SystemCall @ SystemCall:NtFreeVirtualMemory 0.36363636363636365 0.8260869565217391 -0.4624505928853755
SystemCall @ SystemCall:NtReadFile 0.2727272727272727 0.7391304347826086 -0.46640316205533594
FileIoQueryInfo @ FileName:@DataFile 0.18181818181818182 0.6521739130434783 -0.47035573122529645
SystemCall @ SystemCall:NtProtectVirtualMemory 0.18181818181818182 0.6956521739130435 -0.5138339920948616
SystemCall @ SystemCall:NtOpenSection 0.18181818181818182 0.6956521739130435 -0.5138339920948616
SystemCall @ SystemCall:NtQueryObject 0.18181818181818182 0.7391304347826086 -0.5573122529644268
SystemCall @ SystemCall:NtQuerySection 0.18181818181818182 0.7391304347826086 -0.5573122529644268
DiskIoDrvMjFnCall @ MajorFunction:5 0.2727272727272727 0.8695652173913043 -0.5968379446640316
DiskIoDrvMjFnCall @ MajorFunction:4 0.2727272727272727 0.8695652173913043 -0.5968379446640316
SystemCall @ SystemCall:NtMapViewOfSection 0.18181818181818182 0.782608695652174 -0.6007905138339922
DiskIoDrvMjFnCall @ MajorFunction:13 0.18181818181818182 0.782608695652174 -0.6007905138339922
DiskIoDrvMjFnCall @ MajorFunction:0 0.2727272727272727 0.9565217391304348 -0.6837944664031621
DiskIoDrvMjFnCall @ MajorFunction:18 0.2727272727272727 0.9565217391304348 -0.6837944664031621
DiskIoDrvMjFnCall @ MajorFunction:2 0.2727272727272727 0.9565217391304348 -0.6837944664031621
