ImageDCStart @ FileName:kernel32.dll 1.0 0.0 1.0
ImageDCStart @ FileName:shell32.dll 1.0 0.0 1.0
ImageDCStart @ FileName:lpk.dll 1.0 0.0 1.0
ImageDCStart @ FileName:rpcrt4.dll 1.0 0.0 1.0
ImageDCStart @ FileName:apisetschema.dll 1.0 0.0 1.0
ImageDCStart @ FileName:@ExecutableFile 1.0 0.0 1.0
ImageDCStart @ FileName:sspicli.dll 1.0 0.0 1.0
ImageDCStart @ FileName:user32.dll 1.0 0.0 1.0
ImageDCStart @ FileName:sechost.dll 1.0 0.0 1.0
ImageDCStart @ FileName:oleaut32.dll 1.0 0.0 1.0
ImageDCStart @ FileName:KernelBase.dll 1.0 0.0 1.0
ImageDCStart @ FileName:msctf.dll 1.0 0.0 1.0
ImageDCStart @ FileName:imm32.dll 1.0 0.0 1.0
ImageDCStart @ FileName:usp10.dll 1.0 0.0 1.0
ImageDCStart @ FileName:advapi32.dll 1.0 0.0 1.0
ImageDCStart @ FileName:WSHTCPIP.DLL 1.0 0.0 1.0
ImageDCStart @ FileName:msvcrt.dll 1.0 0.0 1.0
ImageDCStart @ FileName:nsi.dll 1.0 0.0 1.0
ImageDCStart @ FileName:mswsock.dll 1.0 0.0 1.0
ImageDCStart @ FileName:shlwapi.dll 1.0 0.0 1.0
ImageDCStart @ FileName:gdi32.dll 1.0 0.0 1.0
ImageDCStart @ FileName:ole32.dll 1.0 0.0 1.0
ImageDCStart @ FileName:ws2_32.dll 1.0 0.0 1.0
ImageDCStart @ FileName:cryptbase.dll 1.0 0.0 1.0
ImageDCStart @ FileName:uxtheme.dll 1.0 0.0 1.0
ImageDCStart @ FileName:ntdll.dll 1.0 0.0 1.0
ImageDCStart @ FileName:shfolder.dll 0.8571428571428571 0.0 0.8571428571428571
ImageDCStart @ FileName:clbcatq.dll 0.8571428571428571 0.0 0.8571428571428571
ImageDCStart @ FileName:version.dll 0.7142857142857143 0.0 0.7142857142857143
ImageDCStart @ FileName:profapi.dll 0.7142857142857143 0.0 0.7142857142857143
ImageDCStart @ FileName:msvfw32.dll 0.7142857142857143 0.0 0.7142857142857143
ImageDCStart @ FileName:winmm.dll 0.7142857142857143 0.0 0.7142857142857143
ImageDCStart @ FileName:comctl32.dll 0.7142857142857143 0.0 0.7142857142857143
ImageDCStart @ FileName:avicap32.dll 0.7142857142857143 0.0 0.7142857142857143
ImageDCStart @ FileName:wow64.dll 0.7142857142857143 0.0 0.7142857142857143
ImageDCStart @ FileName:wow64win.dll 0.7142857142857143 0.0 0.7142857142857143
ImageDCStart @ FileName:wow64cpu.dll 0.7142857142857143 0.0 0.7142857142857143
ImageDCStart @ FileName:System.Xml.ni.dll 0.5714285714285714 0.0 0.5714285714285714
ImageDCStart @ FileName:mscorjit.dll 0.5714285714285714 0.0 0.5714285714285714
ImageDCStart @ FileName:dnsapi.dll 0.5714285714285714 0.0 0.5714285714285714
ImageDCStart @ FileName:fastprox.dll 0.5714285714285714 0.0 0.5714285714285714
ImageDCStart @ FileName:wmiutils.dll 0.5714285714285714 0.0 0.5714285714285714
ImageDCStart @ FileName:System.Drawing.ni.dll 0.5714285714285714 0.0 0.5714285714285714
ImageDCStart @ FileName:crypt32.dll 0.5714285714285714 0.0 0.5714285714285714
ImageDCStart @ FileName:wbemprox.dll 0.5714285714285714 0.0 0.5714285714285714
ImageDCStart @ FileName:FWPUCLNT.DLL 0.5714285714285714 0.0 0.5714285714285714
ImageDCStart @ FileName:msvcr80.dll 0.5714285714285714 0.0 0.5714285714285714
ImageDCStart @ FileName:wbemsvc.dll 0.5714285714285714 0.0 0.5714285714285714
ImageDCStart @ FileName:cryptsp.dll 0.5714285714285714 0.0 0.5714285714285714
ImageDCStart @ FileName:mscorwks.dll 0.5714285714285714 0.0 0.5714285714285714
ImageDCStart @ FileName:System.Configuration.ni.dll 0.5714285714285714 0.0 0.5714285714285714
ImageDCStart @ FileName:msasn1.dll 0.5714285714285714 0.0 0.5714285714285714
ImageDCStart @ FileName:System.Windows.Forms.ni.dll 0.5714285714285714 0.0 0.5714285714285714
ImageDCStart @ FileName:wbemcomn.dll 0.5714285714285714 0.0 0.5714285714285714
ImageDCStart @ FileName:mscoree.dll 0.5714285714285714 0.0 0.5714285714285714
ImageDCStart @ FileName:bcrypt.dll 0.5714285714285714 0.0 0.5714285714285714
ImageDCStart @ FileName:winnsi.dll 0.5714285714285714 0.0 0.5714285714285714
ImageDCStart @ FileName:System.ni.dll 0.5714285714285714 0.0 0.5714285714285714
ImageDCStart @ FileName:WMINet_Utils.dll 0.5714285714285714 0.0 0.5714285714285714
ImageDCStart @ FileName:mscoreei.dll 0.5714285714285714 0.0 0.5714285714285714
ImageDCStart @ FileName:RpcRtRemote.dll 0.5714285714285714 0.0 0.5714285714285714
ImageDCStart @ FileName:ntdsapi.dll 0.5714285714285714 0.0 0.5714285714285714
ImageDCStart @ FileName:cfgmgr32.dll 0.5714285714285714 0.0 0.5714285714285714
ImageDCStart @ FileName:rsaenh.dll 0.5714285714285714 0.0 0.5714285714285714
ImageDCStart @ FileName:wship6.dll 0.5714285714285714 0.0 0.5714285714285714
ImageDCStart @ FileName:mscorlib.ni.dll 0.5714285714285714 0.0 0.5714285714285714
ImageDCStart @ FileName:rasadhlp.dll 0.5714285714285714 0.0 0.5714285714285714
ImageDCStart @ FileName:IPHLPAPI.DLL 0.5714285714285714 0.0 0.5714285714285714
ImageDCStart @ FileName:winrnr.dll 0.42857142857142855 0.0 0.42857142857142855
ImageDCStart @ FileName:rasapi32.dll 0.42857142857142855 0.0 0.42857142857142855
ImageDCStart @ FileName:rasman.dll 0.42857142857142855 0.0 0.42857142857142855
ImageDCStart @ FileName:urlmon.dll 0.42857142857142855 0.0 0.42857142857142855
ImageDCStart @ FileName:Microsoft.VisualBasic.ni.dll 0.42857142857142855 0.0 0.42857142857142855
ImageDCStart @ FileName:psapi.dll 0.42857142857142855 0.0 0.42857142857142855
ImageDCStart @ FileName:GdiPlus.dll 0.42857142857142855 0.0 0.42857142857142855
ImageDCStart @ FileName:wininet.dll 0.42857142857142855 0.0 0.42857142857142855
ImageDCStart @ FileName:wshbth.dll 0.42857142857142855 0.0 0.42857142857142855
ImageDCStart @ FileName:NapiNSP.dll 0.42857142857142855 0.0 0.42857142857142855
ImageDCStart @ FileName:wsock32.dll 0.42857142857142855 0.0 0.42857142857142855
ImageDCStart @ FileName:dwmapi.dll 0.42857142857142855 0.0 0.42857142857142855
ImageDCStart @ FileName:msacm32.dll 0.42857142857142855 0.0 0.42857142857142855
ImageDCStart @ FileName:iertutil.dll 0.42857142857142855 0.0 0.42857142857142855
ImageDCStart @ FileName:pnrpnsp.dll 0.42857142857142855 0.0 0.42857142857142855
SystemCall @ SystemCall:NtWaitForWorkViaWorkerFactory 0.42857142857142855 0.043478260869565216 0.3850931677018633
ImageDCStart @ FileName:dhcpcsvc.dll 0.2857142857142857 0.0 0.2857142857142857
ImageDCStart @ FileName:winhttp.dll 0.2857142857142857 0.0 0.2857142857142857
ImageDCStart @ FileName:setupapi.dll 0.2857142857142857 0.0 0.2857142857142857
ImageDCStart @ FileName:webio.dll 0.2857142857142857 0.0 0.2857142857142857
ImageDCStart @ FileName:rtutils.dll 0.2857142857142857 0.0 0.2857142857142857
ImageDCStart @ FileName:devobj.dll 0.2857142857142857 0.0 0.2857142857142857
ImageDCStart @ FileName:credssp.dll 0.2857142857142857 0.0 0.2857142857142857
ImageDCStart @ FileName:propsys.dll 0.2857142857142857 0.0 0.2857142857142857
ImageDCStart @ FileName:dhcpcsvc6.dll 0.2857142857142857 0.0 0.2857142857142857
SystemCall @ SystemCall:NtUserGetForegroundWindow 0.8571428571428571 0.6521739130434783 0.20496894409937882
SystemCall @ SystemCall:NtUserQueryWindow 0.8571428571428571 0.6956521739130435 0.16149068322981364
SystemCall @ SystemCall:NtSetTimer 0.42857142857142855 0.34782608695652173 0.08074534161490682
SystemCall @ SystemCall:NtReleaseWorkerFactoryWorker 0.42857142857142855 0.43478260869565216 -0.006211180124223614
SystemCall @ SystemCall:NtUserGetAsyncKeyState 0.2857142857142857 0.30434782608695654 -0.018633540372670843
SystemCall @ SystemCall:NtSetInformationWorkerFactory 0.2857142857142857 0.4782608695652174 -0.1925465838509317
SystemCall @ SystemCall:NtUserGetKeyState 0.42857142857142855 0.6521739130434783 -0.22360248447204972
SystemCall @ SystemCall:NtWriteFile 0.42857142857142855 0.6521739130434783 -0.22360248447204972
SystemCall @ SystemCall:NtCallbackReturn 0.42857142857142855 0.782608695652174 -0.3540372670807454
SystemCall @ SystemCall:NtQuerySystemInformation 0.2857142857142857 0.6956521739130435 -0.40993788819875776
SystemCall @ SystemCall:NtAllocateVirtualMemory 0.42857142857142855 0.8695652173913043 -0.4409937888198758
SystemCall @ SystemCall:NtCreateFile 0.2857142857142857 0.7391304347826086 -0.45341614906832295
SystemCall @ SystemCall:NtQueryInformationProcess 0.2857142857142857 0.8260869565217391 -0.5403726708074534
